<?xml version="1.0" encoding="UTF-8" standalone="no"?>
<svg width="512px" height="512px" viewBox="0 0 512 512" version="1.1" xmlns="http://www.w3.org/2000/svg" xmlns:xlink="http://www.w3.org/1999/xlink" xmlns:sketch="http://www.bohemiancoding.com/sketch/ns">
    <title>knob+tooltip1-grey</title>
    <description>Created with Sketch (http://www.bohemiancoding.com/sketch)</description>
    <defs>
        <linearGradient x1="50%" y1="0%" x2="50%" y2="100%" id="linearGradient-1">
            <stop stop-color="#FFFFFF" offset="0%"></stop>
            <stop stop-color="#E4E4E4" offset="100%"></stop>
        </linearGradient>
        <filter x="-50%" y="-50%" width="200%" height="200%" filterUnits="objectBoundingBox" id="filter-2">
            <feOffset dx="0" dy="2" in="SourceAlpha" result="shadowOffsetOuter1"></feOffset>
            <feGaussianBlur stdDeviation="0.5" in="shadowOffsetOuter1" result="shadowBlurOuter1"></feGaussianBlur>
            <feColorMatrix values="0 0 0 0 0.811764706   0 0 0 0 0.811764706   0 0 0 0 0.811764706  0 0 0 0.7 0" in="shadowBlurOuter1" type="matrix" result="shadowMatrixOuter1"></feColorMatrix>
            <feMerge>
                <feMergeNode in="shadowMatrixOuter1"></feMergeNode>
                <feMergeNode in="SourceGraphic"></feMergeNode>
            </feMerge>
        </filter>
        <filter x="-50%" y="-50%" width="200%" height="200%" filterUnits="objectBoundingBox" id="filter-3">
            <feOffset dx="0" dy="3" in="SourceAlpha" result="shadowOffsetInner1"></feOffset>
            <feGaussianBlur stdDeviation="2.5" in="shadowOffsetInner1" result="shadowBlurInner1"></feGaussianBlur>
            <feComposite in="shadowBlurInner1" in2="SourceAlpha" operator="arithmetic" k2="-1" k3="1" result="shadowInnerInner1"></feComposite>
            <feColorMatrix values="0 0 0 0 0.776470588   0 0 0 0 0.776470588   0 0 0 0 0.776470588  0 0 0 0.7 0" in="shadowInnerInner1" type="matrix" result="shadowMatrixInner1"></feColorMatrix>
            <feMerge>
                <feMergeNode in="SourceGraphic"></feMergeNode>
                <feMergeNode in="shadowMatrixInner1"></feMergeNode>
            </feMerge>
        </filter>
        <filter x="-50%" y="-50%" width="200%" height="200%" filterUnits="objectBoundingBox" id="filter-4">
            <feOffset dx="0" dy="3" in="SourceAlpha" result="shadowOffsetInner1"></feOffset>
            <feGaussianBlur stdDeviation="2.5" in="shadowOffsetInner1" result="shadowBlurInner1"></feGaussianBlur>
            <feComposite in="shadowBlurInner1" in2="SourceAlpha" operator="arithmetic" k2="-1" k3="1" result="shadowInnerInner1"></feComposite>
            <feColorMatrix values="0 0 0 0 0.776470588   0 0 0 0 0.776470588   0 0 0 0 0.776470588  0 0 0 0.7 0" in="shadowInnerInner1" type="matrix" result="shadowMatrixInner1"></feColorMatrix>
            <feMerge>
                <feMergeNode in="SourceGraphic"></feMergeNode>
                <feMergeNode in="shadowMatrixInner1"></feMergeNode>
            </feMerge>
        </filter>
        <filter x="-50%" y="-50%" width="200%" height="200%" filterUnits="objectBoundingBox" id="filter-5">
            <feOffset dx="0" dy="3" in="SourceAlpha" result="shadowOffsetInner1"></feOffset>
            <feGaussianBlur stdDeviation="2.5" in="shadowOffsetInner1" result="shadowBlurInner1"></feGaussianBlur>
            <feComposite in="shadowBlurInner1" in2="SourceAlpha" operator="arithmetic" k2="-1" k3="1" result="shadowInnerInner1"></feComposite>
            <feColorMatrix values="0 0 0 0 0.776470588   0 0 0 0 0.776470588   0 0 0 0 0.776470588  0 0 0 0.7 0" in="shadowInnerInner1" type="matrix" result="shadowMatrixInner1"></feColorMatrix>
            <feMerge>
                <feMergeNode in="SourceGraphic"></feMergeNode>
                <feMergeNode in="shadowMatrixInner1"></feMergeNode>
            </feMerge>
        </filter>
        <filter x="-50%" y="-50%" width="200%" height="200%" filterUnits="objectBoundingBox" id="filter-6">
            <feOffset dx="0" dy="2" in="SourceAlpha" result="shadowOffsetOuter1"></feOffset>
            <feGaussianBlur stdDeviation="0.5" in="shadowOffsetOuter1" result="shadowBlurOuter1"></feGaussianBlur>
            <feColorMatrix values="0 0 0 0 0.811764706   0 0 0 0 0.811764706   0 0 0 0 0.811764706  0 0 0 0.7 0" in="shadowBlurOuter1" type="matrix" result="shadowMatrixOuter1"></feColorMatrix>
            <feMerge>
                <feMergeNode in="shadowMatrixOuter1"></feMergeNode>
                <feMergeNode in="SourceGraphic"></feMergeNode>
            </feMerge>
        </filter>
    </defs>
    <g id="Page-1" stroke="none" stroke-width="1" fill="none" fill-rule="evenodd" sketch:type="MSPage">
        <g id="knob+tooltip1-grey" sketch:type="MSArtboardGroup">
            <g id="Rectangle-1-+-Rectangle-2-+-Rectangle-2-+-Rectangle-2-+-Rectangle-5" sketch:type="MSLayerGroup" transform="translate(0.000000, 197.000000)">
                <g id="Rectangle-1-+-Rectangle-2-+-Rectangle-2-+-Rectangle-2" sketch:type="MSShapeGroup">
                    <rect id="Rectangle-1" stroke="#BCBCBC" stroke-width="2" fill="url(#linearGradient-1)" filter="url(#filter-2)" x="0" y="0" width="102.686567" height="117.518367" rx="6"></rect>
                    <g id="Rectangle-2-+-Rectangle-2-+-Rectangle-2" transform="translate(27.701493, 36.122449)" fill="#DCDCDC">
                        <rect id="Rectangle-2" filter="url(#filter-3)" x="-2.84217094e-14" y="19.2653061" width="47.761194" height="7.2244898" rx="3"></rect>
                        <rect id="Rectangle-2" filter="url(#filter-4)" x="-2.84217094e-14" y="-4.26325641e-14" width="47.761194" height="7.2244898" rx="3"></rect>
                        <rect id="Rectangle-2" filter="url(#filter-5)" x="-2.84217094e-14" y="38.5306122" width="47.761194" height="7.2244898" rx="3"></rect>
                    </g>
                </g>
                <path d="M127.522388,44.7493397 L127.522388,5.99347851 C127.522388,2.6863029 130.208942,0 133.522974,0 L505.999414,0 C509.313301,0 512,2.68337173 512,5.99347851 L512,112.006521 C512,115.313697 509.313446,118 505.999414,118 L133.522974,118 C130.209087,118 127.522388,115.316628 127.522388,112.006521 L127.522388,73.7322929 L111.761194,59.2408163 L127.522388,44.7493397 Z" id="Rectangle-5" stroke="#BCBCBC" stroke-width="2" fill="#FFFFFF" filter="url(#filter-6)" sketch:type="MSShapeGroup"></path>
            </g>
        </g>
    </g>
</svg>