<?xml version="1.0" encoding="utf-8"?>
<!-- Generator: Adobe Illustrator 16.0.4, SVG Export Plug-In . SVG Version: 6.00 Build 0)  -->
<!DOCTYPE svg PUBLIC "-//W3C//DTD SVG 1.1//EN" "http://www.w3.org/Graphics/SVG/1.1/DTD/svg11.dtd">
<svg version="1.1" xmlns="http://www.w3.org/2000/svg" xmlns:xlink="http://www.w3.org/1999/xlink" x="0px" y="0px" width="600px"
	 height="560px" viewBox="0 0 600 560" style="enable-background:new 0 0 600 560;" xml:space="preserve">
<style type="text/css">
<![CDATA[
	.st0{fill:none;}
	.st1{fill:#010101;}
	.st2{fill:#71C8F1;}
]]>
</style>
<g id="Layer_1_copy_5">
</g>
<g id="Layer_4">
	<polygon class="st2" points="40,52 40,503 560,503 560,463 80,463 80,52 	"/>
	<path class="st1" d="M526.7,165.4"/>
	<path class="st2" d="M119,417V298.7c0,0,45.6-107.4,154.5-107.4c21.6,0,53.6,9.4,105.5,44c23.1,10.8,64,36.1,127.7-56.9
		c12.3-15.9,10.3-18.7,20.3-12.9V417H119z"/>
	<rect x="40" y="52" class="st0" width="520" height="451"/>
</g>
</svg>
