<?xml version="1.0" encoding="utf-8"?>
<!-- Generator: Adobe Illustrator 16.0.4, SVG Export Plug-In . SVG Version: 6.00 Build 0)  -->
<!DOCTYPE svg PUBLIC "-//W3C//DTD SVG 1.1//EN" "http://www.w3.org/Graphics/SVG/1.1/DTD/svg11.dtd">
<svg version="1.1" xmlns="http://www.w3.org/2000/svg" xmlns:xlink="http://www.w3.org/1999/xlink" x="0px" y="0px" width="600px"
	 height="560px" viewBox="0 0 600 560" style="enable-background:new 0 0 600 560;" xml:space="preserve">
<style type="text/css">
<![CDATA[
	.st0{fill:#FFFFFF;}
]]>
</style>
<g id="Layer_1_copy_5">
</g>
<g id="Layer_3">
	<g>
		<path class="st0" d="M495.5,85v390h-391V85H495.5 M530.5,40h-461c-5.5,0-10,4.5-10,10v460c0,5.5,4.5,10,10,10h461
			c5.5,0,10-4.5,10-10V50C540.5,44.5,536,40,530.5,40L530.5,40z"/>
	</g>
	<rect x="102.5" y="196" class="st0" width="399" height="36"/>
	<rect x="354.5" y="81" class="st0" width="36" height="399"/>
	<rect x="208.5" y="81" class="st0" width="36" height="399"/>
	<rect x="102.5" y="324" class="st0" width="399" height="36"/>
</g>
</svg>
