<?xml version="1.0" encoding="utf-8"?>
<!-- Generator: Adobe Illustrator 16.0.4, SVG Export Plug-In . SVG Version: 6.00 Build 0)  -->
<!DOCTYPE svg PUBLIC "-//W3C//DTD SVG 1.1//EN" "http://www.w3.org/Graphics/SVG/1.1/DTD/svg11.dtd">
<svg version="1.1" xmlns="http://www.w3.org/2000/svg" xmlns:xlink="http://www.w3.org/1999/xlink" x="0px" y="0px" width="600px"
	 height="560px" viewBox="0 0 600 560" style="enable-background:new 0 0 600 560;" xml:space="preserve">
<style type="text/css">
<![CDATA[
	.st0{fill:#FFFFFF;}
	.st1{fill:none;}
	.st2{opacity:0.7;fill:#FFFFFF;}
]]>
</style>
<g id="Layer_1_copy_5">
</g>
<g id="Layer_4">
	<polygon class="st0" points="40,52 40,503 560,503 560,463 80,463 80,52 	"/>
	<path class="st0" d="M298,128.6c-79,0-143.6,64.2-143.6,143.5c0,79.2,64.2,143.4,143.4,143.4c79.2,0,143.4-64.5,143.4-143.5H298
		V128.6z"/>
	<path class="st2" d="M327,78v162h162.2c0,0,4.8-162.2-162.2-162.2"/>
	<rect x="40" y="52" class="st1" width="520" height="451"/>
</g>
</svg>
