<?xml version="1.0" encoding="utf-8"?>
<!-- Generator: Adobe Illustrator 16.0.4, SVG Export Plug-In . SVG Version: 6.00 Build 0)  -->
<!DOCTYPE svg PUBLIC "-//W3C//DTD SVG 1.1//EN" "http://www.w3.org/Graphics/SVG/1.1/DTD/svg11.dtd">
<svg version="1.1" xmlns="http://www.w3.org/2000/svg" xmlns:xlink="http://www.w3.org/1999/xlink" x="0px" y="0px" width="600px"
	 height="560px" viewBox="0 0 600 560" style="enable-background:new 0 0 600 560;" xml:space="preserve">
<style type="text/css">
<![CDATA[
	.st0{fill:#FFFFFF;}
]]>
</style>
<g id="Layer_1_copy_5">
</g>
<g id="Layer_3">
	<polygon class="st0" points="40,52 40,503 560,503 560,463 80,463 80,52 	"/>
	
		<rect x="179.9" y="113.4" transform="matrix(0.7071 -0.7071 0.7071 0.7071 -44.9802 202.6789)" class="st0" width="84.5" height="84.5"/>
	
		<rect x="111.4" y="336.8" transform="matrix(0.7071 -0.7071 0.7071 0.7071 -223.017 219.6972)" class="st0" width="84.5" height="84.5"/>
	
		<rect x="298.4" y="242.7" transform="matrix(0.7071 -0.7071 0.7071 0.7071 -101.7572 324.3414)" class="st0" width="84.5" height="84.5"/>
	
		<rect x="420.2" y="168.8" transform="matrix(0.7071 -0.7071 0.7071 0.7071 -13.8188 388.8188)" class="st0" width="84.5" height="84.5"/>
</g>
</svg>
