<?xml version="1.0" encoding="utf-8"?>
<!-- Generator: Adobe Illustrator 16.0.4, SVG Export Plug-In . SVG Version: 6.00 Build 0)  -->
<!DOCTYPE svg PUBLIC "-//W3C//DTD SVG 1.1//EN" "http://www.w3.org/Graphics/SVG/1.1/DTD/svg11.dtd">
<svg version="1.1" xmlns="http://www.w3.org/2000/svg" xmlns:xlink="http://www.w3.org/1999/xlink" x="0px" y="0px" width="600px"
	 height="560px" viewBox="0 0 600 560" style="enable-background:new 0 0 600 560;" xml:space="preserve">
<style type="text/css">
<![CDATA[
	.st0{fill:#71C8F1;}
]]>
</style>
<g id="Layer_1_copy_5">
</g>
<g id="Layer_3">
	<polygon class="st0" points="40,52 40,503 560,503 560,463 80,463 80,52 	"/>
	<polygon class="st0" points="172,403 118.8,365.8 251,176.8 376.6,261.5 475.2,114.8 529.1,151 394.2,351.6 267.6,266.3 	"/>
</g>
</svg>
