<?xml version="1.0" encoding="utf-8"?>
<!-- Generator: Adobe Illustrator 16.0.4, SVG Export Plug-In . SVG Version: 6.00 Build 0)  -->
<!DOCTYPE svg PUBLIC "-//W3C//DTD SVG 1.1//EN" "http://www.w3.org/Graphics/SVG/1.1/DTD/svg11.dtd">
<svg version="1.1" xmlns="http://www.w3.org/2000/svg" xmlns:xlink="http://www.w3.org/1999/xlink" x="0px" y="0px" width="600px"
	 height="560px" viewBox="0 0 600 560" enable-background="new 0 0 600 560" xml:space="preserve">
<g id="Layer_1_copy_5">
</g>
<g id="Layer_3">
</g>
<g id="Layer_5">
	<path fill="#999999" d="M555.8,480.2L317.1,62.4c-9.3-16.3-24.5-16.3-33.8,0L44.6,480.2c-9.3,16.3-1.6,29.6,17.2,29.6h476.9
		C557.4,509.8,565.1,496.4,555.8,480.2z M300.2,475.7c-18.8,0-34.1-15.2-34.1-34.1s15.3-34.1,34.1-34.1c18.8,0,34.1,15.2,34.1,34.1
		S319,475.7,300.2,475.7z M326.8,373.5h-54.5l-6.1-170.3h68.1L326.8,373.5z"/>
</g>
</svg>
