<?xml version="1.0" encoding="utf-8"?>
<!-- Generator: Adobe Illustrator 16.0.4, SVG Export Plug-In . SVG Version: 6.00 Build 0)  -->
<!DOCTYPE svg PUBLIC "-//W3C//DTD SVG 1.1//EN" "http://www.w3.org/Graphics/SVG/1.1/DTD/svg11.dtd">
<svg version="1.1" xmlns="http://www.w3.org/2000/svg" xmlns:xlink="http://www.w3.org/1999/xlink" x="0px" y="0px" width="600px"
	 height="560px" viewBox="0 0 600 560" enable-background="new 0 0 600 560" xml:space="preserve">
<g id="Layer_1_copy_5">
</g>
<g id="Layer_3">
</g>
<g id="Layer_5">
	<g id="circle_x5F_info_2_">
		<path fill="#70993F" d="M300,40C167.5,40,60,147.4,60,280c0,132.5,107.5,240,240,240c132.5,0,240-107.5,240-240
			C540,147.4,432.5,40,300,40z M340,193.2c0,5.4-4.4,9.8-9.8,9.8h-39.4c-5.4,0-9.8-4.4-9.8-9.8v-39.4c0-5.4,4.4-9.8,9.8-9.8h39.4
			c5.4,0,9.8,4.4,9.8,9.8V193.2z M378,407.3c0,5.4-4,10.7-9.4,10.7H251c-5.4,0-11-5.3-11-10.7v-39.2c0-5.4,5.6-10.2,11-10.2h30v-77
			h-30c-5.4,0-11-5.4-11-10.8V231c0-5.4,5.6-11,11-11h78.4c5.4,0,9.6,5.6,9.6,11v127h29.6c5.4,0,9.4,4.8,9.4,10.2V407.3z"/>
	</g>
</g>
</svg>
