<?xml version="1.0" encoding="utf-8"?>
<!-- Generator: Adobe Illustrator 16.0.4, SVG Export Plug-In . SVG Version: 6.00 Build 0)  -->
<!DOCTYPE svg PUBLIC "-//W3C//DTD SVG 1.1//EN" "http://www.w3.org/Graphics/SVG/1.1/DTD/svg11.dtd">
<svg version="1.1" xmlns="http://www.w3.org/2000/svg" xmlns:xlink="http://www.w3.org/1999/xlink" x="0px" y="0px" width="600px"
	 height="560px" viewBox="0 0 600 560" style="enable-background:new 0 0 600 560;" xml:space="preserve">
<style type="text/css">
<![CDATA[
	.st0{fill:#BBBBBB;}
]]>
</style>
<g id="Layer_1_copy_5">
</g>
<g id="Layer_3">
	<g>
		<g>
			<path class="st0" d="M472,487.6c0,17.9-14.5,32.4-32.4,32.4H162.4c-17.9,0-32.4-14.5-32.4-32.4V72.4c0-17.9,14.5-32.4,32.4-32.4
				h277.2c17.9,0,32.4,14.5,32.4,32.4V487.6z M175,475h252V85H175V475z"/>
		</g>
		<g>
			<path class="st0" d="M438.1,202H166.9c-12.4,0-22.5-10.1-22.5-22.5s10.1-22.5,22.5-22.5h271.2c12.4,0,22.5,10.1,22.5,22.5
				S450.6,202,438.1,202z"/>
		</g>
	</g>
</g>
</svg>
