<?xml version="1.0" encoding="utf-8"?>
<!-- Generator: Adobe Illustrator 16.0.0, SVG Export Plug-In . SVG Version: 6.00 Build 0)  -->
<!DOCTYPE svg PUBLIC "-//W3C//DTD SVG 1.1//EN" "http://www.w3.org/Graphics/SVG/1.1/DTD/svg11.dtd">
<svg version="1.1" id="Layer_1" xmlns:sketch="http://www.bohemiancoding.com/sketch/ns"
	 xmlns="http://www.w3.org/2000/svg" xmlns:xlink="http://www.w3.org/1999/xlink" x="0px" y="0px" width="512px" height="512px"
	 viewBox="0 0 512 512" enable-background="new 0 0 512 512" xml:space="preserve">
<title>Artboard 1</title>
<description>Created with Sketch (http://www.bohemiancoding.com/sketch)</description>
<g id="Page-1_1_" sketch:type="MSPage">
	<g id="Artboard-1_1_" sketch:type="MSArtboardGroup">
		<g id="VIZ---Operator_Less-than-or-equal-to" transform="translate(100.000000, 0.000000)" sketch:type="MSLayerGroup">
			<g id="Page-1" sketch:type="MSShapeGroup">
				<g id="Artboard-1">
					<path id="Rectangle-1" fill="#FFFFFF" d="M79,207.5c-0.3-6.8,2.1-13.6,7.3-18.8L268.2,7.3c9.8-9.8,25.6-9.8,35.4,0l0.1,0.1
						c9.8,9.7,9.8,25.6,0,35.3L138.4,207.5l165.3,164.8c9.8,9.8,9.8,25.6,0,35.3l-0.1,0.1c-9.8,9.7-25.6,9.7-35.4,0L86.3,226.4
						C81.1,221.2,78.7,214.2,79,207.5L79,207.5L79,207.5z M42.9,269.3c-9.8-9.8-25.7-9.8-35.5,0l-0.1,0.1c-9.8,9.8-9.8,25.6,0,35.3
						l200.8,200c9.8,9.8,25.7,9.8,35.5,0l0.1-0.1c9.8-9.8,9.8-25.6,0-35.3L42.9,269.3L42.9,269.3z"/>
				</g>
			</g>
		</g>
	</g>
</g>
</svg>
