<?xml version="1.0" encoding="utf-8"?>
<!-- Generator: Adobe Illustrator 16.0.0, SVG Export Plug-In . SVG Version: 6.00 Build 0)  -->
<!DOCTYPE svg PUBLIC "-//W3C//DTD SVG 1.1//EN" "http://www.w3.org/Graphics/SVG/1.1/DTD/svg11.dtd">
<svg version="1.1" id="Layer_1" xmlns:sketch="http://www.bohemiancoding.com/sketch/ns"
	 xmlns="http://www.w3.org/2000/svg" xmlns:xlink="http://www.w3.org/1999/xlink" x="0px" y="0px" width="512px" height="512px"
	 viewBox="0 0 512 512" enable-background="new 0 0 512 512" xml:space="preserve">
<title>Artboard 1</title>
<description>Created with Sketch (http://www.bohemiancoding.com/sketch)</description>
<g id="Page-1_2_" sketch:type="MSPage">
	<g id="Artboard-1_2_" sketch:type="MSArtboardGroup">
		
			<g id="VIZ---Greater-than-copy" transform="translate(245.000000, 255.600000) rotate(-180.000000) translate(-245.000000, -255.600000) translate(104.000000, -0.400000)" sketch:type="MSLayerGroup">
			<g id="Page-1_1_" sketch:type="MSShapeGroup">
				<g id="Artboard-1_1_">
					<g id="VIZ---Greater-than" transform="translate(0.000000, -0.200000)">
						<g id="Page-1">
							<g id="Artboard-1">
								<path id="Rectangle-1" fill="#FFFFFF" d="M282.1,256c0.1,6.5-2.3,13.1-7.3,18.1L43.6,504.5c-9.8,9.7-25.6,9.7-35.4,0
									c-9.8-9.7-9.8-25.5,0-35.2l214-213.3L7.8,42.3c-9.8-9.7-9.8-25.5,0-35.2c9.8-9.7,25.6-9.7,35.3,0l231.6,230.8
									C279.8,242.9,282.2,249.5,282.1,256L282.1,256L282.1,256z"/>
							</g>
						</g>
					</g>
				</g>
			</g>
		</g>
	</g>
</g>
</svg>
