<?xml version="1.0" encoding="utf-8"?>
<!-- Generator: Adobe Illustrator 16.0.4, SVG Export Plug-In . SVG Version: 6.00 Build 0)  -->
<!DOCTYPE svg PUBLIC "-//W3C//DTD SVG 1.1//EN" "http://www.w3.org/Graphics/SVG/1.1/DTD/svg11.dtd">
<svg version="1.1" xmlns="http://www.w3.org/2000/svg" xmlns:xlink="http://www.w3.org/1999/xlink" x="0px" y="0px" width="600px"
	 height="560px" viewBox="0 0 600 560" enable-background="new 0 0 600 560" xml:space="preserve">
<g id="Layer_1_copy_5">
</g>
<g id="Layer_5">
	<g>
		<path fill="#FFFFFF" d="M298,88c51.285,0,99.501,19.972,135.765,56.235C470.028,180.5,490,228.715,490,280
			s-19.972,99.501-56.235,135.765S349.285,472,298,472s-99.5-19.972-135.765-56.235C125.972,379.501,106,331.285,106,280
			s19.972-99.5,56.235-135.765C198.5,107.972,246.715,88,298,88 M298,40C165.452,40,58,147.452,58,280
			c0,132.549,107.452,240,240,240c132.549,0,240-107.451,240-240C538,147.452,430.549,40,298,40L298,40z"/>
	</g>
</g>
<g id="Layer_6">
	
		<line fill="none" stroke="#FFFFFF" stroke-width="48" stroke-linecap="square" stroke-miterlimit="10" x1="159.5" y1="418.5" x2="436.5" y2="141.5"/>
</g>
</svg>
