<?xml version="1.0" encoding="utf-8"?>
<!-- Generator: Adobe Illustrator 16.0.4, SVG Export Plug-In . SVG Version: 6.00 Build 0)  -->
<!DOCTYPE svg PUBLIC "-//W3C//DTD SVG 1.1//EN" "http://www.w3.org/Graphics/SVG/1.1/DTD/svg11.dtd">
<svg version="1.1" xmlns="http://www.w3.org/2000/svg" xmlns:xlink="http://www.w3.org/1999/xlink" x="0px" y="0px" width="600px"
	 height="560px" viewBox="0 0 600 560" style="enable-background:new 0 0 600 560;" xml:space="preserve">
<style type="text/css">
<![CDATA[
	.st0{fill:#FFFFFF;}
]]>
</style>
<g id="Layer_1_copy_5">
</g>
<g id="Layer_3">
</g>
<g id="Layer_4">
	<g id="remove_x5F_2_1_">
		<path class="st0" d="M385,280l150.5-150.5c5.9-5.9,5.9-15.6,0-21.5l-63.5-63.5c-5.9-5.9-15.5-5.9-21.4,0L300.1,195.1L149.4,44.4
			c-5.9-5.9-15.6-5.9-21.4,0l-63.5,63.5c-5.9,5.9-5.9,15.5,0,21.5L215.1,280L64.5,430.7c-5.9,5.9-5.9,15.5,0,21.4l63.5,63.5
			c5.9,5.9,15.6,5.9,21.5,0L300,365l150.5,150.5c5.9,5.9,15.6,5.9,21.5,0l63.5-63.5c5.9-5.9,5.9-15.5,0-21.5L385,280z"/>
	</g>
</g>
</svg>
