<?xml version="1.0" encoding="UTF-8" standalone="no"?>
<svg width="517px" height="512px" viewBox="0 0 517 512" version="1.1" xmlns="http://www.w3.org/2000/svg" xmlns:xlink="http://www.w3.org/1999/xlink" xmlns:sketch="http://www.bohemiancoding.com/sketch/ns">
    <title>Slice 2</title>
    <description>Created with Sketch (http://www.bohemiancoding.com/sketch)</description>
    <defs></defs>
    <g id="Page-1" stroke="none" stroke-width="1" fill="none" fill-rule="evenodd" sketch:type="MSPage">
        <g id="Artboard-1" sketch:type="MSArtboardGroup" fill="#555555">
            <g id="VIZ---Operator_Null" sketch:type="MSLayerGroup">
                <g id="Page-1" sketch:type="MSShapeGroup">
                    <g id="Artboard-1">
                        <path d="M256,512 C397.3849,512 512,397.3849 512,256 C512,114.6151 397.3849,0 256,0 C114.6151,0 0,114.6151 0,256 C0,397.3849 114.6151,512 256,512 L256,512 Z M256,461 C369.21838,461 461,369.21838 461,256 C461,142.78162 369.21838,51 256,51 C142.78162,51 51,142.78162 51,256 C51,369.21838 142.78162,461 256,461 L256,461 Z" id="Oval-1"></path>
                    </g>
                </g>
            </g>
        </g>
    </g>
</svg>