<?xml version="1.0" encoding="UTF-8" standalone="no"?>
<svg width="282px" height="515px" viewBox="0 0 282 515" version="1.1" xmlns="http://www.w3.org/2000/svg" xmlns:xlink="http://www.w3.org/1999/xlink" xmlns:sketch="http://www.bohemiancoding.com/sketch/ns">
    <title>SVG_ICON 16</title>
    <description>Created with Sketch (http://www.bohemiancoding.com/sketch)</description>
    <defs></defs>
    <g id="Page-1" stroke="none" stroke-width="1" fill="none" fill-rule="evenodd" sketch:type="MSPage">
        <g id="Artboard-1" sketch:type="MSArtboardGroup" transform="translate(-4081.500000, -6938.000000)" fill="#555555">
            <path d="M4081.88644,7195.04819 C4081.75875,7188.486 4084.19966,7181.88272 4089.2081,7176.87428 L4320.38935,6945.69303 C4330.15776,6935.92462 4345.98622,6935.92529 4355.74933,6945.68839 C4365.51458,6955.45365 4365.51036,6971.2827 4355.74469,6981.04837 L4141.74231,7195.05075 L4356.18197,7409.4904 C4365.93623,7419.24466 4365.9392,7435.07675 4356.17609,7444.83986 C4346.41084,7454.60511 4330.58649,7454.6056 4320.82663,7444.84574 L4089.19758,7213.21669 C4084.19413,7208.21324 4081.75642,7201.6106 4081.88644,7195.04819 Z" id="Rectangle-1" sketch:type="MSShapeGroup"></path>
        </g>
    </g>
</svg>