<?xml version="1.0" encoding="UTF-8" standalone="no"?>
<svg width="513px" height="512px" viewBox="0 0 513 512" version="1.1" xmlns="http://www.w3.org/2000/svg" xmlns:xlink="http://www.w3.org/1999/xlink" xmlns:sketch="http://www.bohemiancoding.com/sketch/ns">
    <title>SVG_ICON 12</title>
    <description>Created with Sketch (http://www.bohemiancoding.com/sketch)</description>
    <defs></defs>
    <g id="Page-1" stroke="none" stroke-width="1" fill="none" fill-rule="evenodd" sketch:type="MSPage">
        <g id="Artboard-1" sketch:type="MSArtboardGroup" transform="translate(-4037.500000, -5262.000000)" fill="#555555">
            <path d="M4269.09728,5542.90272 L4062.91119,5542.90272 C4049.13996,5542.90272 4038,5531.75339 4038,5518 C4038,5504.24358 4049.15312,5493.09728 4062.91119,5493.09728 L4269.09728,5493.09728 L4269.09728,5286.91119 C4269.09728,5273.13996 4280.24661,5262 4294,5262 C4307.75642,5262 4318.90272,5273.15312 4318.90272,5286.91119 L4318.90272,5493.09728 L4525.08881,5493.09728 C4538.86004,5493.09728 4550,5504.24661 4550,5518 C4550,5531.75642 4538.84688,5542.90272 4525.08881,5542.90272 L4318.90272,5542.90272 L4318.90272,5749.08881 C4318.90272,5762.86004 4307.75339,5774 4294,5774 C4280.24358,5774 4269.09728,5762.84688 4269.09728,5749.08881 L4269.09728,5542.90272 Z" id="Rectangle-1" sketch:type="MSShapeGroup"></path>
        </g>
    </g>
</svg>