<?xml version="1.0" encoding="UTF-8" standalone="no"?>
<svg width="512px" height="212px" viewBox="0 0 512 212" version="1.1" xmlns="http://www.w3.org/2000/svg" xmlns:xlink="http://www.w3.org/1999/xlink" xmlns:sketch="http://www.bohemiancoding.com/sketch/ns">
    <title>SVG_ICON 10</title>
    <description>Created with Sketch (http://www.bohemiancoding.com/sketch)</description>
    <defs></defs>
    <g id="Page-1" stroke="none" stroke-width="1" fill="none" fill-rule="evenodd" sketch:type="MSPage">
        <g id="Artboard-1" sketch:type="MSArtboardGroup" transform="translate(-5371.000000, -4467.000000)" fill="#555555">
            <rect id="Rectangle-1" sketch:type="MSShapeGroup" x="5371" y="4467" width="512" height="50" rx="40"></rect>
            <rect id="Rectangle-1-copy" sketch:type="MSShapeGroup" x="5371" y="4629" width="512" height="50" rx="40"></rect>
        </g>
    </g>
</svg>