<?xml version="1.0" encoding="UTF-8" standalone="no"?>
<svg width="307px" height="513px" viewBox="0 0 307 513" version="1.1" xmlns="http://www.w3.org/2000/svg" xmlns:xlink="http://www.w3.org/1999/xlink" xmlns:sketch="http://www.bohemiancoding.com/sketch/ns">
    <title>SVG_ICON 19</title>
    <description>Created with Sketch (http://www.bohemiancoding.com/sketch)</description>
    <defs></defs>
    <g id="Page-1" stroke="none" stroke-width="1" fill="none" fill-rule="evenodd" sketch:type="MSPage">
        <g id="Artboard-1" sketch:type="MSArtboardGroup" transform="translate(-4809.000000, -7664.000000)" fill="#555555">
            <path d="M4809.65592,7871.866 C4809.3875,7865.13799 4811.82215,7858.32251 4816.95894,7853.18572 L4998.60394,7671.54072 C5008.36564,7661.77902 5024.196,7661.77778 5033.95911,7671.54089 C5043.72436,7681.30614 5043.72229,7697.13305 5033.95928,7706.89606 L4869.00585,7871.84948 L5033.95928,8036.80291 C5043.72098,8046.56461 5043.72222,8062.39497 5033.95911,8072.15808 C5024.19386,8081.92333 5008.36695,8081.92126 4998.60394,8072.15824 L4816.95894,7890.51325 C4811.83134,7885.38565 4809.39681,7878.5836 4809.65592,7871.866 Z" id="Rectangle-1" sketch:type="MSShapeGroup" transform="translate(4925.500000, 7872.000000) rotate(-180.000000) translate(-4925.500000, -7872.000000) "></path>
            <path d="M4964.29069,8026.70711 C4917.29143,8026.70711 4848.99906,8026.17706 4848.99906,8026.17706 C4835.19246,8026.07927 4824,8037.18985 4824,8051 L4824,8051 C4824,8064.80712 4835.20021,8076 4848.99866,8076 L5132.04954,8076 C5145.85592,8076 5157.04821,8064.81015 5157.04821,8051 L5157.04821,8051 C5157.04821,8037.19288 5145.86018,8026.05622 5132.04405,8026.12357 C5132.04405,8026.12357 5019.97461,8026.70711 4964.29069,8026.70711 Z" id="Rectangle-1" sketch:type="MSShapeGroup" transform="translate(4990.500000, 8051.000000) rotate(-225.000000) translate(-4990.500000, -8051.000000) "></path>
        </g>
    </g>
</svg>