<?xml version="1.0" encoding="UTF-8" standalone="no"?>
<svg width="378px" height="378px" viewBox="0 0 378 378" version="1.1" xmlns="http://www.w3.org/2000/svg" xmlns:xlink="http://www.w3.org/1999/xlink" xmlns:sketch="http://www.bohemiancoding.com/sketch/ns">
    <title>SVG_ICON 15</title>
    <description>Created with Sketch (http://www.bohemiancoding.com/sketch)</description>
    <defs></defs>
    <g id="Page-1" stroke="none" stroke-width="1" fill="none" fill-rule="evenodd" sketch:type="MSPage">
        <g id="Artboard-1" sketch:type="MSArtboardGroup" transform="translate(-4886.000000, -6115.000000)" fill="#555555">
            <rect id="Rectangle-1" sketch:type="MSShapeGroup" transform="translate(5074.735677, 6304.000000) rotate(-45.000000) translate(-5074.735677, -6304.000000) " x="4818.73568" y="6279" width="512" height="50" rx="40"></rect>
        </g>
    </g>
</svg>