<?xml version="1.0" encoding="UTF-8" standalone="no"?>
<svg width="512px" height="512px" viewBox="0 0 512 512" version="1.1" xmlns="http://www.w3.org/2000/svg" xmlns:xlink="http://www.w3.org/1999/xlink" xmlns:sketch="http://www.bohemiancoding.com/sketch/ns">
    <title>Artboard 1</title>
    <description>Created with Sketch (http://www.bohemiancoding.com/sketch)</description>
    <defs>
        <path id="path-1" d="M207.455502,446.059922 L184.657005,446.059922 C184.657005,446.059922 155.933921,447.201426 153.881713,423.244663 C151.829506,399.2879 150.46097,329.697426 150.46097,329.697426 C150.46097,329.697426 150.541901,282.526802 106.00772,255.542988 C135.405595,234.338567 143.161256,221.815786 148.182374,195.08067 C153.204632,168.346695 153.881713,98.1098324 153.881713,98.1098324 C153.881713,98.1098324 148.558531,66.1684706 191.497352,66.1684706 L207.455502,66.1684706 L207.455502,0 L170.979731,0 C170.979731,0 129.482842,3.13816756 109.427779,21.675123 C89.369639,40.2143601 84.1899655,60.7709091 83.2089953,84.4211337 C82.3799694,104.456214 82.0695801,162.452763 80.9301715,169.98149 C79.7907628,177.510217 76.2518119,196.6242 68.3916252,206.48887 C60.4557513,216.449369 48.6224413,221.090225 34.19559,222.46149 C23.2367866,223.499636 0,222.46149 0,222.46149 L0,288.627907 C0,288.627907 26.4449339,287.486631 35.3350019,288.627907 C44.2250698,289.769184 63.5436533,294.999387 70.6722728,306.882168 C77.5514892,316.946481 79.2203697,325.414788 82.0695834,337.683166 C84.7888521,349.381134 83.2089953,414.118103 83.2089953,414.118103 C83.2089953,414.118103 82.1630525,464.634752 99.167601,482.340278 C114.941548,498.761241 141.343612,509.262032 165.508365,511.088941 C189.673118,512.91585 207.455502,512.22862 207.455502,512.22862 L207.455502,446.059922 Z"></path>
        <path id="path-3" d="M512.455502,446.059922 L489.657005,446.059922 C489.657005,446.059922 460.933921,447.201426 458.881713,423.244663 C456.829506,399.2879 455.46097,329.697426 455.46097,329.697426 C455.46097,329.697426 455.541901,282.526802 411.00772,255.542988 C440.405595,234.338567 448.161256,221.815786 453.182374,195.08067 C458.204632,168.346695 458.881713,98.1098324 458.881713,98.1098324 C458.881713,98.1098324 453.558531,66.1684706 496.497352,66.1684706 L512.455502,66.1684706 L512.455502,0 L475.979731,0 C475.979731,0 434.482842,3.13816756 414.427779,21.675123 C394.369639,40.2143601 389.189966,60.7709091 388.208995,84.4211337 C387.379969,104.456214 387.06958,162.452763 385.930171,169.98149 C384.790763,177.510217 381.251812,196.6242 373.391625,206.48887 C365.455751,216.449369 353.622441,221.090225 339.19559,222.46149 C328.236787,223.499636 305,222.46149 305,222.46149 L305,288.627907 C305,288.627907 331.444934,287.486631 340.335002,288.627907 C349.22507,289.769184 368.543653,294.999387 375.672273,306.882168 C382.551489,316.946481 384.22037,325.414788 387.069583,337.683166 C389.788852,349.381134 388.208995,414.118103 388.208995,414.118103 C388.208995,414.118103 387.163053,464.634752 404.167601,482.340278 C419.941548,498.761241 446.343612,509.262032 470.508365,511.088941 C494.673118,512.91585 512.455502,512.22862 512.455502,512.22862 L512.455502,446.059922 Z"></path>
    </defs>
    <g id="Page-1" stroke="none" stroke-width="1" fill="none" fill-rule="evenodd" sketch:type="MSPage">
        <g id="Artboard-1" sketch:type="MSArtboardGroup">
            <mask id="mask-2" sketch:name="path24" fill="white">
                <use xlink:href="#path-1"></use>
            </mask>
            <use id="path24" fill="#555555" sketch:type="MSShapeGroup" xlink:href="#path-1"></use>
            <mask id="mask-4" sketch:name="path24" fill="white">
                <use xlink:href="#path-3"></use>
            </mask>
            <use id="path24" fill="#555555" sketch:type="MSShapeGroup" transform="translate(408.500000, 256.000000) rotate(-180.000000) translate(-408.500000, -256.000000) " xlink:href="#path-3"></use>
        </g>
    </g>
</svg>