<?xml version="1.0" encoding="UTF-8" standalone="no"?>
<svg width="492px" height="490px" viewBox="0 0 492 490" version="1.1" xmlns="http://www.w3.org/2000/svg" xmlns:xlink="http://www.w3.org/1999/xlink" xmlns:sketch="http://www.bohemiancoding.com/sketch/ns">
    <title>SVG_ICON 10</title>
    <description>Created with Sketch (http://www.bohemiancoding.com/sketch)</description>
    <defs></defs>
    <g id="Page-1" stroke="none" stroke-width="1" fill="none" fill-rule="evenodd" sketch:type="MSPage">
        <g id="Artboard-1" sketch:type="MSArtboardGroup" transform="translate(-4818.000000, -4328.000000)" fill="#555555">
            <path d="M5044.83748,4628.02804 L5155.85056,4517.01495 L5282.96878,4517.01495 C5297.6066,4517.01495 5309.4729,4505.15504 5309.4729,4490.52148 L5309.4729,4492.78693 C5309.4729,4478.15499 5297.6106,4466.29346 5282.96878,4466.29346 L5206.57206,4466.29346 L5301.05502,4371.81049 C5311.40513,4361.46038 5311.40932,4344.68374 5301.06183,4334.33625 L5302.66375,4335.93817 C5292.3174,4325.59182 5275.547,4325.58748 5265.18951,4335.94498 L5134.84103,4466.29346 L4845.03122,4466.29346 C4830.3934,4466.29346 4818.5271,4478.15337 4818.5271,4492.78693 L4818.5271,4490.52148 C4818.5271,4505.15342 4830.3894,4517.01495 4845.03122,4517.01495 L5084.11953,4517.01495 L5084.11953,4517.01495 L4973.10645,4628.02804 L4845.03122,4628.02804 C4830.3934,4628.02804 4818.5271,4639.88795 4818.5271,4654.52151 L4818.5271,4652.25606 C4818.5271,4666.888 4830.3894,4678.74953 4845.03122,4678.74953 L4922.38495,4678.74953 L4826.94498,4774.18951 C4816.59487,4784.53962 4816.59068,4801.31626 4826.93817,4811.66375 L4825.33625,4810.06183 C4835.6826,4820.40818 4852.453,4820.41252 4862.81049,4810.05502 L4994.11598,4678.74953 L5282.96878,4678.74953 C5297.6066,4678.74953 5309.4729,4666.88962 5309.4729,4652.25606 L5309.4729,4654.52151 C5309.4729,4639.88957 5297.6106,4628.02804 5282.96878,4628.02804 L5044.83748,4628.02804 Z" id="Rectangle-1" sketch:type="MSShapeGroup"></path>
        </g>
    </g>
</svg>