<?xml version="1.0" encoding="UTF-8" standalone="no"?>
<svg width="512px" height="472px" viewBox="0 0 512 472" version="1.1" xmlns="http://www.w3.org/2000/svg" xmlns:xlink="http://www.w3.org/1999/xlink" xmlns:sketch="http://www.bohemiancoding.com/sketch/ns">
    <title>SVG_ICON 28</title>
    <description>Created with Sketch (http://www.bohemiancoding.com/sketch)</description>
    <defs></defs>
    <g id="Page-1" stroke="none" stroke-width="1" fill="none" fill-rule="evenodd" sketch:type="MSPage">
        <g id="Artboard-1" sketch:type="MSArtboardGroup" transform="translate(-6475.000000, -3686.000000)" fill="#555555">
            <path d="M6491.99864,3727 C6482.61055,3727 6475,3734.61781 6475,3743.99523 L6475,4141.00477 C6475,4150.39098 6482.60991,4158 6491.99864,4158 L6970.00136,4158 C6979.38945,4158 6987,4150.38219 6987,4141.00477 L6987,3743.99523 C6987,3734.60902 6979.39009,3727 6970.00136,3727 L6491.99864,3727 Z M6498,3750 L6498,4135 L6963,4135 L6963,3750 L6498,3750 Z" id="Rectangle-56" sketch:type="MSShapeGroup"></path>
            <rect id="Rectangle-57" sketch:type="MSShapeGroup" x="6593" y="3686" width="25" height="100" rx="17"></rect>
            <rect id="Rectangle-57" sketch:type="MSShapeGroup" x="6712" y="3686" width="25" height="100" rx="17"></rect>
            <rect id="Rectangle-57" sketch:type="MSShapeGroup" x="6828" y="3686" width="25" height="100" rx="17"></rect>
            <rect id="Rectangle-60" sketch:type="MSShapeGroup" x="6538" y="3821" width="76" height="76" rx="10"></rect>
            <rect id="Rectangle-60" sketch:type="MSShapeGroup" x="6640" y="3821" width="76" height="76" rx="10"></rect>
            <rect id="Rectangle-60" sketch:type="MSShapeGroup" x="6742" y="3821" width="76" height="76" rx="10"></rect>
            <rect id="Rectangle-60" sketch:type="MSShapeGroup" x="6844" y="3821" width="76" height="76" rx="10"></rect>
            <rect id="Rectangle-60" sketch:type="MSShapeGroup" x="6538" y="3917" width="76" height="76" rx="10"></rect>
            <rect id="Rectangle-60" sketch:type="MSShapeGroup" x="6640" y="3917" width="76" height="76" rx="10"></rect>
            <rect id="Rectangle-60" sketch:type="MSShapeGroup" x="6742" y="3917" width="76" height="76" rx="10"></rect>
            <rect id="Rectangle-60" sketch:type="MSShapeGroup" x="6844" y="3917" width="76" height="76" rx="10"></rect>
            <rect id="Rectangle-60" sketch:type="MSShapeGroup" x="6538" y="4013" width="76" height="76" rx="10"></rect>
            <rect id="Rectangle-60" sketch:type="MSShapeGroup" x="6640" y="4013" width="76" height="76" rx="10"></rect>
            <rect id="Rectangle-60" sketch:type="MSShapeGroup" x="6742" y="4013" width="76" height="76" rx="10"></rect>
            <rect id="Rectangle-60" sketch:type="MSShapeGroup" x="6844" y="4013" width="76" height="76" rx="10"></rect>
        </g>
    </g>
</svg>