8_8 Category ID|8_8 Category Level 1 ID|8_8 Category Level 2 ID|8_8 Category Level 3 ID|8_8 Category Level 4 ID|10_5 Category ID|10_5 Category Level 1 ID|10_5 Category Level 2 ID|10_5 Category Level 3 ID|10_5 Category Level 4 ID
560|560||||4|4|||
570|560|570|||1327|4|23|1327|
572|560|572|||3|3|||
7899|560|572|7899||3|3|||
7900|560|572|7900||3|3|||
7901|560|572|7901||3|3|||
7902|560|572|7902||3|3|||
7906|560|572|7906||3|3|||
575|560|575|||3|3|||
576|560|576|||1327|4|23|1327|
584|560|584|||3|3|||
674|560|674|||12|3|12||
1018|560|1018|||11|3|11||
6235|560|1018|6235||50|3|11|50|
6236|560|1018|6236||11|3|11||
7218|560|1018|7218||15|3|15||
7367|560|1018|7367||51|3|11|51|
7368|560|1018|7368||50|3|11|50|
7657|560|1018|7657||50|3|11|50|
7865|560|1018|7865||11|3|11||
7866|560|1018|7866||11|3|11||
7883|560|1018|7883||50|3|11|50|
7884|560|1018|7884||51|3|11|51|
5869|560|5869|||11|3|11||
6295|560|5869|6295||53|3|11|53|
6296|560|5869|6296||53|3|11|53|
6518|560|5869|6518||53|3|11|53|
6525|560|5869|6525||53|3|11|53|
7350|560|5869|7350||988|3|11|988|
5870|560|5870|||1327|4|23|1327|
7375|560|5870|7375||1327|4|23|1327|
7376|560|5870|7376||1327|4|23|1327|
7377|560|5870|7377||1327|4|23|1327|
6293|560|6293|||1005|4|18|74|1005
6294|560|6294|||58|4|18|58|
7219|560|6294|7219||58|4|18|58|
7220|560|6294|7220||58|4|18|58|
7903|560|6294|7903||58|4|18|58|
7904|560|6294|7904||58|4|18|58|
6609|560|6609|||983|3|11|983|
6610|560|6610|||23|4|23||
6861|560|6861|||1327|4|23|1327|
6988|560|6988|||1327|4|23|1327|
7222|560|6988|7222||20|4|23|20|
7223|560|6988|7223||20|4|23|20|
7224|560|6988|7224||20|4|23|20|
7225|560|6988|7225||20|4|23|20|
7226|560|6988|7226||20|4|23|20|
7227|560|6988|7227||20|4|23|20|
7228|560|6988|7228||20|4|23|20|
7229|560|6988|7229||20|4|23|20|
6994|560|6994|||1327|4|23|1327|
6995|560|6995|||11|3|11||
6996|560|6995|6996||50|3|11|50|
6997|560|6995|6997||50|3|11|50|
7230|560|6995|7230||50|3|11|50|
7231|560|6995|7231||50|3|11|50|
6999|560|6999|||4|4|||
7177|560|7177|||1327|4|23|1327|
7178|560|7177|7178||1327|4|23|1327|
7179|560|7177|7179||1327|4|23|1327|
7221|560|7221|||1327|4|23|1327|
7232|560|7232|||78|4|23|78|
7233|560|7233|||15|3|15||
7234|560|7233|7234||15|3|15||
7235|560|7233|7235||15|3|15||
7363|560|7233|7363||995|3|15|995|
7372|560|7233|7372||999|3|15|999|
7373|560|7233|7373||999|3|15|999|
7564|560|7233|7564||999|3|15|999|
7565|560|7233|7565||999|3|15|999|
7566|560|7233|7566||15|3|15||
7567|560|7233|7567||995|3|15|995|
7568|560|7233|7568||66|3|15|66|
7569|560|7233|7569||999|3|15|999|
7570|560|7233|7570||15|3|15||
7701|560|7233|7701||66|3|15|66|
8813|560|7233|8813||15|3|15||
8814|560|7233|8814||64|3|15|64|
8815|560|7233|8815||66|3|15|66|
7369|560|7369|||11|3|11||
7370|560|7369|7370||11|3|11||
7371|560|7369|7371||11|3|11||
7374|560|7374|||981|3|11|981|
7378|560|7378|||1327|4|23|1327|
7379|560|7378|7379||20|4|23|20|
7380|560|7378|7380||20|4|23|20|
7381|560|7378|7381||20|4|23|20|
7382|560|7378|7382||100|4|23|100|
7383|560|7378|7383||1327|4|23|1327|
7384|560|7378|7384||1327|4|23|1327|
7861|560|7378|7861||1327|4|23|1327|
7385|560|7385|||1327|4|23|1327|
7386|560|7385|7386||1327|4|23|1327|
563|563||||994|994|||
682|563|682|||994|994|||
683|563|683|||994|994|||
684|563|684|||994|994|||
1712|563|1712|||994|994|||
1713|563|1713|||994|994|||
6141|563|6141|||994|994|||
6148|563|6148|||994|994|||
6468|563|6468|||994|994|||
5873|564|5873|||23|4|23||
7959|564|5873|7959||94|4|23|78|94
7960|564|5873|7960||94|4|23|78|94
5874|564|5874|||1051|6|1043|1051|
5875|564|5875|||1041|6|1041||
5876|564|5876|||1043|6|1043||
5877|564|5877|||1033|6|1033||
5878|564|5878|||32|6|32||
5879|564|5879|||120|6|34|120|
5881|564|5881|||112|6|31|112|
5882|564|5882|||114|6|32|114|
5883|564|5883|||118|6|33|118|
5884|564|5884|||109|6|31|109|
5885|564|5885|||1054|6|1042|1054|
5886|564|5886|||34|6|34||
7081|564|5886|7081||34|6|34||
6073|564|6073|||34|6|34||
6206|564|6073|6206||36|7|36||
6207|564|6073|6207||34|6|34||
6210|564|6073|6210||34|6|34||
6211|564|6073|6211||34|6|34||
6212|564|6073|6212||34|6|34||
6254|564|6073|6254||34|6|34||
6367|564|6073|6367||34|6|34||
6368|564|6073|6368||34|6|34||
6369|564|6073|6369||109|6|31|109|
6370|564|6073|6370||34|6|34||
6371|564|6073|6371||36|7|36||
6372|564|6073|6372||36|7|36||
6373|564|6073|6373||34|6|34||
6374|564|6073|6374||34|6|34||
6515|564|6073|6515||34|6|34||
6516|564|6073|6516||34|6|34||
6517|564|6073|6517||34|6|34||
6534|564|6073|6534||34|6|34||
6702|564|6073|6702||34|6|34||
6703|564|6073|6703||35|7|35||
7079|564|6073|7079||78|4|23|78|
7080|564|6073|7080||36|7|36||
7592|564|6073|7592||34|6|34||
7593|564|6073|7593||34|6|34||
7594|564|6073|7594||34|6|34||
7596|564|6073|7596||173|7|35|173|
7622|564|6073|7622||34|6|34||
7623|564|6073|7623||35|7|35||
7624|564|6073|7624||34|6|34||
7627|564|6073|7627||34|6|34||
7745|564|6073|7745||34|6|34||
8013|564|6073|8013||34|6|34||
8014|564|6073|8014||156|7|38|156|
6108|564|6108|||34|6|34||
6165|564|6165|||120|6|34|120|
6231|564|6231|||34|6|34||
6232|564|6231|6232||34|6|34||
6233|564|6231|6233||34|6|34||
7041|564|7041|||78|4|23|78|
7042|564|7041|7042||78|4|23|78|
7236|564|7236|||34|6|34||
7433|564|7433|||34|6|34||
7434|564|7433|7434||1102|994|1102||
7435|564|7433|7435||1102|994|1102||
8035|564|7433|7435|8035|1102|994|1102||
7436|564|7433|7436||1056|6|1041|1056|
7437|564|7433|7437||78|4|23|78|
7438|564|7433|7438||78|4|23|78|
7439|564|7433|7439||34|6|34||
7440|564|7433|7440||1102|994|1102||
7784|564|7433|7784||1102|994|1102||
7785|564|7433|7785||1102|994|1102||
7786|564|7433|7786||1102|994|1102||
7441|564|7441|||1064|29|1064||
7442|564|7441|7442||1064|29|1064||
7443|564|7441|7443||1064|29|1064||
7444|564|7444|||27|5|27||
7445|564|7444|7445||27|5|27||
7446|564|7444|7446||27|5|27||
7447|564|7444|7447||27|5|27||
7782|564|7782|||1001|3|15|1001|
565|565||||29|29|||
704|565|704|||27|5|27||
5910|565|704|5910||27|5|27||
5911|565|704|5911||27|5|27||
5912|565|704|5912||27|5|27||
5913|565|704|5913||27|5|27||
5914|565|704|5914||27|5|27||
5915|565|704|5915||27|5|27||
705|565|705|||1077|29|1064|1077|
3407|565|3407|||29|29|||
5887|565|5887|||1077|29|1064|1077|
6150|565|6149|6150||1064|29|1064||
6151|565|6149|6151||1064|29|1064||
6152|565|6149|6152||1064|29|1064||
6153|565|6149|6153||1064|29|1064||
6526|565|6149|6526||1064|29|1064||
7355|565|7355|||1077|29|1064|1077|
7356|565|7356|||1077|29|1064|1077|
7357|565|7357|||1077|29|1064|1077|
7928|565|7928|||1077|29|1064|1077|
566|566||||7|7|||
707|566|707|||7|7|||
709|566|709|||37|7|37||
6104|566|709|6104||37|7|37||
6105|566|709|6105||37|7|37||
6166|566|709|6166||37|7|37||
6530|566|709|6530||37|7|37||
6583|566|709|6583||37|7|37||
6584|566|709|6584||37|7|37||
6585|566|709|6585||37|7|37||
6586|566|709|6586||37|7|37||
6587|566|709|6587||37|7|37||
6588|566|709|6588||37|7|37||
6589|566|709|6589||37|7|37||
6590|566|709|6590||37|7|37||
6591|566|709|6591||37|7|37||
6592|566|709|6592||37|7|37||
6593|566|709|6593||37|7|37||
6594|566|709|6594||37|7|37||
6595|566|709|6595||37|7|37||
6596|566|709|6596||37|7|37||
7625|566|709|7625||37|7|37||
7626|566|709|7626||37|7|37||
7628|566|709|7628||37|7|37||
7629|566|709|7629||37|7|37||
7661|566|709|7661||37|7|37||
7702|566|709|7702||37|7|37||
7774|566|709|7774||37|7|37||
7775|566|709|7775||37|7|37||
7776|566|709|7776||37|7|37||
7777|566|709|7777||37|7|37||
7907|566|709|7907||37|7|37||
7908|566|709|7908||37|7|37||
7909|566|709|7909||37|7|37||
7910|566|709|7910||37|7|37||
7911|566|709|7911||37|7|37||
710|566|710|||7|7|||
711|566|711|||7|7|||
713|566|713|||36|7|36||
5949|566|713|5949||36|7|36||
5950|566|713|5950||36|7|36||
5951|566|713|5951||36|7|36||
5952|566|713|5952||36|7|36||
5953|566|713|5953||36|7|36||
5954|566|713|5954||36|7|36||
5955|566|713|5955||36|7|36||
5956|566|713|5956||36|7|36||
5957|566|713|5957||36|7|36||
5958|566|713|5958||36|7|36||
5959|566|713|5959||36|7|36||
5960|566|713|5960||36|7|36||
5961|566|713|5961||36|7|36||
5962|566|713|5962||36|7|36||
6161|566|713|6161||36|7|36||
6196|566|713|6196||36|7|36||
6197|566|713|6197||36|7|36||
6198|566|713|6198||36|7|36||
6199|566|713|6199||36|7|36||
6200|566|713|6200||36|7|36||
6201|566|713|6201||36|7|36||
6202|566|713|6202||36|7|36||
6203|566|713|6203||36|7|36||
6204|566|713|6204||36|7|36||
6205|566|713|6205||36|7|36||
6234|566|713|6234||36|7|36||
6406|566|713|6406||36|7|36||
6549|566|713|6549||36|7|36||
6550|566|713|6550||36|7|36||
6651|566|713|6651||36|7|36||
6652|566|713|6652||36|7|36||
6655|566|713|6655||36|7|36||
6656|566|713|6656||36|7|36||
6661|566|713|6661||36|7|36||
6687|566|713|6687||36|7|36||
6688|566|713|6688||36|7|36||
6694|566|713|6694||36|7|36||
6695|566|713|6695||36|7|36||
6696|566|713|6696||36|7|36||
6697|566|713|6697||36|7|36||
7089|566|713|7089||36|7|36||
7313|566|713|7313||36|7|36||
7314|566|713|7314||36|7|36||
7597|566|713|7597||36|7|36||
7630|566|713|7630||36|7|36||
7669|566|713|7669||36|7|36||
7891|566|713|7891||36|7|36||
7892|566|713|7892||36|7|36||
7893|566|713|7893||36|7|36||
7894|566|713|7894||36|7|36||
7895|566|713|7895||36|7|36||
715|566|715|||7|7|||
716|566|716|||1019|7|39|1019|
5916|566|716|5916||1019|7|39|1019|
5917|566|716|5917||1019|7|39|1019|
5918|566|716|5918||1019|7|39|1019|
5919|566|716|5919||1019|7|39|1019|
5920|566|716|5920||1019|7|39|1019|
7663|566|716|7663||1019|7|39|1019|
719|566|719|||38|7|38||
5924|566|719|5924||38|7|38||
5925|566|719|5925||38|7|38||
5926|566|719|5926||38|7|38||
6238|566|719|6238||38|7|38||
6348|566|719|6348||38|7|38||
6498|566|719|6498||38|7|38||
6551|566|719|6551||38|7|38||
6581|566|719|6581||38|7|38||
6662|566|719|6662||38|7|38||
6663|566|719|6663||38|7|38||
6667|566|719|6667||38|7|38||
6692|566|719|6692||38|7|38||
6693|566|719|6693||38|7|38||
6701|566|719|6701||38|7|38||
6831|566|719|6831||38|7|38||
6832|566|719|6832||38|7|38||
6833|566|719|6833||38|7|38||
7024|566|719|7024||38|7|38||
7025|566|719|7024|7025|38|7|38||
7026|566|719|7024|7026|38|7|38||
7270|566|719|7270||38|7|38||
7271|566|719|7271||38|7|38||
7272|566|719|7272||38|7|38||
7273|566|719|7273||38|7|38||
7274|566|719|7274||38|7|38||
7275|566|719|7275||38|7|38||
7276|566|719|7276||38|7|38||
7277|566|719|7277||38|7|38||
7278|566|719|7278||38|7|38||
7423|566|719|7423||38|7|38||
7424|566|719|7424||38|7|38||
7425|566|719|7425||38|7|38||
7670|566|719|7670||38|7|38||
720|566|720|||7|7|||
722|566|722|||7|7|||
724|566|724|||129|7|35|129|
6699|566|724|6699||129|7|35|129|
7288|566|724|7288||129|7|35|129|
7289|566|724|7289||129|7|35|129|
7290|566|724|7290||129|7|35|129|
7291|566|724|7291||129|7|35|129|
7292|566|724|7292||129|7|35|129|
7293|566|724|7293||129|7|35|129|
7294|566|724|7294||129|7|35|129|
7295|566|724|7295||129|7|35|129|
7296|566|724|7296||129|7|35|129|
7426|566|724|7426||129|7|35|129|
7427|566|724|7427||129|7|35|129|
726|566|726|||7|7|||
6287|566|726|6287||7|7|||
6288|566|726|6288||7|7|||
7279|566|726|7279||7|7|||
7280|566|726|7280||7|7|||
7281|566|726|7281||7|7|||
728|566|728|||7|7|||
5927|566|728|5927||7|7|||
5928|566|728|5928||7|7|||
5929|566|728|5929||7|7|||
5930|566|728|5930||7|7|||
5931|566|728|5931||7|7|||
5932|566|728|5932||7|7|||
5933|566|728|5933||7|7|||
5934|566|728|5934||7|7|||
6163|566|728|6163||7|7|||
6209|566|728|6209||7|7|||
6327|566|728|6327||7|7|||
6349|566|728|6349||7|7|||
6350|566|728|6350||7|7|||
6351|566|728|6351||7|7|||
6837|566|728|6837||7|7|||
6838|566|728|6838||7|7|||
6839|566|728|6839||7|7|||
6840|566|728|6840||7|7|||
6841|566|728|6841||7|7|||
6842|566|728|6842||7|7|||
6843|566|728|6843||7|7|||
6844|566|728|6844||7|7|||
6845|566|728|6845||7|7|||
6846|566|728|6846||7|7|||
6847|566|728|6847||7|7|||
7298|566|728|7298||7|7|||
7299|566|728|7299||7|7|||
7300|566|728|7300||7|7|||
7301|566|728|7301||7|7|||
7302|566|728|7302||7|7|||
7303|566|728|7303||7|7|||
7304|566|728|7304||7|7|||
7305|566|728|7305||7|7|||
5865|566|5865|||38|7|38||
5944|566|5865|5944||38|7|38||
5945|566|5865|5945||38|7|38||
5946|566|5865|5946||38|7|38||
5947|566|5865|5947||38|7|38||
5948|566|5865|5948||38|7|38||
6164|566|5865|6164||38|7|38||
6286|566|5865|6286||38|7|38||
6312|566|5865|6312||38|7|38||
6313|566|5865|6313||38|7|38||
6314|566|5865|6314||38|7|38||
6520|566|5865|6520||38|7|38||
6521|566|5865|6521||38|7|38||
6657|566|5865|6657||38|7|38||
6658|566|5865|6658||38|7|38||
6659|566|5865|6659||38|7|38||
6660|566|5865|6660||38|7|38||
6664|566|5865|6664||38|7|38||
6668|566|5865|6668||38|7|38||
5866|566|5866|||35|7|35||
5935|566|5866|5935||35|7|35||
5936|566|5866|5936||35|7|35||
5937|566|5866|5937||35|7|35||
5938|566|5866|5938||35|7|35||
5939|566|5866|5939||35|7|35||
5940|566|5866|5940||35|7|35||
5941|566|5866|5941||35|7|35||
5942|566|5866|5942||35|7|35||
5943|566|5866|5943||35|7|35||
6106|566|5866|6106||35|7|35||
6208|566|5866|6208||35|7|35||
6282|566|5866|6282||35|7|35||
6283|566|5866|6283||35|7|35||
6285|566|5866|6285||35|7|35||
6344|566|5866|6344||35|7|35||
6345|566|5866|6345||35|7|35||
6346|566|5866|6346||35|7|35||
6347|566|5866|6347||35|7|35||
6375|566|5866|6375||35|7|35||
6376|566|5866|6376||35|7|35||
6552|566|5866|6552||35|7|35||
6553|566|5866|6553||35|7|35||
6554|566|5866|6554||35|7|35||
6555|566|5866|6555||35|7|35||
6556|566|5866|6556||35|7|35||
6649|566|5866|6649||35|7|35||
6650|566|5866|6650||35|7|35||
6700|566|5866|6700||35|7|35||
6825|566|5866|6825||35|7|35||
6827|566|5866|6827||35|7|35||
6828|566|5866|6828||35|7|35||
6829|566|5866|6829||35|7|35||
6830|566|5866|6830||35|7|35||
7268|566|5866|7268||35|7|35||
7269|566|5866|7269||35|7|35||
7578|566|5866|7578||35|7|35||
7591|566|5866|7591||35|7|35||
7595|566|5866|7595||35|7|35||
7638|566|5866|7638||35|7|35||
7662|566|5866|7662||35|7|35||
7860|566|5866|7860||35|7|35||
5867|566|5867|||39|7|39||
5921|566|5867|5921||39|7|39||
5922|566|5867|5922||39|7|39||
5923|566|5867|5923||39|7|39||
6107|566|5867|6107||39|7|39||
6289|566|5867|6289||39|7|39||
6290|566|5867|6290||39|7|39||
6291|566|5867|6291||39|7|39||
6342|566|5867|6342||39|7|39||
6377|566|5867|6377||39|7|39||
6494|566|5867|6494||39|7|39||
6499|566|5867|6499||39|7|39||
6535|566|5867|6535||39|7|39||
6689|566|5867|6689||39|7|39||
6690|566|5867|6690||39|7|39||
6691|566|5867|6691||39|7|39||
6834|566|5867|6834||39|7|39||
6835|566|5867|6835||39|7|39||
7282|566|5867|7282||39|7|39||
7283|566|5867|7283||39|7|39||
7284|566|5867|7284||39|7|39||
7285|566|5867|7285||39|7|39||
7286|566|5867|7286||39|7|39||
7287|566|5867|7287||39|7|39||
7352|566|5867|7352||39|7|39||
7353|566|5867|7353||39|7|39||
7905|566|5867|7905||39|7|39||
5868|566|5868|||39|7|39||
6989|566|6989|||37|7|37||
6990|566|6989|6990||37|7|37||
7000|566|7000|||38|7|38||
7001|566|7000|7001||38|7|38||
7002|566|7000|7002||38|7|38||
7003|566|7000|7003||38|7|38||
7004|566|7000|7004||38|7|38||
7005|566|7000|7005||38|7|38||
7006|566|7000|7006||38|7|38||
7007|566|7000|7007||38|7|38||
7008|566|7000|7008||38|7|38||
7246|566|7000|7246||38|7|38||
7247|566|7000|7247||38|7|38||
7248|566|7000|7248||38|7|38||
7249|566|7000|7249||38|7|38||
7250|566|7000|7250||38|7|38||
7251|566|7000|7251||38|7|38||
7252|566|7000|7252||38|7|38||
7253|566|7000|7253||38|7|38||
7254|566|7000|7254||38|7|38||
7255|566|7000|7255||38|7|38||
7256|566|7000|7256||38|7|38||
7257|566|7000|7257||38|7|38||
7258|566|7000|7258||38|7|38||
7259|566|7000|7259||38|7|38||
7260|566|7000|7260||38|7|38||
7261|566|7000|7261||38|7|38||
7262|566|7000|7262||38|7|38||
7263|566|7000|7263||38|7|38||
7264|566|7000|7264||38|7|38||
7265|566|7000|7265||38|7|38||
7266|566|7000|7266||38|7|38||
7297|566|7297|||35|7|35||
7402|566|7402|||133|7|35|133|
7403|566|7402|7403||133|7|35|133|
7404|566|7402|7404||133|7|35|133|
7405|566|7402|7405||133|7|35|133|
7406|566|7402|7406||133|7|35|133|
7407|566|7402|7407||133|7|35|133|
7408|566|7402|7408||133|7|35|133|
7409|566|7402|7409||133|7|35|133|
7410|566|7402|7410||133|7|35|133|
7411|566|7411|||36|7|36||
7412|566|7412|||39|7|39||
7419|566|7412|7419||39|7|39||
7420|566|7412|7420||39|7|39||
7422|566|7412|7422||39|7|39||
7428|566|7428|||7|7|||
7429|566|7428|7429||7|7|||
7631|566|7428|7631||7|7|||
7430|566|7430|||40|7|40||
7431|566|7430|7431||40|7|40||
7432|566|7430|7432||40|7|40||
7853|566|7853|||36|7|36||
7854|566|7854|||7|7|||
7855|566|7855|||35|7|35||
7856|566|7856|||38|7|38||
8000|566|8000|||36|7|36||
567|567||||9|9|||
730|567|730|||1016|9|45|1016|
3965|567|3965|||9|9|||
3966|567|3966|||191|9|44|191|
6597|567|3966|6597||1015|9|45|1015|
6598|567|3966|6598||1017|9|45|1017|
6599|567|3966|6599||203|9|45|203|
6600|567|3966|6600||203|9|45|203|
6601|567|3966|6601||203|9|45|203|
7306|567|3966|7306||1017|9|45|1017|
5872|567|5872|||192|9|44|192|
7344|567|7344|||189|9|44|189|
7345|567|7344|7345||189|9|44|189|
7346|567|7344|7346||189|9|44|189|
7347|567|7347|||44|9|44||
7348|567|7347|7348||44|9|44||
669|669||||15|3|15||
671|669|671|||15|3|15||
673|669|673|||15|3|15||
7705|669|673|7705||15|3|15||
7706|669|673|7706||15|3|15||
7707|669|673|7707||15|3|15||
7708|669|673|7708||15|3|15||
5890|669|5890|||15|3|15||
6226|669|5890|6226||15|3|15||
6227|669|5890|6227||15|3|15||
6582|669|5890|6582||15|3|15||
7634|669|5890|7634||15|3|15||
7658|669|5890|7658||15|3|15||
7664|669|5890|7664||15|3|15||
7703|669|5890|7703||15|3|15||
7704|669|5890|7704||15|3|15||
7787|669|5890|7787||15|3|15||
8010|669|5890|8010||15|3|15||
8011|669|5890|8011||15|3|15||
8012|669|5890|8012||15|3|15||
5544|5544||||34|6|34||
5545|5545||||1077|29|1064|1077|
5548|5548||||120|6|34|120|
5549|5549||||1077|29|1064|1077|
5550|5550||||1077|29|1064|1077|
5860|5860||||23|4|23||
590|5860|590|||23|4|23||
591|5860|590|591||23|4|23||
592|5860|590|592||23|4|23||
593|5860|590|593||23|4|23||
594|5860|590|594||23|4|23||
595|5860|590|595||23|4|23||
597|5860|590|597||23|4|23||
6058|5860|590|6058||23|4|23||
6059|5860|590|6059||30|6|30||
6060|5860|590|6060||23|4|23||
6063|5860|590|6063||23|4|23||
672|5860|590|6063|672|23|4|23||
6066|5860|590|6066||23|4|23||
6068|5860|590|6068||23|4|23||
6070|5860|590|6070||23|4|23||
598|5860|598|||14|3|14||
5871|5860|5871|||83|4|23|83|
6408|5860|5871|6408||19|4|23|19|
6409|5860|5871|6409||1327|4|23|1327|
6410|5860|5871|6410||1327|4|23|1327|
6411|5860|5871|6411||83|4|23|83|
6412|5860|5871|6412||83|4|23|83|
6522|5860|5871|6522||1327|4|23|1327|
7029|5860|5871|7029||83|4|23|83|
7632|5860|5871|7632||1327|4|23|1327|
7388|5860|7388|||83|4|23|83|
7389|5860|7388|7389||1325|4|23|83|1325
7390|5860|7388|7390||83|4|23|83|
7391|5860|7388|7391||83|4|23|83|
7392|5860|7388|7392||76|4|23|19|76
7393|5860|7388|7393||83|4|23|83|
7394|5860|7394|||1327|4|23|1327|
7395|5860|7394|7395||1327|4|23|1327|
7396|5860|7394|7396||1327|4|23|1327|
7397|5860|7397|||45|9|45||
7398|5860|7397|7398||1014|9|45|1014|
7399|5860|7397|7399||45|9|45||
7400|5860|7397|7400||1012|9|45|1012|
7401|5860|7397|7401||45|9|45||
5861|5861||||34|6|34||
5888|5861|5888|||34|6|34||
6822|5861|5888|6822||34|6|34||
6823|5861|5888|6823||34|6|34||
7654|5861|5888|7654||34|6|34||
7655|5861|5888|7655||59|3|14|59|
5889|5861|5889|||34|6|34||
6072|5861|6072|||59|3|14|59|
6297|5861|6072|6297||59|3|14|59|
6298|5861|6072|6298||59|3|14|59|
6500|5861|6072|6500||992|3|14|62|992
6501|5861|6072|6501||992|3|14|62|992
6502|5861|6072|6502||59|3|14|59|
6524|5861|6072|6524||59|3|14|59|
6608|5861|6072|6608||59|3|14|59|
7334|5861|6072|7334||990|3|14|62|990
7589|5861|6072|7589||990|3|14|62|990
7656|5861|6072|7656||59|3|14|59|
7889|5861|6072|7889||992|3|14|62|992
6284|5861|6284|||34|6|34||
6452|5861|6284|6452||34|6|34||
6523|5861|6284|6523||34|6|34||
7245|5861|6284|7245||34|6|34||
6380|5861|6380|||122|7|35|122|
6991|5861|6991|||34|6|34||
7237|5861|6991|7237||107|6|30|107|
7238|5861|6991|7238||34|6|34||
7240|5861|6991|7240||34|6|34||
7241|5861|6991|7241||34|6|34||
7242|5861|6991|7242||34|6|34||
7243|5861|6991|7243||34|6|34||
7244|5861|6991|7244||34|6|34||
7307|5861|6991|7307||34|6|34||
7308|5861|6991|7308||34|6|34||
7309|5861|6991|7309||34|6|34||
7755|5861|6991|7755||34|6|34||
5862|5862||||1099|994|1099||
5891|5862|5891|||1099|994|1099||
5892|5862|5892|||1099|994|1099||
5893|5862|5893|||1099|994|1099||
5894|5862|5893|5894||1099|994|1099||
5895|5862|5893|5895||1099|994|1099||
5896|5862|5893|5896||1099|994|1099||
6074|5862|6074|||1099|994|1099||
6154|5862|6154|||1099|994|1099||
6155|5862|6155|||1099|994|1099||
6156|5862|6155|6156||1099|994|1099||
6157|5862|6155|6157||1099|994|1099||
6528|5862|6155|6528||1099|994|1099||
6158|5862|6158|||1099|994|1099||
6159|5862|6159|||1099|994|1099||
6160|5862|6159|6160||1099|994|1099||
6529|5862|6159|6529||1099|994|1099||
7023|5862|6159|7023||1099|994|1099||
6228|5862|6228|||1099|994|1099||
6229|5862|6228|6229||1099|994|1099||
6230|5862|6228|6230||1099|994|1099||
6237|5862|6228|6237||1099|994|1099||
5863|5863||||120|6|34|120|
1238|5863|1238|||1059|5|24|1059|
5897|5863|5897|||1102|994|1102||
6475|5863|5897|6475||1102|994|1102||
6519|5863|5897|6519||1102|994|1102||
6527|5863|5897|6527||1102|994|1102||
5864|5864||||994|994|||
5898|5864|5898|||1096|994|1095|1096|
5899|5864|5899|||1097|994|1097||
5900|5864|5900|||1097|994|1097||
5901|5864|5901|||1097|994|1097||
5902|5864|5902|||1070|29|1064|1070|
5903|5864|5903|||1097|994|1097||
5904|5864|5904|||1097|994|1097||
5905|5864|5905|||1097|994|1097||
5906|5864|5906|||1059|5|24|1059|
5907|5864|5907|||1097|994|1097||
5908|5864|5908|||1059|5|24|1059|
5909|5864|5909|||1097|994|1097||
7030|5864|7030|||994|994|||
7031|5864|7030|7031||176|29|1064|102|176
7032|5864|7030|7032||106|29|1064|106|
7033|5864|7030|7033||104|5|104||
7035|5864|7030|7035||103|5|103||
7036|5864|7030|7036||105|29|1064|105|
7054|7054||||1077|29|1064|1077|
7055|7055||||1077|29|1064|1077|
7056|7056||||1077|29|1064|1077|
8679|7056|8679|||1077|29|1064|1077|
8681|7056|8679|8681||1077|29|1064|1077|
8682|7056|8679|8682||1077|29|1064|1077|
8683|7056|8679|8683||1077|29|1064|1077|
8684|7056|8679|8684||1077|29|1064|1077|
8680|7056|8680|||1077|29|1064|1077|
8685|7056|8680|8685||1077|29|1064|1077|
8686|7056|8680|8686||1077|29|1064|1077|
8687|7056|8680|8687||1077|29|1064|1077|
8850|7056|8850|||1077|29|1064|1077|
8851|7056|8851|||1077|29|1064|1077|
8852|7056|8852|||1077|29|1064|1077|
8853|7056|8853|||1077|29|1064|1077|
8854|7056|8854|||1077|29|1064|1077|
8855|7056|8855|||1077|29|1064|1077|
8856|7056|8856|||1077|29|1064|1077|
7057|7057||||80|4|23|96|80
7058|7058||||60|3|14|60|
7059|7059||||62|3|14|62|
7060|7060||||23|4|23||
7061|7061||||1077|29|1064|1077|
7062|7062||||1067|29|1064|1067|
8670|7062|8670|||1067|29|1064|1067|
8672|7062|8670|8672||1067|29|1064|1067|
8673|7062|8670|8673||1067|29|1064|1067|
8674|7062|8670|8674||1067|29|1064|1067|
8675|7062|8670|8675||1067|29|1064|1067|
8671|7062|8671|||1067|29|1064|1067|
8676|7062|8671|8676||1067|29|1064|1067|
8677|7062|8671|8677||1067|29|1064|1067|
8678|7062|8671|8678||1067|29|1064|1067|
7063|7063||||1081|29|1064|1077|1081
8732|7063|8732|||1085|29|1064|1077|1085
8786|7063|8786|||1084|29|1064|1077|1084
8787|7063|8787|||1081|29|1064|1077|1081
7064|7064||||1077|29|1064|1077|
8640|7064|8640|||1077|29|1064|1077|
8642|7064|8640|8642||1077|29|1064|1077|
8643|7064|8640|8643||1077|29|1064|1077|
8644|7064|8640|8644||1077|29|1064|1077|
8645|7064|8640|8645||1077|29|1064|1077|
8641|7064|8641|||1077|29|1064|1077|
8646|7064|8641|8646||1077|29|1064|1077|
8647|7064|8641|8647||1077|29|1064|1077|
8648|7064|8641|8648||1077|29|1064|1077|
8649|7064|8649|||1077|29|1064|1077|
7065|7065||||1075|29|1064|1075|
8788|7065|8788|||1089|29|1064|1075|1089
8789|7065|8789|||1094|29|1064|1075|1094
8790|7065|8790|||1094|29|1064|1075|1094
7095|7095||||1081|29|1064|1077|1081
7096|7096||||1082|29|1064|1077|1082
7097|7097||||1072|29|1064|1072|
7098|7098||||103|5|103||
7099|7099||||1077|29|1064|1077|
7100|7100||||1076|29|1064|1076|
7101|7101||||1077|29|1064|1077|
7102|7102||||175|29|1064|106|175
7103|7103||||1069|29|1064|1069|
7121|7121||||984|3|11|984|
7122|7122||||1102|994|1102||
7123|7122|7123|||1136|994|1102|1136|
7124|7122|7124|||1310|994|1102|1310|
7125|7122|7125|||1144|994|1102|1144|
7127|7122|7127|||1165|994|1102|1165|
7128|7122|7128|||1119|994|1102|1119|
7129|7122|7129|||1123|994|1102|1123|
7130|7122|7130|||1129|994|1102|1129|
7131|7122|7131|||1102|994|1102||
7132|7122|7132|||1138|994|1102|1138|
7133|7122|7133|||1122|994|1102|1122|
7134|7122|7134|||1124|994|1102|1124|
7135|7122|7135|||1104|994|1102|1104|
7136|7122|7136|||1166|994|1102|1166|
7137|7122|7137|||1130|994|1102|1130|
7138|7122|7138|||1112|994|1102|1112|
7139|7122|7139|||1161|994|1102|1161|
7140|7122|7140|||1102|994|1102||
7141|7122|7141|||1148|994|1102|1148|
7142|7122|7142|||1162|994|1102|1162|
7143|7122|7143|||1133|994|1102|1133|
7144|7122|7144|||1134|994|1102|1134|
7145|7122|7145|||1164|994|1102|1164|
7146|7122|7146|||1102|994|1102||
7147|7122|7147|||1102|994|1102||
7149|7122|7149|||1109|994|1102|1109|
7150|7122|7150|||1125|994|1102|1125|
7151|7122|7151|||1110|994|1102|1110|
7494|7122|7494|||1145|994|1102|1145|
7495|7122|7495|||1160|994|1102|1160|
7496|7122|7496|||1121|994|1102|1121|
7497|7122|7497|||1115|994|1102|1115|
7498|7122|7498|||1310|994|1102|1310|
7821|7122|7821|||1108|994|1102|1108|
7822|7122|7822|||1128|994|1102|1128|
7831|7122|7831|||1157|994|1102|1157|
8880|7122|8880|||1133|994|1102|1133|
7152|7152||||1102|994|1102||
7153|7152|7153|||1148|994|1102|1148|
7154|7152|7154|||1164|994|1102|1164|
7155|7152|7155|||1144|994|1102|1144|
7156|7152|7156|||1310|994|1102|1310|
7157|7152|7157|||1161|994|1102|1161|
7158|7152|7158|||1119|994|1102|1119|
7159|7152|7159|||1130|994|1102|1130|
7160|7152|7160|||1123|994|1102|1123|
7161|7152|7161|||1133|994|1102|1133|
7162|7152|7162|||1122|994|1102|1122|
7163|7152|7163|||1160|994|1102|1160|
7164|7152|7164|||1165|994|1102|1165|
7165|7152|7165|||1151|994|1102|1151|
7166|7152|7166|||1310|994|1102|1310|
7167|7152|7167|||1136|994|1102|1136|
7168|7152|7168|||1124|994|1102|1124|
7169|7152|7169|||1138|994|1102|1138|
7499|7152|7499|||1162|994|1102|1162|
7823|7152|7823|||1108|994|1102|1108|
7824|7152|7824|||1128|994|1102|1128|
7832|7152|7832|||1157|994|1102|1157|
7852|7152|7852|||1125|994|1102|1125|
8881|7152|8881|||1133|994|1102|1133|
8882|7152|8882|||1162|994|1102|1162|
7181|7181||||1070|29|1064|1070|
7182|7182||||1077|29|1064|1077|
7183|7183||||34|6|34||
7184|7184||||1070|29|1064|1070|
8660|7184|8660|||1070|29|1064|1070|
8663|7184|8660|8663||1070|29|1064|1070|
8664|7184|8660|8664||1070|29|1064|1070|
8665|7184|8660|8665||1070|29|1064|1070|
8666|7184|8660|8666||1070|29|1064|1070|
8661|7184|8661|||1070|29|1064|1070|
8667|7184|8661|8667||1070|29|1064|1070|
8668|7184|8661|8668||1070|29|1064|1070|
8669|7184|8661|8669||1070|29|1064|1070|
8662|7184|8662|||1070|29|1064|1070|
8825|7184|8825|||1070|29|1064|1070|
8826|7184|8826|||1070|29|1064|1070|
8827|7184|8827|||1070|29|1064|1070|
8828|7184|8828|||1070|29|1064|1070|
8829|7184|8829|||1070|29|1064|1070|
8830|7184|8830|||1070|29|1064|1070|
8831|7184|8831|||1070|29|1064|1070|
8909|7184|8909|||1070|29|1064|1070|
7191|7191||||1077|29|1064|1077|
8688|7191|8688|||1077|29|1064|1077|
8690|7191|8688|8690||1077|29|1064|1077|
8691|7191|8688|8691||1077|29|1064|1077|
8692|7191|8688|8692||1077|29|1064|1077|
8693|7191|8688|8693||1077|29|1064|1077|
8689|7191|8689|||1077|29|1064|1077|
8694|7191|8689|8694||1077|29|1064|1077|
8695|7191|8689|8695||1077|29|1064|1077|
8696|7191|8689|8696||1077|29|1064|1077|
7192|7192||||1077|29|1064|1077|
7193|7193||||1077|29|1064|1077|
7362|7362||||102|29|1064|102|
8650|7362|8650|||102|29|1064|102|
8653|7362|8650|8653||102|29|1064|102|
8654|7362|8650|8654||102|29|1064|102|
8655|7362|8650|8655||102|29|1064|102|
8656|7362|8650|8656||102|29|1064|102|
8651|7362|8651|||102|29|1064|102|
8657|7362|8651|8657||102|29|1064|102|
8658|7362|8651|8658||102|29|1064|102|
8659|7362|8651|8659||102|29|1064|102|
8652|7362|8652|||102|29|1064|102|
7364|7364||||995|3|15|995|
7387|7387||||1064|29|1064||
7458|7458||||1102|994|1102||
7460|7458|7460|||1107|994|1102|1107|
7461|7458|7461|||1104|994|1102|1104|
7462|7458|7462|||1166|994|1102|1166|
7463|7458|7463|||1145|994|1102|1145|
7464|7458|7464|||1169|994|1102|1169|
7465|7458|7465|||1153|994|1102|1153|
7466|7458|7466|||1152|994|1102|1152|
7467|7458|7467|||1125|994|1102|1125|
7468|7458|7468|||1112|994|1102|1112|
7469|7458|7469|||1119|994|1102|1119|
7470|7458|7470|||1120|994|1102|1120|
7471|7458|7471|||1156|994|1102|1156|
7472|7458|7472|||1133|994|1102|1133|
7473|7458|7473|||1110|994|1102|1110|
7474|7458|7474|||1115|994|1102|1115|
7475|7458|7475|||1109|994|1102|1109|
7476|7458|7476|||1310|994|1102|1310|
7826|7458|7826|||1127|994|1102|1127|
7827|7458|7827|||1131|994|1102|1131|
7833|7458|7833|||1158|994|1102|1158|
7834|7458|7834|||1114|994|1102|1114|
7835|7458|7835|||1113|994|1102|1113|
7836|7458|7836|||1159|994|1102|1159|
7837|7458|7837|||1154|994|1102|1154|
7838|7458|7838|||1149|994|1102|1149|
7839|7458|7839|||1150|994|1102|1150|
7840|7458|7840|||1102|994|1102||
7841|7458|7841|||1168|994|1102|1168|
7842|7458|7842|||1171|994|1102|1171|
7968|7458|7968|||1132|994|1102|1132|
7970|7458|7970|||1159|994|1102|1159|
7971|7458|7971|||1141|994|1102|1141|
7972|7458|7972|||1140|994|1102|1140|
7973|7458|7973|||1172|994|1102|1172|
7974|7458|7974|||1102|994|1102||
7975|7458|7975|||1170|994|1102|1170|
7976|7458|7976|||1105|994|1102|1105|
7977|7458|7977|||1169|994|1102|1169|
7978|7458|7978|||1140|994|1102|1140|
7979|7458|7979|||1135|994|1102|1135|
7980|7458|7980|||1102|994|1102||
7981|7458|7981|||1139|994|1102|1139|
7982|7458|7982|||1129|994|1102|1129|
7983|7458|7983|||1118|994|1102|1118|
8873|7458|8873|||1102|994|1102||
8874|7458|8874|||1166|994|1102|1166|
8875|7458|8875|||1166|994|1102|1166|
7459|7459||||1150|994|1102|1150|
7477|7459|7477|||1107|994|1102|1107|
7478|7459|7478|||1104|994|1102|1104|
7479|7459|7479|||1166|994|1102|1166|
7480|7459|7480|||1145|994|1102|1145|
7481|7459|7481|||1169|994|1102|1169|
7482|7459|7482|||1153|994|1102|1153|
7483|7459|7483|||1152|994|1102|1152|
7484|7459|7484|||1287|994|1102|1125|1287
7485|7459|7485|||1112|994|1102|1112|
7486|7459|7486|||1119|994|1102|1119|
7487|7459|7487|||1120|994|1102|1120|
7488|7459|7488|||1156|994|1102|1156|
7489|7459|7489|||1133|994|1102|1133|
7490|7459|7490|||1110|994|1102|1110|
7491|7459|7491|||1115|994|1102|1115|
7492|7459|7492|||1109|994|1102|1109|
7493|7459|7493|||1310|994|1102|1310|
7829|7459|7829|||1127|994|1102|1127|
7830|7459|7830|||1131|994|1102|1131|
7843|7459|7843|||1114|994|1102|1114|
7844|7459|7844|||1113|994|1102|1113|
7845|7459|7845|||1159|994|1102|1159|
7846|7459|7846|||1154|994|1102|1154|
7847|7459|7847|||1149|994|1102|1149|
7848|7459|7848|||1149|994|1102|1149|
7849|7459|7849|||1102|994|1102||
7850|7459|7850|||1168|994|1102|1168|
7851|7459|7851|||1171|994|1102|1171|
7984|7459|7984|||1132|994|1102|1132|
7986|7459|7986|||1159|994|1102|1159|
7987|7459|7987|||1141|994|1102|1141|
7989|7459|7989|||1172|994|1102|1172|
7990|7459|7990|||1102|994|1102||
7991|7459|7991|||1170|994|1102|1170|
7993|7459|7993|||1169|994|1102|1169|
7994|7459|7994|||1140|994|1102|1140|
7995|7459|7995|||1135|994|1102|1135|
7996|7459|7996|||1102|994|1102||
7997|7459|7997|||1139|994|1102|1139|
7998|7459|7998|||1129|994|1102|1129|
7999|7459|7999|||1118|994|1102|1118|
8876|7459|8876|||1115|994|1102|1115|
8877|7459|8877|||1158|994|1102|1158|
8878|7459|8878|||1166|994|1102|1166|
8879|7459|8879|||1166|994|1102|1166|
7504|7504||||1322|3|14|60|1322
7508|7508||||175|29|1064|106|175
7511|7511||||1077|29|1064|1077|
8810|7511|8810|||1077|29|1064|1077|
8811|7511|8811|||1077|29|1064|1077|
8812|7511|8812|||1077|29|1064|1077|
8906|7511|8906|||1077|29|1064|1077|
8907|7511|8907|||1077|29|1064|1077|
7513|7513||||157|7|38|157|
7514|7514||||979|3|11|979|
7520|7520||||1111|994|1102|1111|
7527|7527||||1069|29|1064|1069|
7783|7783||||1077|29|1064|1077|
7876|7876||||1077|29|1064|1077|
7938|7938||||1069|29|1064|1069|
7939|7939||||1064|29|1064||
8807|7939|8807|||1064|29|1064||
8808|7939|8808|||1064|29|1064||
8809|7939|8809|||1064|29|1064||
8027|8027||||1085|29|1064|1077|1085
8028|8028||||79|4|23|78|79
8029|8029||||163|7|39|163|
8030|8030||||94|4|23|78|94
8033|8033||||1102|994|1102||
8034|8033|8034|||1109|994|1102|1109|
8036|8033|8036|||1113|994|1102|1113|
8037|8033|8037|||1159|994|1102|1159|
8038|8033|8038|||1154|994|1102|1154|
8039|8033|8039|||1149|994|1102|1149|
8041|8033|8041|||1150|994|1102|1150|
8044|8033|8044|||1169|994|1102|1169|
8045|8033|8045|||1168|994|1102|1168|
8046|8033|8046|||1171|994|1102|1171|
8047|8033|8047|||1310|994|1102|1310|
8040|8040||||1102|994|1102||
8042|8040|8042|||1109|994|1102|1109|
8043|8040|8043|||1113|994|1102|1113|
8049|8040|8049|||1154|994|1102|1154|
8050|8040|8050|||1149|994|1102|1149|
8051|8040|8051|||1310|994|1102|1310|
8052|8040|8052|||1169|994|1102|1169|
8053|8040|8053|||1168|994|1102|1168|
8054|8040|8054|||1171|994|1102|1171|
8055|8040|8055|||1310|994|1102|1310|
8703|8703||||1070|29|1064|1070|
8704|8704||||1113|994|1102|1113|
8705|8705||||1084|29|1064|1077|1084
8706|8706||||1072|29|1064|1072|
8710|8710||||120|6|34|120|
8711|8711||||120|6|34|120|
8712|8712||||1077|29|1064|1077|
8801|8712|8801|||1070|29|1064|1070|
8802|8712|8802|||1070|29|1064|1070|
8803|8712|8803|||1070|29|1064|1070|
8836|8712|8836|||1083|29|1064|1077|1083
8837|8712|8837|||1083|29|1064|1077|1083
8838|8712|8838|||1083|29|1064|1077|1083
8839|8712|8839|||1083|29|1064|1077|1083
8840|8712|8840|||1070|29|1064|1070|
8841|8712|8841|||1070|29|1064|1070|
8842|8712|8842|||1070|29|1064|1070|
8908|8712|8908|||1070|29|1064|1070|
8713|8713||||1070|29|1064|1070|
8804|8713|8804|||1070|29|1064|1070|
8805|8713|8805|||1070|29|1064|1070|
8806|8713|8806|||1070|29|1064|1070|
8714|8714||||1072|29|1064|1072|
8857|8714|8857|||1072|29|1064|1072|
8858|8714|8858|||1072|29|1064|1072|
8859|8714|8859|||1072|29|1064|1072|
8860|8714|8860|||1072|29|1064|1072|
8861|8714|8861|||1072|29|1064|1072|
8862|8714|8862|||1072|29|1064|1072|
8863|8714|8863|||1072|29|1064|1072|
8864|8714|8864|||1072|29|1064|1072|
8715|8715||||1064|29|1064||
8716|8716||||1067|29|1064|1067|
8725|8716|8725|||1067|29|1064|1067|
8726|8716|8726|||1067|29|1064|1067|
8727|8716|8727|||1067|29|1064|1067|
8728|8716|8728|||1067|29|1064|1067|
8832|8716|8832|||1067|29|1064|1067|
8833|8716|8833|||1067|29|1064|1067|
8834|8716|8834|||1067|29|1064|1067|
8835|8716|8835|||1067|29|1064|1067|
8717|8717||||1077|29|1064|1077|
8718|8718||||1077|29|1064|1077|
8719|8719||||1077|29|1064|1077|
8721|8721||||1077|29|1064|1077|
8722|8722||||1083|29|1064|1077|1083
8723|8723||||1072|29|1064|1072|
8729|8729||||1070|29|1064|1070|
8730|8730||||1077|29|1064|1077|
8731|8731||||1077|29|1064|1077|
8733|8733||||1076|29|1064|1076|
8734|8734||||1077|29|1064|1077|
8735|8735||||1085|29|1064|1077|1085
8737|8737||||1077|29|1064|1077|
8738|8738||||1077|29|1064|1077|
8739|8739||||103|5|103||
8740|8740||||1077|29|1064|1077|
8742|8742||||1070|29|1064|1070|
8745|8745||||1075|29|1064|1075|
8746|8746||||1067|29|1064|1067|
8747|8747||||1077|29|1064|1077|
8748|8748||||1077|29|1064|1077|
8749|8749||||1077|29|1064|1077|
8750|8750||||1077|29|1064|1077|
8751|8751||||1070|29|1064|1070|
8753|8753||||1075|29|1064|1075|
8754|8754||||1059|5|24|1059|
8755|8755||||1072|29|1064|1072|
8756|8756||||1064|29|1064||
8865|8756|8865|||1064|29|1064||
8866|8756|8866|||1064|29|1064||
8867|8756|8867|||1064|29|1064||
8868|8756|8868|||1064|29|1064||
8869|8756|8869|||1064|29|1064||
8870|8756|8870|||1064|29|1064||
8871|8756|8871|||1064|29|1064||
8872|8756|8872|||1064|29|1064||
8757|8757||||1077|29|1064|1077|
8758|8758||||1089|29|1064|1075|1089
8759|8759||||1067|29|1064|1067|
8760|8760||||1067|29|1064|1067|
8761|8761||||103|5|103||
8762|8762||||1077|29|1064|1077|
8763|8763||||1077|29|1064|1077|
8764|8764||||1077|29|1064|1077|
8765|8765||||1067|29|1064|1067|
8766|8766||||1070|29|1064|1070|
8767|8767||||1077|29|1064|1077|
8768|8768||||1025|6|119|1025|
8769|8769||||11|3|11||
8770|8770||||1155|994|1102|1155|
8771|8771||||1075|29|1064|1075|
8780|8780||||120|6|34|120|
8781|8781||||1070|29|1064|1070|
8782|8782||||1070|29|1064|1070|
8783|8783||||1077|29|1064|1077|
8784|8784||||1025|6|119|1025|
8785|8785||||7|7|||
8797|8797||||1070|29|1064|1070|
8798|8797|8798|||1070|29|1064|1070|
8799|8797|8799|||1070|29|1064|1070|
8800|8797|8800|||1070|29|1064|1070|
8816|8816||||102|29|1064|102|
8817|8816|8817|||102|29|1064|102|
8818|8816|8818|||102|29|1064|102|
8819|8816|8819|||102|29|1064|102|
8820|8816|8820|||102|29|1064|102|
8821|8816|8821|||102|29|1064|102|
8822|8816|8822|||102|29|1064|102|
8823|8816|8823|||102|29|1064|102|
8824|8816|8824|||102|29|1064|102|
685|564|685|||32|6|32||
686|564|686|||34|6|34||
687|564|687|||1033|6|1033||
688|564|688|||1041|6|1041||
689|564|689|||31|6|31||
690|564|690|||31|6|31||
691|564|691|||1037|6|1037||
694|564|694|||30|6|30||
695|564|695|||119|6|119||
697|564|697|||1024|6|1024||
806|564|806|||34|6|34||
5547|5547||||42|29|42||
6140|563|6140|||1106|994|1102|1106|
6149|565|6149|||42|29|42||
6611|560|6611|||96|4||96|
6826|566|5866|6826||35|7|35||
7126|7122|7126|||1103|994|1102|1103|
7148|7122|7148|||1103|994|1102|1103|
7267|566|5866|7267||35|7|35||
7315|564|7315|||1045|6|1045||
7421|566|7412|7421||39|7|39||
7590|564|6073|7590||1024|6|1024||
7637|566|728|7637||35|7|35||
7682|560|7682|||23|4|23||
7683|560|7682|7683||1327|4|23|1327|
7684|560|7682|7684||1327|4|23|1327|
7825|7458|7825|||1103|994|1102|1103|
7828|7459|7828|||1142|994|1102|1142|
7969|7458|7969|||1103|994|1102|1103|
7985|7459|7985|||1147|994|1102|1147|
7988|7459|7988|||1139|994|1102|1139|
7992|7459|7992|||1105|994|1102|1105|
8048|8040|8048|||1159|994|1102|1159|
8724|8724||||1069|29|1064|1069|
8741|8741||||42|29|42||
8743|8743||||42|29|42||
8744|8744||||42|29|42||
8776|8776||||31|6|31||
8777|8777||||32|6|32||
8778|8778||||34|6|34||
8779|8779||||31|6|31||
8791|8743|8791|||42|29|42||
8792|8743|8792|||42|29|42||
8793|8743|8793|||42|29|42||
8794|8744|8794|||42|29|42||
8795|8744|8795|||42|29|42||
8796|8744|8796|||42|29|42||
8988|7458|8988|||1103|994|1102|1103|
8989|7459|8989|||1102|994|1102||
