<?xml version="1.0" encoding="UTF-8" standalone="no"?>
<svg width="512px" height="512px" viewBox="0 0 512 512" version="1.1" xmlns="http://www.w3.org/2000/svg" xmlns:xlink="http://www.w3.org/1999/xlink" xmlns:sketch="http://www.bohemiancoding.com/sketch/ns">
    <title>Artboard 1</title>
    <description>Created with Sketch (http://www.bohemiancoding.com/sketch)</description>
    <defs></defs>
    <g id="Page-1" stroke="none" stroke-width="1" fill="none" fill-rule="evenodd" sketch:type="MSPage">
        <g id="Artboard-1" sketch:type="MSArtboardGroup" fill="#555555">
            <g id="VIZ---Operator_Not-Equal" sketch:type="MSLayerGroup">
                <g id="Page-1" sketch:type="MSShapeGroup">
                    <g id="Artboard-1">
                        <path d="M236.015696,312.928021 L351.789569,197.07323 L484.359251,197.07323 C499.624814,197.07323 512,184.696064 512,169.424279 L512,171.788534 C512,156.51844 499.628986,144.139583 484.359251,144.139583 L404.68626,144.139583 L503.221119,45.5358531 C514.015094,34.7343356 514.019463,17.2260027 503.228221,6.42721948 L504.89884,8.09900528 C494.108787,-2.69858825 476.619189,-2.70311753 465.817518,8.10611229 L329.879046,144.139583 L27.6407486,144.139583 C12.375186,144.139583 0,156.516749 0,171.788534 L0,169.424279 C0,184.694374 12.3710145,197.07323 27.6407486,197.07323 L276.982356,197.07323 L161.208482,312.928021 L27.6407486,312.928021 C12.375186,312.928021 0,325.305187 0,340.576972 L0,338.212717 C0,353.482811 12.3710145,365.861668 27.6407486,365.861668 L108.311792,365.861668 L8.7788806,465.464147 C-2.01509364,476.265664 -2.01946333,493.773997 8.77177855,504.572781 L7.10116025,502.900995 C17.8912132,513.698588 35.3808115,513.703118 46.1824822,502.893888 L183.119005,365.861668 L484.359251,365.861668 C499.624814,365.861668 512,353.484502 512,338.212717 L512,340.576972 C512,325.306878 499.628986,312.928021 484.359251,312.928021 L236.015696,312.928021 L236.015696,312.928021 Z" id="Rectangle-1"></path>
                    </g>
                </g>
            </g>
        </g>
    </g>
</svg>