<?xml version="1.0" encoding="UTF-8" standalone="no"?>
<svg width="512px" height="512px" viewBox="0 0 512 512" version="1.1" xmlns="http://www.w3.org/2000/svg" xmlns:xlink="http://www.w3.org/1999/xlink" xmlns:sketch="http://www.bohemiancoding.com/sketch/ns">
    <title>Artboard 1</title>
    <description>Created with Sketch (http://www.bohemiancoding.com/sketch)</description>
    <defs></defs>
    <g id="Page-1" stroke="none" stroke-width="1" fill="none" fill-rule="evenodd" sketch:type="MSPage">
        <g id="Artboard-1" sketch:type="MSArtboardGroup" fill="#555555">
            <g id="VIZ---Operator_And" sketch:type="MSLayerGroup" transform="translate(256.000000, 256.000000) rotate(-180.000000) translate(-256.000000, -256.000000) translate(64.000000, 0.000000)">
                <g id="Page-1" transform="translate(0.000000, -0.000000)" sketch:type="MSShapeGroup">
                    <g id="Artboard-1" transform="translate(0.000000, -0.000000)">
                        <path d="M130.474009,39.13813 C174.014679,9.09693 222.390089,0.03047 274.301309,12.22467 C325.931538,24.34664 367.406918,63.72496 379.942148,112.55304 C390.463888,153.48027 380.237828,200.98354 352.591308,239.61575 C338.651858,259.10586 320.748818,276.49696 298.404019,292.17305 C305.517639,302.75011 311.965289,313.97617 317.374998,326.11124 C335.028048,365.77846 336.794958,408.1987 322.214738,442.50989 C307.118549,478.06409 274.690289,504.12324 237.603269,510.50828 C199.796299,516.99031 159.735439,502.00423 135.672729,472.23306 C111.127049,441.88489 105.06837,397.64564 120.576539,362.14644 C130.507009,339.41831 148.797029,319.5412 174.926629,303.08211 C188.820889,294.32606 203.235109,287.45402 217.169369,280.81898 C219.249259,279.82698 221.325149,278.83597 223.407029,277.83797 C220.159209,274.25395 216.865379,270.65493 213.546559,267.03291 C205.856969,258.64286 198.189379,250.26681 190.833779,241.71376 C166.164099,213.0466 140.418479,184.30644 115.523809,156.51729 C110.950059,151.42226 106.392299,146.33823 101.83755,141.2452 C73.6480597,185.24945 55.4830297,239.51875 48.5753998,285.78801 L0,278.29997 C7.88257996,225.60367 29.7094099,157.82529 67.8903597,103.11499 L6.06067997,33.41889 L42.5477198,5.68434189e-14 L99.9176495,64.67727 C109.400139,55.25382 119.586589,46.66077 130.474009,39.13813 Z M315.254429,203.87441 C334.347428,177.19841 341.656428,145.38041 334.819428,118.76141 C326.830428,87.68051 299.680429,62.44451 265.636429,54.45081 C227.563429,45.52341 192.200429,52.11091 160.461429,74.02621 C151.585429,80.15191 143.190429,87.34061 135.290429,95.36741 C141.591429,102.42541 147.908429,109.46741 154.222429,116.51841 C179.296429,144.49541 205.209429,173.42141 230.202429,202.46241 C237.229429,210.62641 244.554429,218.62041 251.890429,226.62741 C257.938429,233.22441 264.029429,239.87741 270.027429,246.67641 C289.118429,233.69541 304.054429,219.53641 315.254429,203.87441 Z M228.592429,465.29541 C249.133429,461.76241 267.863429,446.62041 276.310429,426.72841 C285.422429,405.28441 283.783429,377.57341 271.815429,350.68541 C267.218429,340.37041 261.510429,330.69541 255.016429,321.36141 C249.125429,324.32741 243.168429,327.16341 237.221429,329.99641 C223.972429,336.30741 211.467429,342.27141 199.993429,349.50041 C182.412429,360.58141 170.516429,372.99141 164.663429,386.39541 C156.619429,404.77141 159.980429,428.68441 172.819429,444.54041 C183.723429,458.04941 201.488429,466.09841 219.117429,466.09841 C222.292429,466.09841 225.466429,465.83141 228.592429,465.29541 Z" id="Path" transform="translate(192.000000, 256.000001) rotate(-0.000000) translate(-192.000000, -256.000001) "></path>
                    </g>
                </g>
            </g>
        </g>
    </g>
</svg>