<?xml version="1.0" encoding="UTF-8" standalone="no"?>
<svg width="512px" height="512px" viewBox="0 0 512 512" version="1.1" xmlns="http://www.w3.org/2000/svg" xmlns:xlink="http://www.w3.org/1999/xlink" xmlns:sketch="http://www.bohemiancoding.com/sketch/ns">
    <title>Slice 2</title>
    <description>Created with Sketch (http://www.bohemiancoding.com/sketch)</description>
    <defs></defs>
    <g id="Page-1" stroke="none" stroke-width="1" fill="none" fill-rule="evenodd" sketch:type="MSPage">
        <g id="Artboard-1" sketch:type="MSArtboardGroup" fill="#555555">
            <g id="VIZ---Operator_Or" sketch:type="MSLayerGroup" transform="translate(0.000000, 31.000000)">
                <g id="Page-1" sketch:type="MSShapeGroup">
                    <g id="Artboard-1" transform="translate(0.000000, -0.520785)">
                        <path d="M229.506945,433.195582 C231.664151,439.274417 235.911899,444.645879 241.934309,448.125995 L241.721381,448.002954 C246.25842,450.624733 251.222665,451.835558 256.106875,451.772075 C260.991084,451.835558 265.95532,450.624733 270.492358,448.002954 L270.27943,448.125995 C276.301851,444.645879 280.549588,439.274417 282.706794,433.195582 L508.17587,42.3264312 C515.933232,28.8784039 511.332933,11.6843663 497.888874,3.91557367 L498.101802,4.03861647 C484.663092,-3.72708796 467.476386,0.886082721 459.722916,14.3273732 L256.106875,367.312495 L52.4908332,14.3273732 C44.7373528,0.886082721 27.5506576,-3.72708796 14.1119376,4.03861647 L14.324865,3.91557367 C0.880806504,11.6843663 -3.71948228,28.8784039 4.03787967,42.3264312 L229.506945,433.195572 L229.506945,433.195582 Z" id="Rectangle-1"></path>
                    </g>
                </g>
            </g>
        </g>
    </g>
</svg>