<?xml version="1.0" encoding="UTF-8" standalone="no"?>
<svg width="512px" height="512px" viewBox="0 0 512 512" version="1.1" xmlns="http://www.w3.org/2000/svg" xmlns:xlink="http://www.w3.org/1999/xlink" xmlns:sketch="http://www.bohemiancoding.com/sketch/ns">
    <title>Artboard 1</title>
    <description>Created with Sketch (http://www.bohemiancoding.com/sketch)</description>
    <defs></defs>
    <g id="Page-1" stroke="none" stroke-width="1" fill="none" fill-rule="evenodd" sketch:type="MSPage">
        <g id="Artboard-1" sketch:type="MSArtboardGroup" fill="#555555">
            <g id="VIZ---Greater-than-copy" sketch:type="MSLayerGroup" transform="translate(245.000000, 255.600000) rotate(-180.000000) translate(-245.000000, -255.600000) translate(104.000000, -0.400000)">
                <g id="Page-1" sketch:type="MSShapeGroup">
                    <g id="Artboard-1">
                        <g id="VIZ---Greater-than" transform="translate(0.000000, -0.200000)">
                            <g id="Page-1">
                                <g id="Artboard-1">
                                    <path d="M0.123436,255.579264 C-0.00425400028,249.040054 2.436656,242.459899 7.445096,237.468998 L238.626346,7.09734198 C248.394756,-2.63686955 264.223216,-2.6362019 273.986326,7.09270826 C283.751576,16.8237708 283.747356,32.5973884 273.981686,42.3288695 L59.979306,255.581815 L274.418966,469.270509 C284.173226,478.99061 284.176196,494.767257 274.413086,504.496177 C264.647836,514.22724 248.823486,514.227718 239.063626,504.502037 L7.434576,273.684139 C2.431126,268.698211 -0.00658400028,262.118693 0.123436,255.579264 L0.123436,255.579264 L0.123436,255.579264 Z" id="Rectangle-1" transform="translate(141.118498, 255.796354) rotate(180.000000) translate(-141.118498, -255.796354) "></path>
                                </g>
                            </g>
                        </g>
                    </g>
                </g>
            </g>
        </g>
    </g>
</svg>