<?xml version="1.0" encoding="UTF-8" standalone="no"?>
<svg width="512px" height="512px" viewBox="0 0 512 512" version="1.1" xmlns="http://www.w3.org/2000/svg" xmlns:xlink="http://www.w3.org/1999/xlink" xmlns:sketch="http://www.bohemiancoding.com/sketch/ns">
    <title>Artboard 1</title>
    <description>Created with Sketch (http://www.bohemiancoding.com/sketch)</description>
    <defs></defs>
    <g id="Page-1" stroke="none" stroke-width="1" fill="none" fill-rule="evenodd" sketch:type="MSPage">
        <g id="Artboard-1" sketch:type="MSArtboardGroup" fill="#555555">
            <g id="VIZ---Operator_Greater-than-or-equal-to" sketch:type="MSLayerGroup" transform="translate(97.000000, 0.000000)">
                <g id="Page-1" sketch:type="MSShapeGroup">
                    <g id="Artboard-1">
                        <path d="M0.0200448615,207.720073 C-0.249097304,200.989695 2.19210296,194.171817 7.34271314,189.033219 L189.476417,7.32429538 C199.26438,-2.44083991 215.13733,-2.44208035 224.926707,7.32446544 C234.71823,17.093152 234.716155,32.9256317 224.926878,42.6920774 L59.5296518,207.703547 L224.926878,372.715027 C234.714841,382.480162 234.716084,398.316093 224.926707,408.082639 C215.135185,417.851325 199.265693,417.849254 189.476417,408.082799 L7.34271314,226.373885 C2.20131768,221.244481 -0.239762256,214.440037 0.0200448615,207.720073 L0.0200448615,207.720073 Z" id="Rectangle-1" transform="translate(116.134796, 207.704198) rotate(180.000000) translate(-116.134796, -207.704198) "></path>
                        <path d="M155.623465,362.197557 C108.496968,362.197557 40.0197159,361.668225 40.0197159,361.668225 C26.1757385,361.570567 14.9529781,372.666095 14.9529781,386.457534 L14.9529781,386.457534 C14.9529781,400.245948 26.1835094,411.423664 40.0193148,411.423664 L323.836475,411.423664 C337.680231,411.423664 348.902821,400.248974 348.902821,386.457534 L348.902821,386.457534 C348.902821,372.66912 337.684503,361.547549 323.83097,361.614807 C323.83097,361.614807 211.458134,362.197557 155.623465,362.197557 L155.623465,362.197557 Z" id="Rectangle-1" transform="translate(181.927900, 386.519084) rotate(135.000000) translate(-181.927900, -386.519084) "></path>
                    </g>
                </g>
            </g>
        </g>
    </g>
</svg>