<?xml version="1.0" encoding="utf-8"?>
<!-- Generator: Adobe Illustrator 16.0.0, SVG Export Plug-In . SVG Version: 6.00 Build 0)  -->
<!DOCTYPE svg PUBLIC "-//W3C//DTD SVG 1.1//EN" "http://www.w3.org/Graphics/SVG/1.1/DTD/svg11.dtd">
<svg version="1.1" id="Layer_1" xmlns="http://www.w3.org/2000/svg" xmlns:xlink="http://www.w3.org/1999/xlink" x="0px" y="0px"
	 width="60px" height="56px" viewBox="0 0 60 56" style="enable-background:new 0 0 60 56;" xml:space="preserve">
<style type="text/css">
<![CDATA[
	.st0{fill:#555655;}
]]>
</style>
<rect x="34" y="25" class="st0" width="9" height="17"/>
<rect x="21" y="4" class="st0" width="9" height="32"/>
<rect x="8" y="15" class="st0" width="9" height="37"/>
<rect x="47" y="18" class="st0" width="9" height="29"/>
</svg>
