<?xml version="1.0" encoding="utf-8"?>
<!-- Generator: Adobe Illustrator 16.0.4, SVG Export Plug-In . SVG Version: 6.00 Build 0)  -->
<!DOCTYPE svg PUBLIC "-//W3C//DTD SVG 1.1//EN" "http://www.w3.org/Graphics/SVG/1.1/DTD/svg11.dtd">
<svg version="1.1" xmlns="http://www.w3.org/2000/svg" xmlns:xlink="http://www.w3.org/1999/xlink" x="0px" y="0px" width="600px"
	 height="560px" viewBox="0 0 600 560" style="enable-background:new 0 0 600 560;" xml:space="preserve">
<style type="text/css">
<![CDATA[
	.st0{fill:#555655;}
]]>
</style>
<g id="Layer_1">
	<g>
		<rect x="144.3" y="92.7" transform="matrix(0.7071 -0.7071 0.7071 0.7071 -44.5089 180.5299)" class="st0" width="102.7" height="102.7"/>
		<rect x="61.2" y="364" transform="matrix(0.7071 -0.7071 0.7071 0.7071 -260.7228 201.1999)" class="st0" width="102.7" height="102.7"/>
		<rect x="288.2" y="249.8" transform="matrix(0.7071 -0.7071 0.7071 0.7071 -113.4615 328.279)" class="st0" width="102.7" height="102.7"/>
		<rect x="436.1" y="160" transform="matrix(0.7071 -0.7071 0.7071 0.7071 -6.6645 406.5882)" class="st0" width="102.7" height="102.7"/>
	</g>
</g>
</svg>
