<?xml version="1.0" encoding="utf-8"?>
<!-- Generator: Adobe Illustrator 16.0.0, SVG Export Plug-In . SVG Version: 6.00 Build 0)  -->
<!DOCTYPE svg PUBLIC "-//W3C//DTD SVG 1.1//EN" "http://www.w3.org/Graphics/SVG/1.1/DTD/svg11.dtd">
<svg version="1.1" xmlns="http://www.w3.org/2000/svg" xmlns:xlink="http://www.w3.org/1999/xlink" x="0px" y="0px" width="60px"
	 height="56px" viewBox="0 0 60 56" style="enable-background:new 0 0 60 56;" xml:space="preserve">
<style type="text/css">
<![CDATA[
	.st0{fill:#555655;}
	.st1{fill:#999999;}
	.st2{display:inline;}
	.st3{display:none;}
]]>
</style>
<g id="Layer_2" class="st3">
	<g id="JdI1OM.tif" class="st2">
		
			<image style="overflow:visible;" width="400" height="300" id="Layer_0_1_" xlink:href="E4B0CA7283C45D41.png"  transform="matrix(0.1292 0 0 0.1292 77.917 40.666)">
		</image>
	</g>
</g>
<g id="Layer_3">
	<circle class="st0" cx="30" cy="38" r="6"/>
	<g>
		<path class="st1" d="M30,12C18.9,12,9.2,18,4,27l11.9,6.9c2.4-4.1,6.5-7,11.3-7.9L31.3,12C30.9,12,30.4,12,30,12z"/>
		<path class="st1" d="M37.3,12.9l-0.5,14.3c3.1,1.4,5.6,3.8,7.3,6.7L56,27C52,20.1,45.3,14.9,37.3,12.9z"/>
	</g>
	<polygon class="st0" points="35.4,5.5 26.2,37.6 34.1,38.7 	"/>
</g>
</svg>
