<?xml version="1.0" encoding="utf-8"?>
<!-- Generator: Adobe Illustrator 16.0.0, SVG Export Plug-In . SVG Version: 6.00 Build 0)  -->
<!DOCTYPE svg PUBLIC "-//W3C//DTD SVG 1.1//EN" "http://www.w3.org/Graphics/SVG/1.1/DTD/svg11.dtd">
<svg version="1.1" id="Layer_1" xmlns="http://www.w3.org/2000/svg" xmlns:xlink="http://www.w3.org/1999/xlink" x="0px" y="0px"
	 width="60px" height="56px" viewBox="0 0 60 56" style="enable-background:new 0 0 60 56;" xml:space="preserve">
<style type="text/css">
<![CDATA[
	.st0{fill:#555655;}
	.st1{fill:#999999;}
	.st2{fill:#787878;}
]]>
</style>
<rect x="5" y="35" class="st1" width="13" height="17"/>
<rect x="22" y="37" class="st1" width="14" height="15"/>
<rect x="40" y="43" class="st1" width="13" height="9"/>
<rect x="40" y="19" class="st2" width="13" height="22"/>
<rect x="40" y="4" class="st0" width="13" height="13"/>
<rect x="22" y="23" class="st2" width="14" height="12"/>
<rect x="22" y="4" class="st0" width="14" height="17"/>
<rect x="5" y="27" class="st2" width="13" height="6"/>
<rect x="5" y="4" class="st0" width="13" height="21"/>
</svg>
