<?xml version="1.0" encoding="utf-8"?>
<!-- Generator: Adobe Illustrator 16.0.4, SVG Export Plug-In . SVG Version: 6.00 Build 0)  -->
<!DOCTYPE svg PUBLIC "-//W3C//DTD SVG 1.1//EN" "http://www.w3.org/Graphics/SVG/1.1/DTD/svg11.dtd">
<svg version="1.1" xmlns="http://www.w3.org/2000/svg" xmlns:xlink="http://www.w3.org/1999/xlink" x="0px" y="0px" width="600px"
	 height="560px" viewBox="0 0 600 560" style="enable-background:new 0 0 600 560;" xml:space="preserve">
<style type="text/css">
<![CDATA[
	.st0{fill:#555655;}
]]>
</style>
<g id="Layer_1">
	<g>
		<circle class="st0" cx="283.8" cy="134.7" r="63.2"/>
		<circle class="st0" cx="307.8" cy="287.6" r="63.2"/>
		<circle class="st0" cx="160" cy="224.4" r="63.2"/>
		<circle class="st0" cx="103.2" cy="425.3" r="63.2"/>
		<path class="st0" d="M497.3,387.4c0,34.9-28.3,63.2-63.2,63.2c-34.9,0-63.2-28.3-63.2-63.2c0-34.9,28.3-63.2,63.2-63.2
			C469,324.2,497.3,352.5,497.3,387.4z"/>
		<circle class="st0" cx="496.9" cy="176.4" r="63.2"/>
	</g>
</g>
</svg>
