<?xml version="1.0" encoding="utf-8"?>
<!-- Generator: Adobe Illustrator 16.0.0, SVG Export Plug-In . SVG Version: 6.00 Build 0)  -->
<!DOCTYPE svg PUBLIC "-//W3C//DTD SVG 1.1//EN" "http://www.w3.org/Graphics/SVG/1.1/DTD/svg11.dtd">
<svg version="1.1" id="Layer_1" xmlns="http://www.w3.org/2000/svg" xmlns:xlink="http://www.w3.org/1999/xlink" x="0px" y="0px"
	 width="60px" height="56px" viewBox="0 0 60 56" style="enable-background:new 0 0 60 56;" xml:space="preserve">
<style type="text/css">
<![CDATA[
	.st0{fill:#555655;}
	.st1{fill:#999999;}
]]>
</style>
<circle class="st0" cx="30" cy="28.5" r="6"/>
<g>
	<path class="st1" d="M45.5,19c1.5,2.7,2.5,5.7,2.5,9c0,9.9-8.1,18-18,18c-9.9,0-18-8.1-18-18s8.1-18,18-18c3.8,0,7.2,1.2,10.1,3.1
		l5-3.8C41,6,35.7,4,30,4C16.7,4,6,14.7,6,28c0,13.3,10.7,24,24,24s24-10.7,24-24c0-5.2-1.7-10.1-4.5-14L45.5,19z"/>
</g>
<polygon class="st0" points="54,5 27.5,25.2 33.5,31.1 "/>
</svg>
