<?xml version="1.0" encoding="utf-8"?>
<!-- Generator: Adobe Illustrator 16.0.0, SVG Export Plug-In . SVG Version: 6.00 Build 0)  -->
<!DOCTYPE svg PUBLIC "-//W3C//DTD SVG 1.1//EN" "http://www.w3.org/Graphics/SVG/1.1/DTD/svg11.dtd">
<svg version="1.1" id="Layer_3" xmlns="http://www.w3.org/2000/svg" xmlns:xlink="http://www.w3.org/1999/xlink" x="0px" y="0px"
	 width="60px" height="56px" viewBox="0 0 60 56" style="enable-background:new 0 0 60 56;" xml:space="preserve">
<style type="text/css">
<![CDATA[
	.st0{fill:#555555;}
]]>
</style>
<g>
	<g>
		<rect x="4" y="43" class="st0" width="47" height="6"/>
	</g>
	<polygon class="st0" points="48,40 56,46 48,52 	"/>
</g>
<g>
	<g>
		<rect x="7" y="10" class="st0" width="6" height="42"/>
	</g>
	<polygon class="st0" points="4,13 10,5 16,13 	"/>
</g>
<circle class="st0" cx="20" cy="17" r="1"/>
<circle class="st0" cx="20" cy="20" r="1"/>
<circle class="st0" cx="20" cy="23" r="1"/>
<circle class="st0" cx="20" cy="26" r="1"/>
<circle class="st0" cx="20" cy="29" r="1"/>
<circle class="st0" cx="20" cy="32" r="1"/>
<circle class="st0" cx="20" cy="35" r="1"/>
<circle class="st0" cx="20" cy="38" r="1"/>
<circle class="st0" cx="32" cy="17" r="1"/>
<circle class="st0" cx="32" cy="20" r="1"/>
<circle class="st0" cx="32" cy="23" r="1"/>
<circle class="st0" cx="32" cy="26" r="1"/>
<circle class="st0" cx="32" cy="29" r="1"/>
<circle class="st0" cx="32" cy="32" r="1"/>
<circle class="st0" cx="32" cy="35" r="1"/>
<circle class="st0" cx="32" cy="38" r="1"/>
<circle class="st0" cx="44" cy="17" r="1"/>
<circle class="st0" cx="44" cy="20" r="1"/>
<circle class="st0" cx="44" cy="23" r="1"/>
<circle class="st0" cx="44" cy="26" r="1"/>
<circle class="st0" cx="44" cy="29" r="1"/>
<circle class="st0" cx="44" cy="32" r="1"/>
<circle class="st0" cx="44" cy="35" r="1"/>
<circle class="st0" cx="44" cy="38" r="1"/>
<circle class="st0" cx="20" cy="14" r="1"/>
<circle class="st0" cx="32" cy="14" r="1"/>
<circle class="st0" cx="44" cy="14" r="1"/>
<circle class="st0" cx="23" cy="17" r="1"/>
<circle class="st0" cx="26" cy="17" r="1"/>
<circle class="st0" cx="29" cy="17" r="1"/>
<circle class="st0" cx="35" cy="17" r="1"/>
<circle class="st0" cx="38" cy="17" r="1"/>
<circle class="st0" cx="41" cy="17" r="1"/>
<circle class="st0" cx="17" cy="17" r="1"/>
<circle class="st0" cx="47" cy="17" r="1"/>
<circle class="st0" cx="23" cy="26" r="1"/>
<circle class="st0" cx="26" cy="26" r="1"/>
<circle class="st0" cx="29" cy="26" r="1"/>
<circle class="st0" cx="35" cy="26" r="1"/>
<circle class="st0" cx="38" cy="26" r="1"/>
<circle class="st0" cx="41" cy="26" r="1"/>
<circle class="st0" cx="17" cy="26" r="1"/>
<circle class="st0" cx="47" cy="26" r="1"/>
<circle class="st0" cx="23" cy="35" r="1"/>
<circle class="st0" cx="26" cy="35" r="1"/>
<circle class="st0" cx="29" cy="35" r="1"/>
<circle class="st0" cx="35" cy="35" r="1"/>
<circle class="st0" cx="38" cy="35" r="1"/>
<circle class="st0" cx="41" cy="35" r="1"/>
<circle class="st0" cx="17" cy="35" r="1"/>
<circle class="st0" cx="47" cy="35" r="1"/>
<circle class="st0" cx="20" cy="11" r="1"/>
<circle class="st0" cx="32" cy="11" r="1"/>
<circle class="st0" cx="44" cy="11" r="1"/>
<circle class="st0" cx="50" cy="17" r="1"/>
<circle class="st0" cx="50" cy="26" r="1"/>
<circle class="st0" cx="50" cy="35" r="1"/>
</svg>
