<?xml version="1.0" encoding="utf-8"?>
<!-- Generator: Adobe Illustrator 17.1.0, SVG Export Plug-In . SVG Version: 6.00 Build 0)  -->
<!DOCTYPE svg PUBLIC "-//W3C//DTD SVG 1.1//EN" "http://www.w3.org/Graphics/SVG/1.1/DTD/svg11.dtd">
<svg version="1.1" id="Layer_4" xmlns="http://www.w3.org/2000/svg" xmlns:xlink="http://www.w3.org/1999/xlink" x="0px" y="0px"
	 viewBox="0 0 512 512" style="enable-background:new 0 0 512 512;" xml:space="preserve">
<style type="text/css">
	.st0{fill:#777777;}
</style>
<g id="share_1_">
	<path class="st0" d="M266.3,454.3L126.6,265.8c-2.9-3.9-1.3-7.1,3.6-7.1l88.3-0.1c0.4-53.3,1.9-169.1-79.6-203.3
		c167.8,2.4,190.7,163.6,193.8,203.2l79.7-0.1c4.9,0,6.5,3.2,3.6,7.1L276.8,454.3C274,458.2,269.2,458.3,266.3,454.3z"/>
</g>
</svg>
