<?xml version="1.0" encoding="utf-8"?>
<!-- Generator: Adobe Illustrator 16.0.4, SVG Export Plug-In . SVG Version: 6.00 Build 0)  -->
<!DOCTYPE svg PUBLIC "-//W3C//DTD SVG 1.1//EN" "http://www.w3.org/Graphics/SVG/1.1/DTD/svg11.dtd">
<svg version="1.1" xmlns="http://www.w3.org/2000/svg" xmlns:xlink="http://www.w3.org/1999/xlink" x="0px" y="0px" width="600px"
	 height="560px" viewBox="0 0 600 560" style="enable-background:new 0 0 600 560;" xml:space="preserve">
<style type="text/css">
<![CDATA[
	.st0{fill:#555655;}
]]>
</style>
<g id="Layer_1_copy_5">
</g>
<g id="Layer_5">
	<path class="st0" d="M542,127c1.8-4,2.7-7.6,2.7-11.4c0-41.7-109.3-75.5-244.1-75.5c-134.8,0-244.1,33.9-244.1,75.5
		c0,3.8,0.9,7.4,2.7,11.4h-0.1l0.1,0c2.6,5.3,6.6,10.4,12.5,15.2L238,338v181h121V338l168.9-195.3c6.3-5,11.1-10.2,13.8-15.7
		L542,127L542,127z M300.6,76.5c110.4,0,200,19.1,200,42.8c0,2.6-1.1,5.1-3.1,7.5c-0.1,0.1-0.2,0.2-0.2,0.3
		c-0.2,0.2-0.4,0.5-0.7,0.7c-0.1,0.1-0.3,0.3-0.4,0.4c-0.2,0.2-0.4,0.4-0.6,0.6c-0.2,0.1-0.3,0.3-0.5,0.4c-0.2,0.2-0.4,0.4-0.6,0.6
		c-0.2,0.1-0.4,0.3-0.5,0.4c-0.2,0.2-0.4,0.4-0.7,0.5c-0.2,0.1-0.4,0.3-0.6,0.4c-0.2,0.2-0.5,0.4-0.7,0.5c-0.2,0.1-0.4,0.3-0.6,0.4
		c-0.3,0.2-0.5,0.4-0.8,0.5c-0.2,0.1-0.4,0.3-0.6,0.4c-0.3,0.2-0.6,0.4-1,0.6c-0.2,0.1-0.4,0.2-0.6,0.4c-0.5,0.3-1,0.6-1.5,0.8
		c-0.1,0.1-0.3,0.1-0.4,0.2c-0.5,0.3-1,0.5-1.5,0.8c-0.2,0.1-0.5,0.2-0.7,0.3c-0.4,0.2-0.8,0.4-1.1,0.6c-0.3,0.1-0.5,0.3-0.8,0.4
		c-0.4,0.2-0.7,0.3-1.1,0.5c-0.3,0.1-0.6,0.3-0.9,0.4c-0.4,0.2-0.8,0.3-1.2,0.5c-0.3,0.1-0.6,0.3-0.9,0.4c-0.4,0.2-0.8,0.3-1.2,0.5
		c-0.3,0.1-0.6,0.3-1,0.4c-0.4,0.2-0.9,0.3-1.3,0.5c-0.3,0.1-0.6,0.2-1,0.4c-0.5,0.2-1,0.3-1.4,0.5c-0.3,0.1-0.6,0.2-0.9,0.3
		c-0.6,0.2-1.3,0.5-2,0.7c-0.2,0.1-0.3,0.1-0.4,0.2c-0.8,0.3-1.6,0.5-2.5,0.8c-0.3,0.1-0.6,0.2-0.9,0.3c-0.6,0.2-1.1,0.4-1.7,0.5
		c-0.4,0.1-0.7,0.2-1.1,0.3c-0.5,0.2-1.1,0.3-1.6,0.5c-0.4,0.1-0.8,0.2-1.2,0.3c-0.5,0.2-1.1,0.3-1.6,0.4c-0.4,0.1-0.8,0.2-1.2,0.3
		c-0.5,0.1-1.1,0.3-1.7,0.4c-0.4,0.1-0.8,0.2-1.2,0.3c-0.6,0.1-1.2,0.3-1.7,0.4c-0.4,0.1-0.8,0.2-1.2,0.3c-0.6,0.2-1.3,0.3-1.9,0.5
		c-0.4,0.1-0.7,0.2-1.1,0.3c-0.8,0.2-1.6,0.4-2.4,0.6c-0.2,0.1-0.5,0.1-0.7,0.2c-1,0.2-2.1,0.5-3.2,0.7c-0.3,0.1-0.6,0.1-1,0.2
		c-0.8,0.2-1.5,0.3-2.3,0.5c-0.4,0.1-0.8,0.2-1.3,0.3c-0.7,0.1-1.4,0.3-2.1,0.4c-0.5,0.1-0.9,0.2-1.4,0.3c-0.7,0.1-1.3,0.3-2,0.4
		c-0.5,0.1-1,0.2-1.5,0.3c-0.7,0.1-1.3,0.2-2,0.4c-0.5,0.1-1,0.2-1.5,0.3c-0.7,0.1-1.4,0.2-2.1,0.4c-0.5,0.1-1,0.2-1.5,0.2
		c-0.8,0.1-1.5,0.3-2.3,0.4c-0.4,0.1-0.9,0.1-1.3,0.2c-0.9,0.1-1.9,0.3-2.8,0.4c-0.3,0-0.6,0.1-0.9,0.1c-1.2,0.2-2.5,0.4-3.8,0.6
		c-0.3,0-0.6,0.1-0.9,0.1c-1,0.1-1.9,0.3-2.9,0.4c-0.5,0.1-0.9,0.1-1.4,0.2c-0.8,0.1-1.6,0.2-2.5,0.3c-0.5,0.1-1,0.1-1.6,0.2
		c-0.8,0.1-1.6,0.2-2.4,0.3c-0.5,0.1-1.1,0.1-1.6,0.2c-0.8,0.1-1.6,0.2-2.4,0.3c-0.5,0.1-1.1,0.1-1.7,0.2c-0.8,0.1-1.6,0.2-2.5,0.3
		c-0.5,0.1-1.1,0.1-1.6,0.2c-0.9,0.1-1.7,0.2-2.6,0.3c-0.5,0.1-1,0.1-1.5,0.2c-1,0.1-2,0.2-3,0.3c-0.4,0-0.8,0.1-1.1,0.1
		c-1.4,0.1-2.8,0.3-4.2,0.4c-0.3,0-0.6,0-0.8,0.1c-1.1,0.1-2.3,0.2-3.4,0.3c-0.5,0-1,0.1-1.5,0.1c-0.9,0.1-1.9,0.2-2.8,0.2
		c-0.6,0-1.2,0.1-1.7,0.1c-0.9,0.1-1.8,0.1-2.7,0.2c-0.6,0-1.2,0.1-1.8,0.1c-0.9,0.1-1.8,0.1-2.7,0.2c-0.6,0-1.2,0.1-1.8,0.1
		c-0.9,0.1-1.8,0.1-2.7,0.2c-0.6,0-1.2,0.1-1.8,0.1c-0.9,0.1-1.9,0.1-2.8,0.2c-0.6,0-1.1,0.1-1.7,0.1c-1.1,0.1-2.2,0.1-3.2,0.2
		c-0.5,0-0.9,0-1.3,0.1c-1.5,0.1-3.1,0.1-4.6,0.2c-0.2,0-0.4,0-0.5,0c-1.4,0.1-2.7,0.1-4.1,0.2c-0.5,0-1,0-1.5,0.1
		c-1.1,0-2.1,0.1-3.2,0.1c-0.6,0-1.2,0-1.8,0.1c-1,0-1.9,0.1-2.9,0.1c-0.7,0-1.3,0-2,0.1c-0.9,0-1.9,0-2.8,0.1c-0.7,0-1.3,0-2,0
		c-0.9,0-1.9,0-2.8,0.1c-0.7,0-1.3,0-2,0c-1,0-2,0-3,0c-0.6,0-1.3,0-1.9,0c-1.1,0-2.2,0-3.3,0c-0.5,0-1,0-1.6,0c-1.6,0-3.3,0-4.9,0
		s-3.3,0-4.9,0c-0.5,0-1,0-1.6,0c-1.1,0-2.2,0-3.3,0c-0.6,0-1.3,0-1.9,0c-1,0-2,0-3,0c-0.7,0-1.3,0-2,0c-1,0-1.9,0-2.8-0.1
		c-0.7,0-1.3,0-2,0c-0.9,0-1.9,0-2.8-0.1c-0.7,0-1.3,0-2-0.1c-1,0-1.9-0.1-2.9-0.1c-0.6,0-1.2,0-1.8-0.1c-1.1,0-2.1-0.1-3.2-0.1
		c-0.5,0-1,0-1.5-0.1c-1.4-0.1-2.7-0.1-4.1-0.2c-0.2,0-0.4,0-0.5,0c-1.5-0.1-3.1-0.1-4.6-0.2c-0.5,0-0.9,0-1.4-0.1
		c-1.1-0.1-2.2-0.1-3.2-0.2c-0.6,0-1.1-0.1-1.7-0.1c-0.9-0.1-1.9-0.1-2.8-0.2c-0.6,0-1.2-0.1-1.8-0.1c-0.9-0.1-1.8-0.1-2.7-0.2
		c-0.6,0-1.2-0.1-1.8-0.1c-0.9-0.1-1.8-0.1-2.7-0.2c-0.6,0-1.2-0.1-1.8-0.1c-0.9-0.1-1.8-0.1-2.7-0.2c-0.6,0-1.2-0.1-1.7-0.1
		c-0.9-0.1-1.9-0.2-2.8-0.2c-0.5,0-1-0.1-1.5-0.1c-1.2-0.1-2.3-0.2-3.4-0.3c-0.3,0-0.6,0-0.8-0.1c-1.4-0.1-2.8-0.3-4.2-0.4
		c-0.4,0-0.8-0.1-1.1-0.1c-1-0.1-2-0.2-3-0.3c-0.5-0.1-1-0.1-1.5-0.2c-0.9-0.1-1.8-0.2-2.6-0.3c-0.5-0.1-1.1-0.1-1.6-0.2
		c-0.8-0.1-1.6-0.2-2.5-0.3c-0.6-0.1-1.1-0.1-1.7-0.2c-0.8-0.1-1.6-0.2-2.4-0.3c-0.5-0.1-1.1-0.1-1.6-0.2c-0.8-0.1-1.6-0.2-2.4-0.3
		c-0.5-0.1-1.1-0.1-1.6-0.2c-0.8-0.1-1.7-0.2-2.5-0.3c-0.5-0.1-0.9-0.1-1.4-0.2c-1-0.1-1.9-0.3-2.9-0.4c-0.3,0-0.6-0.1-0.9-0.1
		c-1.3-0.2-2.5-0.4-3.8-0.6c-0.3,0-0.6-0.1-0.9-0.1c-0.9-0.1-1.9-0.3-2.8-0.4c-0.4-0.1-0.9-0.1-1.3-0.2c-0.8-0.1-1.5-0.2-2.3-0.4
		c-0.5-0.1-1-0.2-1.5-0.2c-0.7-0.1-1.4-0.2-2.1-0.4c-0.5-0.1-1-0.2-1.5-0.3c-0.7-0.1-1.4-0.2-2-0.4c-0.5-0.1-1-0.2-1.5-0.3
		c-0.7-0.1-1.3-0.3-2-0.4c-0.5-0.1-0.9-0.2-1.4-0.3c-0.7-0.1-1.4-0.3-2.1-0.4c-0.4-0.1-0.8-0.2-1.3-0.3c-0.8-0.2-1.5-0.3-2.3-0.5
		c-0.3-0.1-0.6-0.1-1-0.2c-1.1-0.2-2.1-0.5-3.2-0.7c-0.2-0.1-0.5-0.1-0.7-0.2c-0.8-0.2-1.6-0.4-2.4-0.6c-0.4-0.1-0.7-0.2-1.1-0.3
		c-0.6-0.2-1.3-0.3-1.9-0.5c-0.4-0.1-0.8-0.2-1.2-0.3c-0.6-0.1-1.2-0.3-1.7-0.4c-0.4-0.1-0.8-0.2-1.2-0.3c-0.6-0.1-1.1-0.3-1.7-0.4
		c-0.4-0.1-0.8-0.2-1.2-0.3c-0.5-0.1-1.1-0.3-1.6-0.4c-0.4-0.1-0.8-0.2-1.2-0.3c-0.5-0.2-1.1-0.3-1.6-0.5c-0.4-0.1-0.7-0.2-1.1-0.3
		c-0.6-0.2-1.1-0.4-1.7-0.5c-0.3-0.1-0.6-0.2-0.9-0.3c-0.8-0.3-1.7-0.5-2.5-0.8c-0.1-0.1-0.3-0.1-0.4-0.2c-0.7-0.2-1.3-0.5-2-0.7
		c-0.3-0.1-0.6-0.2-0.9-0.3c-0.5-0.2-1-0.3-1.4-0.5c-0.3-0.1-0.6-0.2-1-0.4c-0.4-0.2-0.9-0.3-1.3-0.5c-0.3-0.1-0.6-0.3-1-0.4
		c-0.4-0.2-0.8-0.3-1.2-0.5c-0.3-0.1-0.6-0.3-0.9-0.4c-0.4-0.2-0.8-0.3-1.2-0.5c-0.3-0.1-0.6-0.3-0.9-0.4c-0.4-0.2-0.8-0.3-1.1-0.5
		c-0.3-0.1-0.5-0.3-0.8-0.4c-0.4-0.2-0.8-0.4-1.1-0.6c-0.2-0.1-0.5-0.2-0.7-0.3c-0.5-0.3-1-0.5-1.5-0.8c-0.1-0.1-0.3-0.1-0.4-0.2
		c-0.5-0.3-1-0.6-1.5-0.8c-0.2-0.1-0.4-0.2-0.6-0.4c-0.3-0.2-0.6-0.4-1-0.6c-0.2-0.1-0.4-0.3-0.6-0.4c-0.3-0.2-0.6-0.4-0.8-0.5
		c-0.2-0.1-0.4-0.3-0.6-0.4c-0.3-0.2-0.5-0.4-0.7-0.5c-0.2-0.1-0.4-0.3-0.6-0.4c-0.2-0.2-0.5-0.4-0.7-0.5c-0.2-0.1-0.4-0.3-0.5-0.4
		c-0.2-0.2-0.4-0.4-0.6-0.6c-0.2-0.1-0.3-0.3-0.5-0.4c-0.2-0.2-0.4-0.4-0.6-0.6c-0.1-0.1-0.3-0.3-0.4-0.4c-0.2-0.2-0.4-0.5-0.7-0.7
		c-0.1-0.1-0.2-0.2-0.2-0.3c-2-2.5-3.1-5-3.1-7.5C100.6,95.6,190.1,76.5,300.6,76.5z"/>
</g>
</svg>
