<?xml version="1.0" encoding="UTF-8" standalone="no"?>
<svg width="512px" height="512px" viewBox="0 0 512 512" version="1.1" xmlns="http://www.w3.org/2000/svg" xmlns:xlink="http://www.w3.org/1999/xlink" xmlns:sketch="http://www.bohemiancoding.com/sketch/ns">
    <title>Artboard 1</title>
    <description>Created with Sketch (http://www.bohemiancoding.com/sketch)</description>
    <defs></defs>
    <g id="Page-1" stroke="none" stroke-width="1" fill="none" fill-rule="evenodd" sketch:type="MSPage">
        <g id="Artboard-1" sketch:type="MSArtboardGroup" fill="#777777">
            <path d="M128.146447,76.6464466 L128.146447,-16.8273279 C128.146447,-16.8273279 132.36601,-32.3536895 149.45509,-32.3535534 C166.544169,-32.3534173 301.133826,-32.3535534 301.133826,-32.3535534 C301.133826,-32.3535534 322.146434,-30.9429827 322.146447,-7.76742445 L322.146447,74.5770874 L128.146447,76.6464466 L128.146447,76.6464466 Z M129.146447,397.646447 L129.146447,120.646447 L324.146447,120.646447 L324.146447,396.891391 L129.146447,397.646447 L129.146447,397.646447 Z M133.146447,441.646447 L318.146447,441.646447 L227.166273,604.646447 L133.146447,441.646447 L133.146447,441.646447 Z" id="Path-1" sketch:type="MSShapeGroup" transform="translate(226.146447, 286.146447) rotate(-315.000000) translate(-226.146447, -286.146447) "></path>
        </g>
    </g>
</svg>