FirstName                                                    Lastname                                                     Email                                                                                                                           
------------------------------------------------------------ ------------------------------------------------------------ --------------------------------------------------------------------------------------------------------------------------------
Amer                                                         Khan                                                         contactamer@yahoo.com                                                                                                           
Jan                                                          Exner                                                        Jan.Exner@gmx.net                                                                                                               
adam                                                         miller                                                       adam@adum.com                                                                                                                   
Jesal                                                        Mehta                                                        njesal@gmail.com                                                                                                                
Wassilios                                                    Kazakos                                                      kazakos@disy.net                                                                                                                

(5 rows affected)
FirstName                                                    Lastname                                                     Email                                                                                                                           
------------------------------------------------------------ ------------------------------------------------------------ --------------------------------------------------------------------------------------------------------------------------------
Jerome                                                       Fong                                                         jfong@successmetricsinc.com                                                                                                     
Barbara                                                      Lewis                                                        blewis@successmetricsinc.com                                                                                                    
Tom                                                          Jensen                                                       tjensen@successmetricsinc.com                                                                                                   
Stefan                                                       Schmitz                                                      sschmitz@successmetricsinc.com                                                                                                  
renata                                                       batarse                                                      rbatarse@successmetricsinc.com                                                                                                  
Eric                                                         Lan                                                          elan@successmetricsinc.com                                                                                                      
Jerome 1                                                     Fong                                                         jfong1@successmetricsinc.com                                                                                                    
Hilde                                                        Winther                                                      hwinther@successmetricsinc.com                                                                                                  
Al                                                           Garrison                                                     agarrison@successmetricsinc.com                                                                                                 
scott                                                        nowicki                                                      snowicki@successmetricsinc.com                                                                                                  
Margot                                                       Fonteyn                                                      iford@successmetricsinc.com                                                                                                     
Hubert                                                       Palan                                                        hpalan@successmetricsinc.com                                                                                                    
Sanjath                                                      Shrin                                                        sshringeri@successmetricsinc.com                                                                                                
Manish                                                       Jani                                                         mjani@successmetricsinc.com                                                                                                     

(14 rows affected)
