<?xml version="1.0" encoding="UTF-8" standalone="no"?>
<svg width="512px" height="512px" viewBox="0 0 512 512" version="1.1" xmlns="http://www.w3.org/2000/svg" xmlns:xlink="http://www.w3.org/1999/xlink" xmlns:sketch="http://www.bohemiancoding.com/sketch/ns">
    <title>Artboard 1</title>
    <description>Created with Sketch (http://www.bohemiancoding.com/sketch)</description>
    <defs></defs>
    <g id="Page-1" stroke="none" stroke-width="1" fill="none" fill-rule="evenodd" sketch:type="MSPage">
        <g id="Artboard-1" sketch:type="MSArtboardGroup" fill="#555555">
            <g id="VIZ---Operator_Less-than-or-equal-to" sketch:type="MSLayerGroup" transform="translate(100.000000, 0.000000)">
                <g id="Page-1" sketch:type="MSShapeGroup">
                    <g id="Artboard-1">
                        <path d="M79.0307635,207.44996 C78.7238264,200.684927 81.1585801,193.817406 86.3390529,188.651777 L268.193866,7.31802487 C277.979588,-2.43965801 293.833485,-2.43765959 303.613094,7.31392812 L303.665052,7.36573709 C313.435191,17.1078823 313.442827,32.929623 303.660943,42.6834789 L138.368326,207.502489 L303.660943,372.321498 C313.446665,382.079181 313.44467,397.887642 303.665052,407.63924 L303.613094,407.691049 C293.842955,417.433194 277.97575,417.440808 268.193866,407.686942 L86.3390529,226.353201 C81.1290989,221.158175 78.6935135,214.248027 79.0307635,207.44996 L79.0307635,207.44996 L79.0307635,207.44996 Z M42.8862202,269.318845 C33.0857717,259.557172 17.1883582,259.564892 7.39955605,269.314965 L7.347509,269.366806 C-2.4507909,279.12634 -2.44884315,294.951616 7.35139446,304.71307 L208.113784,504.681155 C217.914232,514.442828 233.811646,514.435108 243.600448,504.685035 L243.652495,504.633184 C253.450795,494.87365 253.448837,479.048384 243.648609,469.28692 L42.8862202,269.318845 L42.8862202,269.318845 Z" id="Rectangle-1"></path>
                    </g>
                </g>
            </g>
        </g>
    </g>
</svg>