<?xml version="1.0" encoding="utf-8"?>
<!-- Generator: Adobe Illustrator 16.0.0, SVG Export Plug-In . SVG Version: 6.00 Build 0)  -->
<!DOCTYPE svg PUBLIC "-//W3C//DTD SVG 1.1//EN" "http://www.w3.org/Graphics/SVG/1.1/DTD/svg11.dtd">
<svg version="1.1" xmlns="http://www.w3.org/2000/svg" xmlns:xlink="http://www.w3.org/1999/xlink" x="0px" y="0px" width="512px"
	 height="512px" viewBox="0 -25.5 512 512" enable-background="new 0 -25.5 512 512" xml:space="preserve">
<g id="Layer_2">
</g>
<g id="Layer_1" xmlns:sketch="http://www.bohemiancoding.com/sketch/ns">
	<title>outside2</title>
	<description>Created with Sketch (http://www.bohemiancoding.com/sketch)</description>
	<g id="Page-1" sketch:type="MSPage">
		<path id="Rectangle-1" sketch:type="MSShapeGroup" fill="#777777" d="M512,229.7c0.1,3.5-1.3,7.1-4,9.8L382.8,363.5
			c-5.3,5.2-13.9,5.2-19.1,0c-5.3-5.2-5.3-13.7,0-19l115.9-114.9L363.5,114.5c-5.3-5.2-5.3-13.7,0-19c5.3-5.2,13.9-5.2,19.1,0
			L508,219.9C510.7,222.6,512.1,226.1,512,229.7z M0,229.4c-0.1-3.5,1.3-7.1,4-9.8L129.2,95.6c5.3-5.2,13.9-5.2,19.1,0
			c5.3,5.2,5.3,13.7,0,19L32.4,229.4l116.1,115.1c5.3,5.2,5.3,13.7,0,19c-5.3,5.2-13.9,5.2-19.1,0L4,239.2
			C1.3,236.5-0.1,233,0,229.4z M256,0c-12.4,0-22.5,10.1-22.5,22.5v415.1c0,12.4,10.1,22.5,22.5,22.5c12.4,0,22.5-10.1,22.5-22.5
			V22.5C278.5,10.1,268.4,0,256,0z"/>
	</g>
</g>
</svg>
