{
  "_id" : "07c6eb9d-a2e4-43dd-a061-b5a0f21666b0",
  "@name" : "Parent Child",
  "Layout" : {
    "@percentHeight" : 100,
    "Layout" : [{
        "@percentHeight" : 34,
        "Layout" : [{
            "@percentHeight" : 100,
            "dashlet" : {
              "EnableExcel" : false,
              "EnableAdhoc" : false,
              "EnableSelfSchedule" : false,
              "EnableCSV" : false,
              "EnableViewSelector" : false,
              "Title" : "Bug 13181",
              "ApplyAllPrompts" : true,
              "Path" : "private/sfoo@birst.com/Bug 13181.AdhocReport",
              "ignorePromptList" : null,
              "EnableSelectorsCtrl" : false,
              "EnablePPT" : false,
              "EnablePivotCtrl" : false,
              "EnablePDF" : false
            },
            "@direction" : "horizontal",
            "@percentWidth" : 50
          }, {
            "@percentHeight" : 100,
            "dashlet" : {
              "EnableExcel" : false,
              "EnableAdhoc" : false,
              "EnableSelfSchedule" : false,
              "EnableCSV" : false,
              "EnableViewSelector" : false,
              "Title" : "Bing Bubble Region",
              "ApplyAllPrompts" : true,
              "Path" : "private/sfoo@birst.com/Bing Bubble Region.AdhocReport",
              "ignorePromptList" : null,
              "EnableSelectorsCtrl" : false,
              "EnablePPT" : false,
              "EnablePivotCtrl" : false,
              "EnablePDF" : false
            },
            "@direction" : "horizontal",
            "@percentWidth" : 50
          }],
        "@direction" : "horizontal",
        "@percentWidth" : 100
      }, {
        "@percentHeight" : 33,
        "Layout" : [{
            "@percentHeight" : 100,
            "dashlet" : {
              "EnableExcel" : false,
              "EnableAdhoc" : false,
              "EnableSelfSchedule" : false,
              "EnableCSV" : false,
              "EnableViewSelector" : false,
              "Title" : 13563,
              "ApplyAllPrompts" : true,
              "Path" : "private/sfoo@birst.com/13563.AdhocReport",
              "ignorePromptList" : null,
              "EnableSelectorsCtrl" : false,
              "EnablePPT" : false,
              "EnablePivotCtrl" : false,
              "EnablePDF" : false
            },
            "@direction" : "horizontal",
            "@percentWidth" : 50
          }, {
            "@percentHeight" : 100,
            "dashlet" : {
              "EnableExcel" : false,
              "EnableAdhoc" : false,
              "EnableSelfSchedule" : false,
              "EnableCSV" : false,
              "EnableViewSelector" : false,
              "Title" : 13969,
              "ApplyAllPrompts" : true,
              "Path" : "private/sfoo@birst.com/13969.AdhocReport",
              "ignorePromptList" : null,
              "EnableSelectorsCtrl" : false,
              "EnablePPT" : false,
              "EnablePivotCtrl" : false,
              "EnablePDF" : false
            },
            "@direction" : "horizontal",
            "@percentWidth" : 50
          }],
        "@direction" : "horizontal",
        "@percentWidth" : 100
      }, {
        "@percentHeight" : 33,
        "Layout" : [{
            "@percentHeight" : 100,
            "Prompt" : {
              "@ref" : "PromptControl5887"
            },
            "@direction" : "horizontal",
            "@percentWidth" : 33
          }, {
            "@percentHeight" : 100,
            "Prompt" : {
              "@ref" : "PromptControl5924"
            },
            "@direction" : "horizontal",
            "@percentWidth" : 33
          }, {
            "@percentHeight" : 100,
            "Prompt" : {
              "@ref" : "PromptControl8444"
            },
            "@direction" : "horizontal",
            "@percentWidth" : 33
          }],
        "@direction" : "horizontal",
        "@percentWidth" : 100
      }],
    "@direction" : "vertical",
    "@percentWidth" : 100
  },
  "Invisible" : false,
  "@dir" : "private/sfoo@birst.com/DD",
  "DoNotDisplayPromptSummary" : false,
  "RectangleSelect" : true,
  "Order" : 2,
  "DefaultPromptsOpen" : false,
  "Prompts" : {
    "Prompt" : [{
        "ReadOnly" : false,
        "imagePath" : "",
        "@ref" : "PromptControl5924",
        "Operator" : "=",
        "targetDashboardName" : "",
        "multiSelectType" : "OR",
        "TreeControl" : false,
        "SliderEndPts" : "Query-Based",
        "Invisible" : false,
        "Version" : 2,
        "ColumnName" : "Time.Year/Month",
        "Parents" : ["", "", "", {
            "Parent" : "Time.Year"
          }],
        "ToolTip" : "",
        "hideIfOnlyOneRow" : false,
        "Parent" : ["Time.Year", "Time.Year", "Time.Year", "Time.Year"],
        "text" : "All",
        "variableToUpdate" : false,
        "ColumnFormat" : "",
        "VisibleName" : "Year/Month",
        "doNotFillIfParentNoSelection" : false,
        "SliderStartPt" : 0,
        "SliderType" : "Point",
        "Multiline" : false,
        "isInDashlet" : true,
        "row" : 0,
        "hideLabel" : false,
        "SliderWidth" : 100,
        "Class" : "Varchar",
        "SliderDispLabels" : "Ends",
        "UseDrillPath" : false,
        "Query" : "SELECT [Time.Year/Month] FROM [ALL] ORDER BY [Time.Year/Month] ASC",
        "ExpandIntoButtons" : false,
        "addNoSelectionEntry" : true,
        "@isInDashlet" : true,
        "QueryColName" : "",
        "SliderDefaultStart" : "",
        "SliderDefaultEnd" : "",
        "PromptType" : "Query",
        "DefaultOption" : "2018/ 1",
        "ParameterName" : "Time.Year/Month",
        "SliderEndPt" : 10,
        "SliderIncrement" : 1,
        "operationName" : "",
        "selectedDate" : "",
        "validationMessage" : "",
        "Options" : "",
        "IsExpression" : false,
        "OperatorParameterName" : "",
        "FilterType" : "DATA"
      }, {
        "ReadOnly" : false,
        "imagePath" : "",
        "@ref" : "PromptControl5887",
        "Operator" : "=",
        "targetDashboardName" : "",
        "multiSelectType" : "OR",
        "TreeControl" : false,
        "SliderEndPts" : "Query-Based",
        "Invisible" : false,
        "immediateParentFilterParam" : "",
        "Version" : 2,
        "ColumnName" : "Time.Year",
        "Parents" : ["", "", "", "", ""],
        "ToolTip" : "",
        "hideIfOnlyOneRow" : false,
        "text" : "All",
        "variableToUpdate" : false,
        "ColumnFormat" : "",
        "VisibleName" : "Year",
        "doNotFillIfParentNoSelection" : false,
        "SliderStartPt" : 0,
        "isInDashlet" : true,
        "SliderType" : "Point",
        "Multiline" : false,
        "row" : 0,
        "hideLabel" : false,
        "SliderWidth" : 100,
        "Class" : "Integer",
        "SliderDispLabels" : "Ends",
        "UseDrillPath" : false,
        "Query" : "SELECT [Time.Year] FROM [ALL] ORDER BY [Time.Year] DESC",
        "ExpandIntoButtons" : false,
        "addNoSelectionEntry" : true,
        "@isInDashlet" : true,
        "QueryColName" : "",
        "SliderDefaultStart" : "",
        "SliderDefaultEnd" : "",
        "PromptType" : "Query",
        "DefaultOption" : 2018,
        "ParameterName" : "Time.Year",
        "SliderEndPt" : 10,
        "SliderIncrement" : 1,
        "Collection" : "",
        "operationName" : "",
        "selectedDate" : "",
        "validationMessage" : "",
        "Options" : "",
        "IsExpression" : false,
        "OperatorParameterName" : "",
        "FilterType" : "DATA"
      }, {
        "ReadOnly" : false,
        "imagePath" : "",
        "@ref" : "PromptControl8444",
        "Operator" : "=",
        "targetDashboardName" : "",
        "multiSelectType" : "OR",
        "TreeControl" : false,
        "SliderEndPts" : "Query-Based",
        "Invisible" : false,
        "Version" : 2,
        "ColumnName" : "Time.Year/Quarter",
        "Parents" : ["", "", {
            "Parent" : "Time.Year/Month"
          }],
        "ToolTip" : "",
        "hideIfOnlyOneRow" : false,
        "Parent" : ["Time.Quarter", "Time.Year", "Time.Year/Month"],
        "text" : "All",
        "variableToUpdate" : false,
        "ColumnFormat" : "",
        "VisibleName" : "Year/Quarter",
        "doNotFillIfParentNoSelection" : false,
        "SliderStartPt" : 0,
        "isInDashlet" : true,
        "SliderType" : "Point",
        "Multiline" : false,
        "row" : 0,
        "hideLabel" : false,
        "SliderWidth" : 100,
        "Class" : "Varchar",
        "SliderDispLabels" : "Ends",
        "UseDrillPath" : false,
        "Query" : "SELECT [Time.Year/Quarter] FROM [ALL] ORDER BY [Time.Year/Quarter] ASC",
        "ExpandIntoButtons" : false,
        "addNoSelectionEntry" : true,
        "@isInDashlet" : true,
        "QueryColName" : "",
        "SliderDefaultStart" : "",
        "SliderDefaultEnd" : "",
        "PromptType" : "Query",
        "DefaultOption" : "",
        "ParameterName" : "Time.Year/Quarter",
        "SliderEndPt" : 10,
        "Collection" : "TT",
        "SliderIncrement" : 1,
        "operationName" : "",
        "selectedDate" : "",
        "validationMessage" : "",
        "Options" : "",
        "IsExpression" : false,
        "OperatorParameterName" : "",
        "FilterType" : "DATA"
      }, {
        "ReadOnly" : false,
        "imagePath" : "",
        "Query" : "SELECT [Products.CategoryName] FROM [ALL] ORDER BY [Products.CategoryName] ASC",
        "targetDashboardName" : "",
        "Operator" : "=",
        "ExpandIntoButtons" : false,
        "TreeControl" : false,
        "addNoSelectionEntry" : true,
        "multiSelectType" : "OR",
        "SliderEndPts" : "Query-Based",
        "QueryColName" : "",
        "Invisible" : false,
        "SliderDefaultEnd" : "",
        "SliderDefaultStart" : "",
        "PromptType" : "Query",
        "DefaultOption" : "Alice Mutton",
        "Parents" : ["", "", {
            "Parent" : "Time.Year/Month"
          }],
        "ColumnName" : "Products.CategoryName",
        "ParameterName" : "Products.CategoryName",
        "Version" : 2,
        "ToolTip" : "",
        "hideIfOnlyOneRow" : false,
        "SliderEndPt" : 10,
        "Parent" : ["Time.Year", "Time.Year", "Time.Year/Month"],
        "Collection" : "TT",
        "SliderIncrement" : 1,
        "text" : "All",
        "operationName" : "",
        "variableToUpdate" : false,
        "selectedDate" : "",
        "ColumnFormat" : "",
        "validationMessage" : "",
        "VisibleName" : "CategoryName",
        "SliderStartPt" : 0,
        "Options" : "",
        "doNotFillIfParentNoSelection" : false,
        "Multiline" : false,
        "SliderType" : "Point",
        "row" : 0,
        "hideLabel" : false,
        "SliderWidth" : 100,
        "IsExpression" : false,
        "OperatorParameterName" : "",
        "FilterType" : "DATA",
        "Class" : "Varchar",
        "SliderDispLabels" : "Ends",
        "UseDrillPath" : false
      }]
  },
  "ClickToOpenClosePrompts" : false,
  "ScaleDashlets" : true,
  "@uuid" : "07c6eb9d-a2e4-43dd-a061-b5a0f21666b0"
}