<?xml version="1.0" encoding="utf-8"?>
<!-- Generator: Adobe Illustrator 17.1.0, SVG Export Plug-In . SVG Version: 6.00 Build 0)  -->
<!DOCTYPE svg PUBLIC "-//W3C//DTD SVG 1.1//EN" "http://www.w3.org/Graphics/SVG/1.1/DTD/svg11.dtd">
<svg version="1.1" id="Layer_4" xmlns="http://www.w3.org/2000/svg" xmlns:xlink="http://www.w3.org/1999/xlink" x="0px" y="0px"
	 viewBox="0 0 512 512" style="enable-background:new 0 0 512 512;" xml:space="preserve">
<style type="text/css">
	.st0{fill:#DDDDDD;stroke:#BBBBBB;stroke-width:6;stroke-miterlimit:10;}
</style>
<g id="left_x5F_arrow_1_">
	<path class="st0" d="M253.4,412.3L66,267.2c-3.9-3-4-8,0-11l187.5-145.1c3.9-3,7.3-1.5,7.3,3.5v93.1h152.6c5,0,9.2,4.2,9.2,9.2
		v89.5c0,5-4.2,9.2-9.2,9.2H260.7v93.1C260.7,413.7,257.3,415.3,253.4,412.3z"/>
</g>
</svg>
