<?xml version="1.0" encoding="utf-8"?>
<!-- Generator: Adobe Illustrator 17.1.0, SVG Export Plug-In . SVG Version: 6.00 Build 0)  -->
<!DOCTYPE svg PUBLIC "-//W3C//DTD SVG 1.1//EN" "http://www.w3.org/Graphics/SVG/1.1/DTD/svg11.dtd">
<svg version="1.1" xmlns="http://www.w3.org/2000/svg" xmlns:xlink="http://www.w3.org/1999/xlink" x="0px" y="0px"
	 viewBox="0 0 512 512" style="enable-background:new 0 0 512 512;" xml:space="preserve">
<style type="text/css">
	.st0{display:none;}
	.st1{display:inline;fill:none;}
	.st2{fill:#777777;}
</style>
<g id="Layer_3" class="st0">
	<rect x="1" class="st1" width="512" height="512"/>
</g>
<g id="Layer_2">
	<path class="st2" d="M441.4,186.8l0-34.5c0,0-0.2-11.6-15.1-11.6h-31h-30.8h-14.1h-32h-51.3l-5.4-31.5c-2.7-8-11.8-14.6-20.2-14.6
		H134c-8.5,0-17.6,6.6-20.2,14.6l-5.4,31.5H87.9c-7,0-12.7,4.8-14.5,11.3c-0.5,1.3-0.8,2.7-0.8,4.1v30.8v215.2
		c0,8.5,6.9,15.4,15.4,15.4h338.2c8.5,0,15.4-6.9,15.4-15.4L441.4,186.8C441.5,186.8,441.4,186.8,441.4,186.8z M329.9,296.6h-57.2
		v59h-38.1v-59h-61v-38.1h61v-59.2h38.1v59.2h57.2V296.6z"/>
</g>
</svg>
