<?xml version="1.0" encoding="utf-8"?>
<!-- Generator: Adobe Illustrator 17.1.0, SVG Export Plug-In . SVG Version: 6.00 Build 0)  -->
<!DOCTYPE svg PUBLIC "-//W3C//DTD SVG 1.1//EN" "http://www.w3.org/Graphics/SVG/1.1/DTD/svg11.dtd">
<svg version="1.1" id="Layer_4" xmlns="http://www.w3.org/2000/svg" xmlns:xlink="http://www.w3.org/1999/xlink" x="0px" y="0px"
	 viewBox="0 0 512 512" style="enable-background:new 0 0 512 512;" xml:space="preserve">
<style type="text/css">
	.st0{fill:#777777;}
</style>
<rect x="162.1" y="149.5" class="st0" width="43.7" height="44.2"/>
<rect x="212.2" y="149.5" class="st0" width="43.7" height="44.2"/>
<rect x="262.4" y="149.5" class="st0" width="43.7" height="44.2"/>
<rect x="312.5" y="149.5" class="st0" width="43.7" height="44.2"/>
<rect x="162.1" y="200.4" class="st0" width="43.7" height="44.2"/>
<rect x="212.2" y="200.4" class="st0" width="43.7" height="44.2"/>
<rect x="262.4" y="200.4" class="st0" width="43.7" height="44.2"/>
<rect x="312.5" y="200.4" class="st0" width="43.7" height="44.2"/>
<rect x="162.1" y="250.3" class="st0" width="43.7" height="44.2"/>
<rect x="212.2" y="250.3" class="st0" width="43.7" height="44.2"/>
<rect x="262.4" y="250.3" class="st0" width="43.7" height="44.2"/>
<rect x="312.5" y="250.3" class="st0" width="43.7" height="44.2"/>
<rect x="162.1" y="300.2" class="st0" width="43.7" height="44.2"/>
<rect x="212.2" y="300.2" class="st0" width="43.7" height="44.2"/>
<rect x="262.4" y="300.2" class="st0" width="43.7" height="44.2"/>
<rect x="312.5" y="300.2" class="st0" width="43.7" height="44.2"/>
</svg>
