<?xml version="1.0" encoding="utf-8"?>
<!-- Generator: Adobe Illustrator 17.1.0, SVG Export Plug-In . SVG Version: 6.00 Build 0)  -->
<!DOCTYPE svg PUBLIC "-//W3C//DTD SVG 1.1//EN" "http://www.w3.org/Graphics/SVG/1.1/DTD/svg11.dtd">
<svg version="1.1" xmlns="http://www.w3.org/2000/svg" xmlns:xlink="http://www.w3.org/1999/xlink" x="0px" y="0px"
	 viewBox="0 0 512 512" style="enable-background:new 0 0 512 512;" xml:space="preserve">
<style type="text/css">
	.st0{display:none;}
	.st1{display:inline;}
	.st2{fill:#777777;}
</style>
<g id="Layer_1" class="st0">
	<g id="yQPFnx_1_" class="st1">
		
			<image style="overflow:visible;" width="524" height="624" id="yQPFnx" xlink:href="909F8A2BF65DFD72.jpg"  transform="matrix(0.6483 0 0 0.6483 80.6603 53.7452)">
		</image>
	</g>
</g>
<g id="Layer_4">
	<g>
		<g>
			<path class="st2" d="M336.2,169.9c-9.9,0-18-8.1-18-18V65.7c0-9.9-8.1-18-18-18h-90.8c-9.9,0-18,8.1-18,18V339
				c0,9.9,8.1,18,18,18h197.9c9.9,0,18-8.1,18-18V187.9c0-9.9-8.1-18-18-18H336.2z"/>
		</g>
		<g>
			<polygon class="st2" points="396.4,169.9 425.4,193.3 425.4,169.9 			"/>
			<polygon class="st2" points="318.2,67.2 318.2,47.7 298.1,47.7 			"/>
		</g>
		<g>
			<path class="st2" d="M340.7,59.8c-5.8-6.6-10.5-4.9-10.5,3.9v77.4c0,8.8,7.2,16,16,16h63.2c8.8,0,11.3-5.4,5.5-12.1L340.7,59.8z"
				/>
		</g>
		<path class="st2" d="M387.3,85"/>
		<polygon class="st2" points="330.1,64.6 330.1,47.7 341.3,60.6 		"/>
		<polygon class="st2" points="404.1,157.1 425.4,157.1 414.3,144.4 		"/>
		<path class="st2" d="M158.1,128.9H104c0,0-23.3-1.4-23.3,18.9s0,294.3,0,294.3s2.4,16.2,21.3,16.2s211.1,0,211.1,0
			s14.2-1.3,14.2-21.6s0-50.7,0-50.7l-152.9-0.7c0,0-15.6-3.4-15.6-19.6S158.1,128.9,158.1,128.9z"/>
	</g>
</g>
</svg>
