<?xml version="1.0" encoding="utf-8"?>
<!-- Generator: Adobe Illustrator 17.1.0, SVG Export Plug-In . SVG Version: 6.00 Build 0)  -->
<!DOCTYPE svg PUBLIC "-//W3C//DTD SVG 1.1//EN" "http://www.w3.org/Graphics/SVG/1.1/DTD/svg11.dtd">
<svg version="1.1" xmlns="http://www.w3.org/2000/svg" xmlns:xlink="http://www.w3.org/1999/xlink" x="0px" y="0px"
	 viewBox="0 0 512 512" style="enable-background:new 0 0 512 512;" xml:space="preserve">
<style type="text/css">
	.st0{fill-rule:evenodd;clip-rule:evenodd;fill:#777777;}
</style>
<g id="Layer_3">
</g>
<g id="Layer_1">
	<g id="Shape_81">
		<g>
			<path class="st0" d="M440.7,168.8c0-21.2-24.3-26.3-24.3-26.3H255c0,0,0-2.1,0-24.9s-22.9-28.1-22.9-28.1s-108.9,0-133.8,0
				c-25,0-28.5,23.2-28.5,23.2v52.8C39.7,177.4,42.6,196,42.6,196l27.2,221.8c4,20.8,24.3,24,24.3,24h319.5
				c21.6,0,27.8-23.2,27.8-23.2l25.3-227.3C460.2,168.5,440.7,168.8,440.7,168.8z M332.1,310l-89.2,68.9c-1.9,1.4-3.5,0.7-3.5-1.7
				V333h-72.6c-2.4,0-4.4-2-4.4-4.4v-42.5c0-2.3,2-4.4,4.4-4.4h72.6v-44.2c0-2.4,1.6-3.1,3.5-1.7l89.2,68.9
				C333.9,306.2,333.9,308.6,332.1,310z"/>
		</g>
	</g>
</g>
</svg>
