<?xml version="1.0" encoding="utf-8"?>
<!-- Generator: Adobe Illustrator 17.1.0, SVG Export Plug-In . SVG Version: 6.00 Build 0)  -->
<!DOCTYPE svg PUBLIC "-//W3C//DTD SVG 1.1//EN" "http://www.w3.org/Graphics/SVG/1.1/DTD/svg11.dtd">
<svg version="1.1" xmlns="http://www.w3.org/2000/svg" xmlns:xlink="http://www.w3.org/1999/xlink" x="0px" y="0px"
	 viewBox="0 0 512 512" style="enable-background:new 0 0 512 512;" xml:space="preserve">
<style type="text/css">
	.st0{display:none;}
	.st1{display:inline;}
	.st2{fill:#777777;}
</style>
<g id="Layer_1" class="st0">
	<g id="mg3ofc_1_" class="st1">
		
			<image style="overflow:visible;" width="512" height="512" id="mg3ofc" xlink:href="B84A7DF803D8AF8.jpg"  transform="matrix(0.7773 6.501407e-04 -6.501407e-04 0.7773 57.1665 56.8336)">
		</image>
	</g>
</g>
<g id="Layer_3">
	<path class="st2" d="M197.6,248c0.5,5.2,3.1,13.3,15.6,20.2c20.8,11.4,91.8,56,91.8,56s6.3,2.2,16.1,1.5c3.8-2.4,7.8-4.5,12.1-6.2
		c36.3-14.4,77.4,3.3,91.8,39.6c14.4,36.3-3.3,77.4-39.6,91.8c-36.3,14.4-77.4-3.3-91.8-39.6c-2.1-5.4-3.5-10.9-4.3-16.3l0,0
		c0,0,0,0,0,0c-0.4-3-0.6-6-0.7-9c-1.2-6.6-4.5-15.3-13.1-20.1c-15.3-8.6-99.3-59.5-99.3-59.5s-10.2-2.7-20.6,1.4
		c-0.2,0.1-0.5,0.2-0.7,0.2c-0.6,0.3-1.2,0.5-1.8,0.8c-36.3,14.4-77.4-3.3-91.8-39.6s3.3-77.4,39.6-91.8c22.5-8.9,46.9-5.5,65.6,7.1
		l0,0c0,0,0,0,0.1,0.1c0.4,0.3,0.8,0.6,1.2,0.9c3.2,2,12.3,6.4,25,1.1l110.2-46.7c0,0,8.2-2.8,11.3-18.5c0,0,0-0.1,0-0.1
		c2.2-25.9,18.6-49.6,44.3-59.8c36.3-14.4,77.4,3.3,91.8,39.6s-3.3,77.4-39.6,91.8c-20.1,8-41.7,6.1-59.4-3.4l0,0c0,0,0,0-0.1,0
		c-1-0.5-1.9-1.1-2.9-1.6c-4.6-2.3-14.2-5.6-24.7-1.2c-14.8,6.1-112.9,47.5-112.9,47.5s-10.7,4-13.2,12.3
		C197.7,246.1,197.5,247.2,197.6,248z"/>
</g>
</svg>
