<?xml version="1.0" encoding="utf-8"?>
<!-- Generator: Adobe Illustrator 17.1.0, SVG Export Plug-In . SVG Version: 6.00 Build 0)  -->
<!DOCTYPE svg PUBLIC "-//W3C//DTD SVG 1.1//EN" "http://www.w3.org/Graphics/SVG/1.1/DTD/svg11.dtd">
<svg version="1.1" xmlns="http://www.w3.org/2000/svg" xmlns:xlink="http://www.w3.org/1999/xlink" x="0px" y="0px"
	 viewBox="0 0 512 512" style="enable-background:new 0 0 512 512;" xml:space="preserve">
<style type="text/css">
	.st0{display:none;}
	.st1{display:inline;}
	.st2{fill:#777777;}
</style>
<g id="Layer_3" class="st0">
	<g id="AY83HS_1_" class="st1">
		
			<image style="overflow:visible;" width="16" height="16" id="AY83HS" xlink:href="7C13A2ABAFBA98AF.jpg"  transform="matrix(18.516 0 0 18.516 107.8716 102.7432)">
		</image>
	</g>
</g>
<g id="Layer_2">
	<rect x="107.9" y="102.7" class="st2" width="296.3" height="74.3"/>
	<rect x="107.9" y="213.7" class="st2" width="296.3" height="74.3"/>
	<rect x="107.9" y="324.7" class="st2" width="296.3" height="74.3"/>
</g>
</svg>
