<?xml version="1.0" encoding="utf-8"?>
<!-- Generator: Adobe Illustrator 16.0.4, SVG Export Plug-In . SVG Version: 6.00 Build 0)  -->
<!DOCTYPE svg PUBLIC "-//W3C//DTD SVG 1.1//EN" "http://www.w3.org/Graphics/SVG/1.1/DTD/svg11.dtd">
<svg version="1.1" xmlns="http://www.w3.org/2000/svg" xmlns:xlink="http://www.w3.org/1999/xlink" x="0px" y="0px" width="600px"
	 height="560px" viewBox="0 0 600 560" style="enable-background:new 0 0 600 560;" xml:space="preserve">
<style type="text/css">
<![CDATA[
	.st0{fill:#787878;stroke:#787878;stroke-width:16;stroke-miterlimit:10;}
]]>
</style>
<g id="Layer_1_copy_5">
</g>
<g id="Layer_4">
</g>
<g id="Layer_3">
	<g>
		<path class="st0" d="M270.6,400c-0.2-8-0.3-13.4-0.3-17.1c0-22,3.1-41.1,9.3-57c4.6-12,11.9-24.2,22.1-36.4
			c7.5-8.9,20.9-21.9,40.2-39c19.4-17.1,31.9-30.7,37.7-40.9c5.8-10.1,8.7-21.2,8.7-33.3c0-21.7-8.5-40.9-25.5-57.3
			c-17-16.5-37.8-24.7-62.4-24.7c-23.8,0-43.7,7.5-59.6,22.4c-15.9,14.9-26.4,38.2-31.4,69.9l-57.5-6.8c5.2-42.5,20.6-75,46.1-97.5
			c25.6-22.6,59.4-33.9,101.4-33.9c44.5,0,80,12.1,106.6,36.3c26.5,24.2,39.8,53.5,39.8,87.9c0,19.9-4.7,38.2-14,55
			c-9.3,16.8-27.5,37.2-54.7,61.2c-18.2,16.2-30.1,28.1-35.7,35.7c-5.6,7.7-9.7,16.8-12.4,26.7c-2.7,9.9-4.2,25.8-4.7,48.8H270.6z
			 M268,512v-64h62v64H268z"/>
	</g>
</g>
</svg>
