<?xml version="1.0" encoding="UTF-8" standalone="no"?>
<svg width="512px" height="381px" viewBox="0 0 512 381" version="1.1" xmlns="http://www.w3.org/2000/svg" xmlns:xlink="http://www.w3.org/1999/xlink" xmlns:sketch="http://www.bohemiancoding.com/sketch/ns">
    <title>SVG_ICON 7</title>
    <description>Created with Sketch (http://www.bohemiancoding.com/sketch)</description>
    <defs></defs>
    <g id="Page-1" stroke="none" stroke-width="1" fill="none" fill-rule="evenodd" sketch:type="MSPage">
        <g id="Artboard-1" sketch:type="MSArtboardGroup" transform="translate(-401.000000, -7572.000000)" fill="#999999">
            <path d="M478.496255,7687.72886 C474.190908,7697.22899 401,7881.18607 401,7881.18607 L401,7623.81889 C401,7614.31876 408.749626,7606.54593 418.22139,7606.54593 L441.470267,7606.54593 L447.497753,7588.40932 C450.080962,7579.77283 460.413796,7572 469.88556,7572 L555.992511,7572 C565.464275,7572 575.797109,7579.77283 578.380318,7588.40932 L584.407804,7606.54593 L745.427802,7606.54593 C754.899566,7606.54593 762.649192,7614.31876 762.649192,7623.81889 L762.649192,7675.63779 L495.717646,7675.63779 C490.551228,7675.63779 482.801603,7677.36508 478.496255,7687.72886 L478.496255,7687.72886 Z M900.420313,7692.91075 L521.549731,7692.91075 C512.077966,7692.91075 501.745132,7699.81994 498.300854,7709.32007 L407.888556,7936.45955 C404.444278,7945.09604 409.610695,7952.86887 419.08246,7952.86887 L797.953042,7952.86887 C807.424806,7952.86887 817.75764,7945.95968 821.201918,7936.45955 L911.614216,7709.32007 C915.058494,7699.81994 909.892077,7692.91075 900.420313,7692.91075 L900.420313,7692.91075 Z" id="Shape" sketch:type="MSShapeGroup"></path>
        </g>
    </g>
</svg>