<?xml version="1.0" encoding="utf-8"?>
<!-- Generator: Adobe Illustrator 16.0.4, SVG Export Plug-In . SVG Version: 6.00 Build 0)  -->
<!DOCTYPE svg PUBLIC "-//W3C//DTD SVG 1.1//EN" "http://www.w3.org/Graphics/SVG/1.1/DTD/svg11.dtd">
<svg version="1.1" xmlns="http://www.w3.org/2000/svg" xmlns:xlink="http://www.w3.org/1999/xlink" x="0px" y="0px" width="600px"
	 height="560px" viewBox="0 0 600 560" style="enable-background:new 0 0 600 560;" xml:space="preserve">
<style type="text/css">
<![CDATA[
	.st0{fill:#71C8F1;}
	.st1{fill:#787878;}
]]>
</style>
<g id="Layer_1_copy_5">
</g>
<g id="Layer_3">
	<path class="st0" d="M245,80"/>
	<polygon class="st1" points="40,424.4 300,135.6 560,424.4 	"/>
</g>
</svg>
