<?xml version="1.0" encoding="UTF-8" standalone="no"?>
<svg width="512px" height="456px" viewBox="0 0 512 456" version="1.1" xmlns="http://www.w3.org/2000/svg" xmlns:xlink="http://www.w3.org/1999/xlink" xmlns:sketch="http://www.bohemiancoding.com/sketch/ns">
    <title>SVG_ICON 2</title>
    <description>Created with Sketch (http://www.bohemiancoding.com/sketch)</description>
    <defs></defs>
    <g id="Page-1" stroke="none" stroke-width="1" fill="none" fill-rule="evenodd" sketch:type="MSPage">
        <g id="Artboard-1" sketch:type="MSArtboardGroup" transform="translate(-1062.000000, -6913.000000)" fill="#FFFFFF">
            <rect id="Rectangle-1" sketch:type="MSShapeGroup" x="1062" y="6913" width="512" height="57" rx="40"></rect>
            <rect id="Rectangle-1-copy" sketch:type="MSShapeGroup" x="1062" y="7113" width="512" height="57" rx="40"></rect>
            <rect id="Rectangle-1-copy-2" sketch:type="MSShapeGroup" x="1062" y="7312" width="512" height="57" rx="40"></rect>
        </g>
    </g>
</svg>