<?xml version="1.0" encoding="utf-8"?>
<!-- Generator: Adobe Illustrator 16.0.4, SVG Export Plug-In . SVG Version: 6.00 Build 0)  -->
<!DOCTYPE svg PUBLIC "-//W3C//DTD SVG 1.1//EN" "http://www.w3.org/Graphics/SVG/1.1/DTD/svg11.dtd">
<svg version="1.1" id="Layer_1" xmlns:sketch="http://www.bohemiancoding.com/sketch/ns"
	 xmlns="http://www.w3.org/2000/svg" xmlns:xlink="http://www.w3.org/1999/xlink" x="0px" y="0px" width="512px" height="512px"
	 viewBox="0 0 512 512" style="enable-background:new 0 0 512 512;" xml:space="preserve">
<style type="text/css">
<![CDATA[
	.st0{fill:#777777;}
]]>
</style>
<title>Artboard 1</title>
<description>Created with Sketch (http://www.bohemiancoding.com/sketch)</description>
<g id="Page-1" sketch:type="MSPage">
	<g id="Artboard-1" sketch:type="MSArtboardGroup">
		<path id="Rectangle-1" sketch:type="MSShapeGroup" class="st0" d="M28.5,28C12.8,28,0,40.8,0,56.5C0,72.2,12.8,85,28.5,85h455
			c15.7,0,28.5-12.8,28.5-28.5c0-15.7-12.8-28.5-28.5-28.5H28.5z M28.5,228C12.8,228,0,240.8,0,256.5C0,272.2,12.8,285,28.5,285h455
			c15.7,0,28.5-12.8,28.5-28.5c0-15.7-12.8-28.5-28.5-28.5H28.5z M28.5,427C12.8,427,0,439.8,0,455.5C0,471.2,12.8,484,28.5,484h455
			c15.7,0,28.5-12.8,28.5-28.5c0-15.7-12.8-28.5-28.5-28.5H28.5z"/>
	</g>
</g>
</svg>
