{
    anychart:{
        charts:{
            chart:{
                plot_type:'CategorizedVertical',
                data_plot_settings:{
                    default_series_type:'Bar',
                    bar_series:{
                        tooltip_settings:{
                            enabled:'True'
                        }
                    }
                },
                data:{
                    series:[
                        {
                            name:'Quarter 1',
                            point:[
                                {
                                    name:'John',
                                    y:10000
                                },
                                {
                                    name:'Jake',
                                    y:12000
                                },
                                {
                                    name:'Peter',
                                    y:18000
                                },
                                {
                                    name:'James',
                                    y:11000
                                },
                                {
                                    name:'Mary',
                                    y:9000
                                }
                            ]
                        },
                        {
                            name:'Quarter 2',
                            point:[
                                {
                                    name:'John',
                                    y:12000
                                },
                                {
                                    name:'Jake',
                                    y:15000
                                },
                                {
                                    name:'Peter',
                                    y:16000
                                },
                                {
                                    name:'James',
                                    y:13000
                                },
                                {
                                    name:'Mary',
                                    y:19000
                                }
                            ]
                        }
                    ]
                },
                chart_settings:{
                    title:{
                        enabled:'false'
                    },
                    axes:{
                        y_axis:{
                            title:{
                                text:'Sales'
                            },
                            labels:{
                            format:'{%Value}{numDecimals:0}'
                            }
                        },
                        x_axis:{
                            title:{
                                text:'Manager'
                            }
                        }
                    }
                }
            }
        }
    }
}