Age Group	# Cart ID
18-24	462
Under 18	398
35-44	488
45-54	534
55-64	205
25-34	512
Over 64	401

Date	Sum: Quantity
2008-07-16 00:00:00.0	37,225
2008-07-17 00:00:00.0	37,225

Date	Sum: Quantity	Sum: Quantity
2008-07-16 00:00:00.0	37,225	37,225

Age Group	# Cart ID
18-24	462
Under 18	398
35-44	488
45-54	534
55-64	205
25-34	512
Over 64	401

Gender
Female
Male

Quantity
1
2
3
4
5

Category Name
Fruit
Meat
Nuts
Vegetable

Product Name
Almonds
Apple
Banana
Beef
Cabage
Carrot
Cashews
Chicken
Grapefruit
Grapes
Kiwi
Mushroom
Orange
Peanuts
Pear
Pine nuts
Pork
Potato
Tomato
Turkey

F0_Gender	F1_# Cart ID
Male	1,353
Female	1,647

Gender	Cart ID
Female	1,647
Male	1,353

F0_Quantity	F1_# Cart ID
3	2,488
1	2,490
4	2,538
2	2,497
5	2,425

F0_Category Name	F1_# Cart ID
Fruit	4,396
Meat	2,499
Nuts	2,478
Vegetable	3,065

Quantity	Cart ID
4	2,538
2	2,497
1	2,490
3	2,488
5	2,425

Category Name	Cart ID
Fruit	4,396
Vegetable	3,065
Meat	2,499
Nuts	2,478

