<?xml version="1.0" encoding="utf-8"?>
<!-- Generator: Adobe Illustrator 16.0.4, SVG Export Plug-In . SVG Version: 6.00 Build 0)  -->
<!DOCTYPE svg PUBLIC "-//W3C//DTD SVG 1.1//EN" "http://www.w3.org/Graphics/SVG/1.1/DTD/svg11.dtd">
<svg version="1.1" id="Layer_1" xmlns="http://www.w3.org/2000/svg" xmlns:xlink="http://www.w3.org/1999/xlink" x="0px" y="0px"
	 width="600px" height="560px" viewBox="0 0 600 560" style="enable-background:new 0 0 600 560;" xml:space="preserve">
<style type="text/css">
<![CDATA[
	.st0{fill:#888888;}
	.st1{fill:#555655;}
]]>
</style>
<path class="st1" d="M41.2,183.9V120h75c31.1,0,56.7,11.8,77,35.5c8.1,8.8,18.6,22.3,31.4,40.5c-0.7,1.4-1.9,3.2-3.5,5.6
	c-1.7,2.4-2.9,4.2-3.5,5.6c-7.4,10.1-16.2,22.3-26.3,36.5c-0.7,1.4-1.7,2.9-3,4.6c-1.4,1.7-2.4,2.9-3,3.5
	c-20.3-29-33.4-46.9-39.5-53.7c-6.1-7.4-10.1-11.7-12.2-12.7c-2-1-7.8-1.5-17.2-1.5L41.2,183.9L41.2,183.9z"/>
<path class="st1" d="M264.1,361.2c14.9-22.3,25.3-37.8,31.4-46.6c1.4-1.4,2.7-3,4.1-5.1c1.4-2,2.4-3.4,3-4.1
	c19.6,26.3,33.8,44.2,42.6,53.7c7.4,7.4,12.3,11.7,14.7,13c2.4,1.4,6.2,1.9,11.7,1.9H445v-81.7l114.5,113.5L445,520.2V438h-73.5
	c-25.7,0-49.3-11.1-70.9-33.4C290.4,394.5,278.3,380.1,264.1,361.2L264.1,361.2z"/>
<path class="st0" d="M41.2,440.2v-63.8h75c9.5,0,15.2-0.5,17.2-1.5c2-1,6.1-4.9,12.2-11.7c3.4-4.1,27.4-37.8,71.9-101.3
	c38.5-55.4,66.2-91.5,83.1-108.4c21.6-22.3,45.3-33.4,70.9-33.4h74V40l114.5,114.5L445.4,267.9v-84.1h-74c-5.4,0-9.3,0.7-11.7,2
	c-2.4,1.4-7.3,5.7-14.7,13.2c-13.5,13.5-38.5,46.6-75,99.3c-8.1,10.8-18.2,25.3-30.4,43.6c-12.2,18.2-21.4,31.7-27.9,40.5
	c-6.4,8.8-12.7,16.5-18.7,23.3c-20.3,23-45.9,34.4-77,34.4H41.2L41.2,440.2z"/>
</svg>
