<?xml version="1.0" encoding="UTF-8" standalone="no"?>
<svg width="409px" height="412px" viewBox="0 0 409 412" version="1.1" xmlns="http://www.w3.org/2000/svg" xmlns:xlink="http://www.w3.org/1999/xlink" xmlns:sketch="http://www.bohemiancoding.com/sketch/ns">
    <title>ICONICON 28</title>
    <description>Created with Sketch (http://www.bohemiancoding.com/sketch)</description>
    <defs></defs>
    <g id="Page-1" stroke="none" stroke-width="1" fill="none" fill-rule="evenodd" sketch:type="MSPage">
        <g id="Artboard-1" sketch:type="MSArtboardGroup" transform="translate(-2438.000000, -2633.000000)" fill="#777777">
            <path d="M2540.48106,2695.30392 L2540.48106,2619.75598 C2540.48106,2619.75598 2543.85973,2607.20717 2557.54322,2607.20728 C2571.22671,2607.20739 2678.99473,2607.20728 2678.99473,2607.20728 C2678.99473,2607.20728 2695.81985,2608.34734 2695.81986,2627.07843 L2695.81986,2693.63141 L2540.48106,2695.30392 Z M2540.22506,2952.92157 L2540.22506,2730.44651 L2697.04077,2730.44651 L2697.04077,2952.31514 L2540.22506,2952.92157 Z M2544.26062,2987.88095 L2693.08759,2987.88095 L2619.89676,3118.66387 L2544.26062,2987.88095 Z" id="Path-1" sketch:type="MSShapeGroup" transform="translate(2618.500000, 2863.000000) rotate(-315.000000) translate(-2618.500000, -2863.000000) "></path>
        </g>
    </g>
</svg>