<?xml version="1.0" encoding="UTF-8" standalone="no"?>
<svg width="512px" height="512px" viewBox="0 0 512 512" version="1.1" xmlns="http://www.w3.org/2000/svg" xmlns:xlink="http://www.w3.org/1999/xlink" xmlns:sketch="http://www.bohemiancoding.com/sketch/ns">
    <title>ICONICON 19</title>
    <description>Created with Sketch (http://www.bohemiancoding.com/sketch)</description>
    <defs></defs>
    <g id="Page-1" stroke="none" stroke-width="1" fill="none" fill-rule="evenodd" sketch:type="MSPage">
        <g id="Artboard-1" sketch:type="MSArtboardGroup" transform="translate(-1614.000000, -2321.000000)" fill="#777777">
            <path d="M2050.76735,2396.23265 C1950.45714,2295.92245 1788.49796,2295.92245 1689.23265,2396.23265 C1588.92245,2496.54286 1588.92245,2658.50204 1689.23265,2757.76735 C1789.54286,2858.07755 1951.50204,2858.07755 2050.76735,2757.76735 C2151.07755,2658.50204 2151.07755,2495.49796 2050.76735,2396.23265 L2050.76735,2396.23265 Z M2017.33061,2514.30612 L1839.69796,2691.93878 C1836.56327,2695.07347 1832.38367,2695.07347 1830.29388,2691.93878 L1722.66939,2584.31429 C1719.53469,2581.17959 1719.53469,2577 1722.66939,2574.9102 L1767.6,2529.97959 C1770.73469,2526.8449 1774.91429,2526.8449 1777.00408,2529.97959 L1830.29388,2583.26939 C1833.42857,2586.40408 1837.60816,2586.40408 1839.69796,2583.26939 L1962.99592,2459.97143 C1966.13061,2456.83673 1970.3102,2456.83673 1972.4,2459.97143 L2017.33061,2503.85714 C2020.46531,2506.99184 2020.46531,2511.17143 2017.33061,2514.30612 L2017.33061,2514.30612 Z" id="Shape" sketch:type="MSShapeGroup"></path>
        </g>
    </g>
</svg>