<?xml version="1.0" encoding="UTF-8" standalone="no"?>
<svg width="512px" height="512px" viewBox="0 0 512 512" version="1.1" xmlns="http://www.w3.org/2000/svg" xmlns:xlink="http://www.w3.org/1999/xlink" xmlns:sketch="http://www.bohemiancoding.com/sketch/ns">
    <title>ICONICON 14</title>
    <description>Created with Sketch (http://www.bohemiancoding.com/sketch)</description>
    <defs></defs>
    <g id="Page-1" stroke="none" stroke-width="1" fill="none" fill-rule="evenodd" sketch:type="MSPage">
        <g id="Artboard-1" sketch:type="MSArtboardGroup" transform="translate(-1614.000000, -1589.000000)" fill="#777777">
            <path d="M1961.02222,1845 L2121.73333,1684.28889 C2127.42222,1678.6 2127.42222,1667.22222 2121.73333,1661.53333 L2053.46667,1593.26667 C2047.77778,1587.57778 2036.4,1587.57778 2030.71111,1593.26667 L1870,1753.97778 L1709.28889,1593.26667 C1703.6,1587.57778 1692.22222,1587.57778 1686.53333,1593.26667 L1618.26667,1661.53333 C1612.57778,1667.22222 1612.57778,1678.6 1618.26667,1684.28889 L1778.97778,1845 L1618.26667,2005.71111 C1612.57778,2011.4 1612.57778,2022.77778 1618.26667,2028.46667 L1686.53333,2096.73333 C1692.22222,2102.42222 1703.6,2102.42222 1709.28889,2096.73333 L1870,1936.02222 L2030.71111,2096.73333 C2036.4,2102.42222 2047.77778,2102.42222 2053.46667,2096.73333 L2121.73333,2028.46667 C2127.42222,2022.77778 2127.42222,2011.4 2121.73333,2005.71111 L1961.02222,1845 L1961.02222,1845 Z" id="Shape" sketch:type="MSShapeGroup"></path>
        </g>
    </g>
</svg>