<?xml version="1.0" encoding="UTF-8" standalone="no"?>
<svg width="512px" height="512px" viewBox="0 0 512 512" version="1.1" xmlns="http://www.w3.org/2000/svg" xmlns:xlink="http://www.w3.org/1999/xlink" xmlns:sketch="http://www.bohemiancoding.com/sketch/ns">
    <title>ICONICON 8</title>
    <description>Created with Sketch (http://www.bohemiancoding.com/sketch)</description>
    <defs></defs>
    <g id="Page-1" stroke="none" stroke-width="1" fill="none" fill-rule="evenodd" sketch:type="MSPage">
        <g id="Artboard-1" sketch:type="MSArtboardGroup" transform="translate(-882.000000, -857.000000)" fill="#006699">
            <path d="M1394,1074.6 L1394,1150.12 C1394,1157.8 1387.6,1164.2 1381.2,1164.2 L1189.2,1164.2 L1189.2,1354.92 C1189.2,1362.6 1182.8,1369 1176.4,1369 L1099.6,1369 C1091.92,1369 1086.8,1362.6 1086.8,1354.92 L1086.8,1164.2 L894.8,1164.2 C887.12,1164.2 882,1157.8 882,1150.12 L882,1074.6 C882,1066.92 887.12,1061.8 894.8,1061.8 L1086.8,1061.8 L1086.8,869.8 C1086.8,862.12 1093.2,857 1099.6,857 L1175.12,857 C1182.8,857 1187.92,862.12 1187.92,869.8 L1187.92,1061.8 L1379.92,1061.8 C1387.6,1061.8 1394,1066.92 1394,1074.6 L1394,1074.6 Z" id="plus_8_" sketch:type="MSShapeGroup"></path>
        </g>
    </g>
</svg>