<?xml version="1.0" encoding="UTF-8" standalone="no"?>
<svg width="516px" height="381px" viewBox="0 0 516 381" version="1.1" xmlns="http://www.w3.org/2000/svg" xmlns:xlink="http://www.w3.org/1999/xlink" xmlns:sketch="http://www.bohemiancoding.com/sketch/ns">
    <title>ICONICON 37</title>
    <description>Created with Sketch (http://www.bohemiancoding.com/sketch)</description>
    <defs></defs>
    <g id="Page-1" stroke="none" stroke-width="1" fill="none" fill-rule="evenodd" sketch:type="MSPage">
        <g id="Artboard-1" sketch:type="MSArtboardGroup" transform="translate(-279.000000, -6942.000000)" stroke="#979797" fill="#777777">
            <path d="M568.179476,7323 L784.991226,7323 C790.518919,7323 795,7318.51924 795,7312.99586 L795,6991.00414 C795,6985.47901 790.514613,6981 784.991226,6981 L548.901622,6981 C548.966688,6980.34352 549,6979.6777 549,6979.00411 L549,6961.99589 C549,6950.95247 540.038234,6942 529.003626,6942 L418.996374,6942 C407.952682,6942 399,6950.95326 399,6961.99589 L399,6979.00411 C399,6979.6777 399.033341,6980.34352 399.098461,6981 L399.098461,6981 L380.008774,6981 C374.481081,6981 370,6985.48076 370,6991.00414 L370,7089 L294.761434,7089 C282.607091,7089 276.090228,7098.26321 280.209864,7109.70176 L349.574188,7302.29824 C353.69192,7313.73151 366.875439,7323 379.033739,7323 L568.179476,7323 L568.179476,7323 Z M389,7089 L389,7004.00841 C389,7002.89796 389.896034,7002 391.001349,7002 L773.998651,7002 C775.101947,7002 776,7002.89919 776,7004.00841 L776,7298.99159 C776,7300.10204 775.103966,7301 773.998651,7301 L770.239003,7301 L699.653164,7109.63766 C695.448952,7098.2398 682.192034,7089 670.033381,7089 L389,7089 L389,7089 Z M553.100855,7219 C550.341266,7219 548.554933,7221.19897 549.108632,7223.90013 L555.709097,7256.09987 C556.263842,7258.80614 558.955818,7261 561.710228,7261 L657.899145,7261 C660.658734,7261 662.445067,7258.80103 661.891368,7256.09987 L655.290903,7223.90013 C654.736158,7221.19386 652.044182,7219 649.289772,7219 L553.100855,7219 Z" id="Rectangle-1" sketch:type="MSShapeGroup"></path>
        </g>
    </g>
</svg>