<?xml version="1.0" encoding="utf-8"?>
<!-- Generator: Adobe Illustrator 17.1.0, SVG Export Plug-In . SVG Version: 6.00 Build 0)  -->
<!DOCTYPE svg PUBLIC "-//W3C//DTD SVG 1.1//EN" "http://www.w3.org/Graphics/SVG/1.1/DTD/svg11.dtd">
<svg version="1.1" xmlns="http://www.w3.org/2000/svg" xmlns:xlink="http://www.w3.org/1999/xlink" x="0px" y="0px"
	 viewBox="0 0 512 512" style="enable-background:new 0 0 512 512;" xml:space="preserve">
<style type="text/css">
	.st0{display:none;}
	.st1{display:inline;fill:none;}
	.st2{fill:#5BA8DF;}
</style>
<g id="Layer_3" class="st0">
	<rect class="st1" width="512" height="512"/>
</g>
<g id="Layer_2">
	<g id="remove_x5F_2_1_">
		<path class="st2" d="M324.2,256L445,135.2c4.7-4.7,4.7-12.5,0-17.2l-51-51c-4.7-4.7-12.5-4.7-17.2,0L256,187.9L135.2,67
			c-4.7-4.7-12.5-4.7-17.2,0l-51,51c-4.7,4.7-4.7,12.4,0,17.2L187.9,256L67,376.9c-4.7,4.7-4.7,12.5,0,17.2l51,51
			c4.7,4.7,12.5,4.7,17.2,0L256,324.2L376.8,445c4.7,4.7,12.5,4.7,17.2,0l51-51c4.7-4.7,4.7-12.5,0-17.2L324.2,256z"/>
	</g>
</g>
</svg>
