<?xml version="1.0" encoding="utf-8"?>
<!-- Generator: Adobe Illustrator 17.1.0, SVG Export Plug-In . SVG Version: 6.00 Build 0)  -->
<!DOCTYPE svg PUBLIC "-//W3C//DTD SVG 1.1//EN" "http://www.w3.org/Graphics/SVG/1.1/DTD/svg11.dtd">
<svg version="1.1" id="Layer_2" xmlns="http://www.w3.org/2000/svg" xmlns:xlink="http://www.w3.org/1999/xlink" x="0px" y="0px"
	 viewBox="0 0 512 512" style="enable-background:new 0 0 512 512;" xml:space="preserve">
<style type="text/css">
	.st0{fill:#777777;}
</style>
<g>
	<path class="st0" d="M401.7,96.9h-85.4V65.8c0-17.1-14-31.1-31.1-31.1H223c-17.1,0-31.1,14-31.1,31.1v31.1h-85.4
		c-4.3,0-7.8,3.5-7.8,7.8v15.5c0,4.3,3.5,7.8,7.8,7.8h295.2c4.3,0,7.8-3.5,7.8-7.8v-15.5C409.4,100.3,405.9,96.9,401.7,96.9z
		 M285.1,96.9h-61.5H223V65.8h62.1V96.9z"/>
	<path class="st0" d="M382.9,143.5H122c-6.1,0-7.8,2.7-7.8,7.8v313.4c0,0,1.7,5.1,7.8,5.1h260.9c6.1,0,11-2.7,11-7.8V149.9
		C393.9,144.8,389,143.5,382.9,143.5z"/>
</g>
</svg>
