<?xml version="1.0" encoding="utf-8"?>
<!-- Generator: Adobe Illustrator 17.1.0, SVG Export Plug-In . SVG Version: 6.00 Build 0)  -->
<!DOCTYPE svg PUBLIC "-//W3C//DTD SVG 1.1//EN" "http://www.w3.org/Graphics/SVG/1.1/DTD/svg11.dtd">
<svg version="1.1" id="Layer_4" xmlns="http://www.w3.org/2000/svg" xmlns:xlink="http://www.w3.org/1999/xlink" x="0px" y="0px"
	 viewBox="0 0 512 512" style="enable-background:new 0 0 512 512;" xml:space="preserve">
<style type="text/css">
	.st0{fill:#777777;}
</style>
<rect x="161.5" y="167.6" class="st0" width="84.7" height="84.7"/>
<rect x="271.3" y="167.6" class="st0" width="84.7" height="84.7"/>
<rect x="271.3" y="277.4" class="st0" width="84.7" height="84.7"/>
<rect x="161.5" y="277.4" class="st0" width="84.7" height="84.7"/>
</svg>
