<?xml version="1.0" encoding="UTF-8" standalone="no"?>
<svg width="513px" height="513px" viewBox="0 0 513 513" version="1.1" xmlns="http://www.w3.org/2000/svg" xmlns:xlink="http://www.w3.org/1999/xlink" xmlns:sketch="http://www.bohemiancoding.com/sketch/ns">
    <title>Recycle</title>
    <description>Created with Sketch (http://www.bohemiancoding.com/sketch)</description>
    <defs></defs>
    <g id="Page-1" stroke="none" stroke-width="1" fill="none" fill-rule="evenodd" sketch:type="MSPage">
        <g id="Artboard-5" sketch:type="MSArtboardGroup" transform="translate(-138.000000, -772.000000)" fill="#666666">
            <path d="M374.890758,1173.03318 L374.09634,1174.008 C372.338593,1176.49701 372.43854,1179.89734 374.361628,1182.20732 L471.320719,1281.96476 C471.580822,1282.35341 471.86604,1282.68491 472.242898,1282.98166 C475.117157,1285.43385 479.485587,1285.16556 482.015384,1282.31759 C483.073143,1281.02495 483.669308,1279.45836 483.672993,1277.78912 L483.764213,1229.13323 L540.284617,1229.0408 C540.58965,1229.04943 541.791274,1229.03353 542.108232,1229.04904 C571.29367,1228.60438 598.184071,1212.90116 612.789703,1187.65156 L642.587956,1136.1376 C644.556091,1132.73517 646.191591,1129.22065 647.434835,1125.55967 L483.901044,1125.82599 L483.965157,1078.01405 C483.955648,1074.19625 480.899779,1071.08229 477.080571,1071.10199 C475.162807,1071.11908 473.320558,1071.96761 472.028047,1073.36375 C471.933897,1073.38908 374.890758,1173.03318 374.890758,1173.03318 Z M500.775524,1046.45286 L540.40182,1115.20224 L650.305714,1115.00839 C650.343844,1104.33901 647.606942,1093.68098 642.103136,1084.20302 L590.458206,994.559743 L500.775524,1046.45286 Z M334.252994,1223.36422 L333.973792,1120.26578 L254.37401,1120.05641 L199.589493,1214.7932 C208.844823,1220.15831 219.495936,1223.11044 230.469343,1223.10233 L334.252994,1223.36422 Z M287.347636,947.385295 L286.910214,946.202557 C285.629637,943.452141 282.623848,941.855274 279.668446,942.371511 L144.52463,976.580925 C144.056892,976.605705 143.628107,976.700659 143.18774,976.884392 C139.615442,978.150813 137.656759,982.073202 138.850058,985.648315 C139.433287,987.2253 140.51555,988.517131 141.95238,989.361018 L184.081233,1013.6697 L155.766228,1062.61949 C155.602454,1062.87511 155.013921,1063.92004 154.846697,1064.18163 C140.573574,1089.66773 140.678679,1120.74277 155.238747,1145.95674 L184.93908,1197.40311 C186.902683,1200.80167 189.130836,1203.9629 191.677524,1206.86224 L273.563725,1065.21831 L314.97855,1089.08371 C318.29649,1090.97978 322.527782,1089.89424 324.426095,1086.55751 C325.382007,1084.90497 325.561131,1082.8764 324.995394,1081.0629 C325.036805,1080.99131 287.347636,947.385295 287.347636,947.385295 Z M352.332827,939.028719 L392.103468,870.233643 L337.230271,775.218376 C327.992254,780.528337 320.129054,788.262161 314.678094,797.768083 L262.819553,887.446458 L352.332827,939.028719 Z M526.844319,985.734988 C529.86969,985.99818 532.759737,984.201852 533.803407,981.381335 L571.96053,847.359586 C572.164562,846.951932 572.298655,846.52785 572.374115,846.054065 C573.066219,842.330654 570.662561,838.685471 566.954246,837.941193 C565.296397,837.662282 563.647112,837.945365 562.192708,838.77048 L520.012296,863.142919 L491.867959,814.258626 C491.723466,814.000286 491.114759,812.965129 490.974666,812.68545 C476.072181,787.648693 449.115495,772.258075 419.983297,772.301714 L360.546158,772.397582 C356.618937,772.402537 352.769053,772.754461 348.973897,773.519906 L430.492314,914.915141 L389.058232,938.890023 C385.759134,940.816702 384.577231,945.02979 386.503023,948.320021 C387.471877,949.968571 389.12091,951.141654 390.976933,951.558637 C391.034619,951.623711 525.59858,985.526438 525.59858,985.526438 L526.844319,985.734988 Z" id="Shape" sketch:type="MSShapeGroup"></path>
        </g>
    </g>
</svg>