<?xml version="1.0" encoding="utf-8"?>
<!-- Generator: Adobe Illustrator 17.1.0, SVG Export Plug-In . SVG Version: 6.00 Build 0)  -->
<!DOCTYPE svg PUBLIC "-//W3C//DTD SVG 1.1//EN" "http://www.w3.org/Graphics/SVG/1.1/DTD/svg11.dtd">
<svg version="1.1" id="Layer_3" xmlns="http://www.w3.org/2000/svg" xmlns:xlink="http://www.w3.org/1999/xlink" x="0px" y="0px"
	 viewBox="0 0 512 512" style="enable-background:new 0 0 512 512;" xml:space="preserve">
<style type="text/css">
	.st0{fill:#4D573D;}
</style>
<path class="st0" d="M376.2,84.7H68.6v358h374.8V167.7L376.2,84.7z M164.7,124.4h181.1v99.2H164.7V124.4z M385.1,403.9H108v-99.2
	h277.2V403.9z"/>
<rect x="263.9" y="140.7" class="st0" width="63" height="63"/>
</svg>
