<?xml version="1.0" encoding="utf-8"?>
<!-- Generator: Adobe Illustrator 17.1.0, SVG Export Plug-In . SVG Version: 6.00 Build 0)  -->
<!DOCTYPE svg PUBLIC "-//W3C//DTD SVG 1.1//EN" "http://www.w3.org/Graphics/SVG/1.1/DTD/svg11.dtd">
<svg version="1.1" id="Layer_2" xmlns="http://www.w3.org/2000/svg" xmlns:xlink="http://www.w3.org/1999/xlink" x="0px" y="0px"
	 viewBox="0 0 512 512" style="enable-background:new 0 0 512 512;" xml:space="preserve">
<style type="text/css">
	.st0{fill:#777777;}
</style>
<g>
	<path class="st0" d="M178.2,269.5l24.8,13l-30.5-93l-94,30.5l27,13.5L89,262c-18.5,26.2-5.2,41.8-5.2,41.8S124.2,376,123,371
		s2.2-11,2.2-11L178.2,269.5z"/>
	<path class="st0" d="M129.8,364.8c-3.5,6.5-4.3,10.2,0,19C134,392.5,150,398,150,398h69.5l3.8-80.5h-66
		C157.2,317.5,133.2,358.2,129.8,364.8z"/>
	<path class="st0" d="M218.1,92.4c4.9,1.5,8.3,7.5,8.3,7.5l51.1,91.6l-23.8,14.7l95.6,20.9l21.5-96.5l-25.3,16.4l-16.2-28.7
		C316.1,89.2,296,92.7,296,92.7S213.2,90.9,218.1,92.4z"/>
	<path class="st0" d="M246.8,149.1c0,0-22.9-41.4-26.7-47.7s-6.6-8.9-16.4-9.6c-9.7-0.8-22.6,10.2-22.6,10.2l-35.3,59.9l67.4,44.1
		L246.8,149.1z"/>
	<path class="st0" d="M410.9,313.9c-3.7,3.6-10.6,3.6-10.6,3.6l-104.9-0.2l-1.2-27.9l-65,73.2l73.7,65.8l-1.9-30.1l32.9-0.1
		c32,2.8,38.7-16.5,38.7-16.5S414.6,310.3,410.9,313.9z"/>
	<path class="st0" d="M420.6,277l-35-60l-71.4,37.3l33.2,57c0,0,47.3,0.2,54.7,0c7.4-0.3,11-1.5,16.4-9.6
		C423.9,293.6,420.6,277,420.6,277z"/>
</g>
</svg>
