<?xml version="1.0" encoding="utf-8"?>
<!-- Generator: Adobe Illustrator 16.0.4, SVG Export Plug-In . SVG Version: 6.00 Build 0)  -->
<!DOCTYPE svg PUBLIC "-//W3C//DTD SVG 1.1//EN" "http://www.w3.org/Graphics/SVG/1.1/DTD/svg11.dtd">
<svg version="1.1" xmlns="http://www.w3.org/2000/svg" xmlns:xlink="http://www.w3.org/1999/xlink" x="0px" y="0px" width="600px"
	 height="560px" viewBox="0 0 600 560" enable-background="new 0 0 600 560" xml:space="preserve">
<g id="Layer_1_copy_5">
</g>
<g id="Layer_3">
</g>
<g id="Layer_5">
	<path fill="#C62127" d="M430.1,54.8H170L40,280L170,505.2h260L560.1,280L430.1,54.8z M422.3,358.1c3,3.1,3,8.1,0,11.1l-33,33
		c-3.1,3.1-8.1,3.1-11.1,0l-78.1-78.1l-78.2,78.2c-3,3-8.1,3-11.1,0l-33-33c-3-3.1-3-8.1,0-11.1L256,280l-78.2-78.2
		c-3.1-3.1-3.1-8.1,0-11.1l33-33c3.1-3.1,8.1-3.1,11.1,0l78.2,78.2l78.2-78.2c3.1-3.1,8.1-3.1,11.1,0l33,33c3.1,3.1,3.1,8.1,0,11.1
		L344.2,280L422.3,358.1z"/>
</g>
</svg>
