<?xml version="1.0" encoding="UTF-8" standalone="no"?>
<svg width="429px" height="512px" viewBox="0 0 429 512" version="1.1" xmlns="http://www.w3.org/2000/svg" xmlns:xlink="http://www.w3.org/1999/xlink" xmlns:sketch="http://www.bohemiancoding.com/sketch/ns">
    <title>ICONICON 35</title>
    <description>Created with Sketch (http://www.bohemiancoding.com/sketch)</description>
    <defs></defs>
    <g id="Page-1" stroke="none" stroke-width="1" fill="none" fill-rule="evenodd" sketch:type="MSPage">
        <g id="Artboard-1" sketch:type="MSArtboardGroup" transform="translate(-3212.000000, -5234.000000)">
            <path d="M3523.81944,5311.43066 L3633.00149,5311.43066 C3637.42013,5311.43066 3641,5315.00809 3641,5319.42108 L3641,5362.00958 C3641,5366.42439 3637.41894,5370 3633.00149,5370 L3219.99851,5370 C3215.57987,5370 3212,5366.42257 3212,5362.00958 L3212,5319.42108 C3212,5315.00627 3215.58106,5311.43066 3219.99851,5311.43066 L3329.18056,5311.43066 L3329.18056,5272.00012 C3329.18056,5251.00706 3346.18943,5234 3367.17095,5234 L3485.82905,5234 C3506.80216,5234 3523.81944,5251.01323 3523.81944,5272.00012 L3523.81944,5311.43066 L3523.81944,5311.43066 Z M3367.90972,5274.70073 L3367.90972,5311.43066 L3485.09028,5311.43066 L3485.09028,5274.70073 L3367.90972,5274.70073 Z" id="Rectangle-1" fill="#777777" sketch:type="MSShapeGroup"></path>
            <path d="" id="Path-2" stroke="#979797" sketch:type="MSShapeGroup"></path>
            <path d="M3247.7803,5402.99567 L3247.7803,5708.00733 C3247.7803,5728.9901 3264.80271,5746 3285.77654,5746 L3562.09467,5746 C3583.07941,5746 3600.09091,5728.99475 3600.09091,5708.00733 L3600.09091,5402.99567 L3247.7803,5402.99567 L3247.7803,5402.99567 Z M3287.47727,5438.68398 L3287.47727,5706.34632 L3326.18182,5706.34632 L3326.18182,5438.68398 L3287.47727,5438.68398 Z M3365.87879,5438.68398 L3365.87879,5706.34632 L3404.58333,5706.34632 L3404.58333,5438.68398 L3365.87879,5438.68398 Z M3444.2803,5438.68398 L3444.2803,5631.37995 L3444.2803,5706.34632 L3482.98485,5706.34632 L3482.98485,5614.52714 L3482.98485,5438.68398 L3444.2803,5438.68398 Z M3523.67424,5438.68398 L3523.67424,5631.37995 L3523.67424,5706.34632 L3562.37879,5706.34632 L3562.37879,5438.68398 L3523.67424,5438.68398 Z" id="Rectangle-4" fill="#777777" sketch:type="MSShapeGroup"></path>
        </g>
    </g>
</svg>