<?xml version="1.0" encoding="UTF-8" standalone="no"?>
<svg width="514px" height="514px" viewBox="0 0 514 514" version="1.1" xmlns="http://www.w3.org/2000/svg" xmlns:xlink="http://www.w3.org/1999/xlink" xmlns:sketch="http://www.bohemiancoding.com/sketch/ns">
    <title>ICONICON 20</title>
    <description>Created with Sketch (http://www.bohemiancoding.com/sketch)</description>
    <defs></defs>
    <g id="Page-1" stroke="none" stroke-width="1" fill="none" fill-rule="evenodd" sketch:type="MSPage">
        <g id="Artboard-1" sketch:type="MSArtboardGroup" transform="translate(-1637.000000, -177.000000)" stroke="#979797" fill="#555555">
            <path d="M1894,690 C2035.3849,690 2150,575.384903 2150,434 C2150,292.615097 2035.3849,178 1894,178 C1752.6151,178 1638,292.615097 1638,434 C1638,575.384903 1752.6151,690 1894,690 Z M1894.50493,667.783037 C2023.34088,667.783037 2127.78304,563.340878 2127.78304,434.504931 C2127.78304,305.668984 2023.34088,201.226824 1894.50493,201.226824 C1765.66898,201.226824 1661.22682,305.668984 1661.22682,434.504931 C1661.22682,563.340878 1765.66898,667.783037 1894.50493,667.783037 Z M1894.50493,499.136095 C1876.64088,499.136095 1862.18935,513.613475 1862.18935,531.451677 C1862.18935,549.354509 1876.64088,563.767258 1894.50493,563.767258 C1912.36898,563.767258 1926.82051,549.354509 1926.82051,531.451677 C1926.82051,513.613475 1912.36898,499.136095 1894.50493,499.136095 Z M1878.34714,466.820513 L1910.66272,466.820513 L1926.82051,305.242604 L1862.18935,305.242604 L1878.34714,466.820513 Z" id="Oval-1" sketch:type="MSShapeGroup"></path>
        </g>
    </g>
</svg>