<?xml version="1.0" encoding="UTF-8" standalone="no"?>
<svg width="512px" height="512px" viewBox="0 0 512 512" version="1.1" xmlns="http://www.w3.org/2000/svg" xmlns:xlink="http://www.w3.org/1999/xlink" xmlns:sketch="http://www.bohemiancoding.com/sketch/ns">
    <title>knob+tooltip3-blue</title>
    <description>Created with Sketch (http://www.bohemiancoding.com/sketch)</description>
    <defs>
        <filter x="-50%" y="-50%" width="200%" height="200%" filterUnits="objectBoundingBox" id="filter-1">
            <feOffset dx="0" dy="2" in="SourceAlpha" result="shadowOffsetOuter1"></feOffset>
            <feGaussianBlur stdDeviation="0.5" in="shadowOffsetOuter1" result="shadowBlurOuter1"></feGaussianBlur>
            <feColorMatrix values="0 0 0 0 0.811764706   0 0 0 0 0.811764706   0 0 0 0 0.811764706  0 0 0 0.7 0" in="shadowBlurOuter1" type="matrix" result="shadowMatrixOuter1"></feColorMatrix>
            <feMerge>
                <feMergeNode in="shadowMatrixOuter1"></feMergeNode>
                <feMergeNode in="SourceGraphic"></feMergeNode>
            </feMerge>
        </filter>
        <linearGradient x1="50%" y1="0%" x2="50%" y2="100%" id="linearGradient-2">
            <stop stop-color="#FFFFFF" offset="0%"></stop>
            <stop stop-color="#E4E4E4" offset="100%"></stop>
        </linearGradient>
        <rect id="path-3" x="0" y="0" width="102.686567" height="117.518367" rx="6"></rect>
        <filter x="-50%" y="-50%" width="200%" height="200%" filterUnits="objectBoundingBox" id="filter-5">
            <feOffset dx="0" dy="3" in="SourceAlpha" result="shadowOffsetInner1"></feOffset>
            <feGaussianBlur stdDeviation="2.5" in="shadowOffsetInner1" result="shadowBlurInner1"></feGaussianBlur>
            <feComposite in="shadowBlurInner1" in2="SourceAlpha" operator="arithmetic" k2="-1" k3="1" result="shadowInnerInner1"></feComposite>
            <feColorMatrix values="0 0 0 0 0.162897961   0 0 0 0 0.401415838   0 0 0 0 0.603794643  0 0 0 0.7 0" in="shadowInnerInner1" type="matrix" result="shadowMatrixInner1"></feColorMatrix>
            <feMerge>
                <feMergeNode in="SourceGraphic"></feMergeNode>
                <feMergeNode in="shadowMatrixInner1"></feMergeNode>
            </feMerge>
        </filter>
        <filter x="-50%" y="-50%" width="200%" height="200%" filterUnits="objectBoundingBox" id="filter-6">
            <feOffset dx="0" dy="3" in="SourceAlpha" result="shadowOffsetInner1"></feOffset>
            <feGaussianBlur stdDeviation="2.5" in="shadowOffsetInner1" result="shadowBlurInner1"></feGaussianBlur>
            <feComposite in="shadowBlurInner1" in2="SourceAlpha" operator="arithmetic" k2="-1" k3="1" result="shadowInnerInner1"></feComposite>
            <feColorMatrix values="0 0 0 0 0.162897961   0 0 0 0 0.401415838   0 0 0 0 0.603794643  0 0 0 0.7 0" in="shadowInnerInner1" type="matrix" result="shadowMatrixInner1"></feColorMatrix>
            <feMerge>
                <feMergeNode in="SourceGraphic"></feMergeNode>
                <feMergeNode in="shadowMatrixInner1"></feMergeNode>
            </feMerge>
        </filter>
        <filter x="-50%" y="-50%" width="200%" height="200%" filterUnits="objectBoundingBox" id="filter-7">
            <feOffset dx="0" dy="3" in="SourceAlpha" result="shadowOffsetInner1"></feOffset>
            <feGaussianBlur stdDeviation="2.5" in="shadowOffsetInner1" result="shadowBlurInner1"></feGaussianBlur>
            <feComposite in="shadowBlurInner1" in2="SourceAlpha" operator="arithmetic" k2="-1" k3="1" result="shadowInnerInner1"></feComposite>
            <feColorMatrix values="0 0 0 0 0.162897961   0 0 0 0 0.401415838   0 0 0 0 0.603794643  0 0 0 0.7 0" in="shadowInnerInner1" type="matrix" result="shadowMatrixInner1"></feColorMatrix>
            <feMerge>
                <feMergeNode in="SourceGraphic"></feMergeNode>
                <feMergeNode in="shadowMatrixInner1"></feMergeNode>
            </feMerge>
        </filter>
        <rect id="path-8" x="0" y="0" width="123" height="20"></rect>
    </defs>
    <g id="Page-1" stroke="none" stroke-width="1" fill="none" fill-rule="evenodd" sketch:type="MSPage">
        <g id="knob+tooltip3-blue" sketch:type="MSArtboardGroup">
            <g id="Rectangle-5-+-Rectangle-1-+-Rectangle-2-+-Rectangle-2-+-Rectangle-2-+-Rectangle-26-+-Rectangle-1" sketch:type="MSLayerGroup" transform="translate(0.000000, 197.000000)">
                <rect id="Rectangle-5" stroke="#BCBCBC" stroke-width="2" fill="#FFFFFF" filter="url(#filter-1)" sketch:type="MSShapeGroup" x="0" y="0" width="512" height="118" rx="6"></rect>
                <g id="Rectangle-1-+-Rectangle-2-+-Rectangle-2-+-Rectangle-2-+-Rectangle-26-+-Rectangle-1">
                    <g id="Rectangle-1-+-Rectangle-2-+-Rectangle-2-+-Rectangle-2">
                        <mask id="mask-4" sketch:name="Rectangle 1" fill="white">
                            <use xlink:href="#path-3"></use>
                        </mask>
                        <use id="Rectangle-1" stroke="#BCBCBC" stroke-width="2" fill="url(#linearGradient-2)" sketch:type="MSShapeGroup" xlink:href="#path-3"></use>
                        <g id="Rectangle-2-+-Rectangle-2-+-Rectangle-2" mask="url(#mask-4)" transform="translate(27.701493, 27.000000)" fill="#428BCA" sketch:type="MSShapeGroup">
                            <rect id="Rectangle-2" filter="url(#filter-5)" x="0" y="19.2653061" width="47.761194" height="7.2244898" rx="3"></rect>
                            <rect id="Rectangle-2" filter="url(#filter-6)" x="0" y="0" width="47.761194" height="7.2244898" rx="3"></rect>
                            <rect id="Rectangle-2" filter="url(#filter-7)" x="0" y="38.5306122" width="47.761194" height="7.2244898" rx="3"></rect>
                        </g>
                    </g>
                    <g id="Rectangle-26-+-Rectangle-1" transform="translate(2.000000, 96.000000)">
                        <mask id="mask-9" sketch:name="Rectangle 26" fill="white">
                            <use xlink:href="#path-8"></use>
                        </mask>
                        <use id="Rectangle-26" fill="#FFFFFF" sketch:type="MSShapeGroup" xlink:href="#path-8"></use>
                        <path d="M4.05855887,20 L51.2819241,20 L118.56637,20 L98.5840336,0 L0,0 L0,8.00476185 L0,16.0095237 C0,18.2134029 1.85243603,20 4.05855887,20 Z" id="Rectangle-1" stroke="#BCBCBC" stroke-width="1.5" fill="#4381B7" sketch:type="MSShapeGroup" mask="url(#mask-9)"></path>
                    </g>
                </g>
            </g>
        </g>
    </g>
</svg>