<svg version="1.1" id="Layer_1" xmlns:sketch="http://www.bohemiancoding.com/sketch/ns"
	 xmlns="http://www.w3.org/2000/svg" xmlns:xlink="http://www.w3.org/1999/xlink" x="0px" y="0px" width="512px" height="512px"
	 viewBox="0 0 512 512" style="enable-background:new 0 0 512 512;" xml:space="preserve">
<g id="Page-1" sketch:type="MSPage">
	<g id="Artboard-5" transform="translate(-1560.000000, -5659.000000)" sketch:type="MSArtboardGroup">
		<g id="Group" transform="translate(1574.000000, 5999.000000)" sketch:type="MSLayerGroup">
			<path id="Oval-11" sketch:type="MSShapeGroup" style="fill:#9FC5E5;" d="M483.9,0H376v134.2C425.9,103.5,464.4,56.2,483.9,0z"/>
			<path id="Oval-11_1_" sketch:type="MSShapeGroup" style="fill:#E7B11A;" d="M359,143.8V0H251v171.8
				C289.8,170.5,326.4,160.5,359,143.8z"/>
			<path id="Oval-11_2_" sketch:type="MSShapeGroup" style="fill:#AEC96F;" d="M108,134.2V0H0.1C19.6,56.2,58.1,103.5,108,134.2z"/>
			<path id="Oval-11_3_" sketch:type="MSShapeGroup" style="fill:#D27A93;" d="M233,171.8V0H125v143.8
				C157.6,160.5,194.2,170.5,233,171.8z"/>
		</g>
		<path id="Oval-8" sketch:type="MSShapeGroup" style="fill:#666666;" d="M1560,5915c0-141.4,114.6-256,256-256s256,114.6,256,256
			c0,22.1-2.8,43.5-8.1,64h-36.5c6.2-20.4,9.5-42.1,9.5-64.5c0-122.3-99.2-221.5-221.5-221.5s-221.5,99.2-221.5,221.5
			c0,22.4,3.3,44.1,9.5,64.5h-35.5C1562.8,5958.5,1560,5937.1,1560,5915z M1815.9,5952.8c-20.9,0-37.9-17-37.9-37.9
			c0-20.9,17-37.9,37.9-37.9c5.9,0,11.6,1.4,16.6,3.8l164.9-76.5l4.4,6.9l-148.1,106.9C1852.1,5937.5,1835.8,5952.8,1815.9,5952.8z
			 M2014.2,5915c0-10.5-12.1-19-27.1-19s-27.1,8.5-27.1,19c0,10.5,12.1,19,27.1,19S2014.2,5925.5,2014.2,5915z M1672.2,5915
			c0-10.5-12.1-19-27.1-19c-15,0-27.1,8.5-27.1,19c0,10.5,12.1,19,27.1,19C1660.1,5934,1672.2,5925.5,1672.2,5915z M1677.3,5814.2
			c-13-7.5-27.7-6.1-33,3s1,22.5,14,30c13,7.5,27.7,6.1,33-3S1690.2,5821.7,1677.3,5814.2z M1719.5,5744.7
			c-9.1,5.3-10.3,20.3-2.8,33.5c7.5,13.2,20.9,19.5,30,14.2c9-5.3,10.3-20.3,2.8-33.5C1742,5745.7,1728.6,5739.4,1719.5,5744.7z
			 M1817.5,5718c-10.5,0-19,12.4-18.9,27.6c0,15.2,8.6,27.5,19.1,27.4c10.5,0,19-12.4,18.9-27.6
			C1836.6,5730.3,1828,5718,1817.5,5718z M1885.3,5758.5c-7.4,13.2-6.1,28.2,3,33.4c9.1,5.3,22.5-1.1,29.9-14.3
			c7.5-13.2,6.1-28.2-3-33.4C1906.1,5738.9,1892.7,5745.3,1885.3,5758.5z"/>
	</g>
</g>
</svg>
