<?xml version="1.0" encoding="utf-8"?>
<!-- Generator: Adobe Illustrator 16.0.4, SVG Export Plug-In . SVG Version: 6.00 Build 0)  -->
<!DOCTYPE svg PUBLIC "-//W3C//DTD SVG 1.1//EN" "http://www.w3.org/Graphics/SVG/1.1/DTD/svg11.dtd">
<svg version="1.1" id="Layer_1" xmlns="http://www.w3.org/2000/svg" xmlns:xlink="http://www.w3.org/1999/xlink" x="0px" y="0px"
	 width="100px" height="100px" viewBox="0 0 100 100" style="enable-background:new 0 0 100 100;" xml:space="preserve">
<g id="Layer_3">
</g>
<g id="Layer_2">
	<polygon style="fill:#777777;" points="35.7,14.8 46.3,14.8 66.3,69.4 86.5,14.8 96.5,14.8 71.7,79.1 60.9,79.1 	"/>
	<polygon style="fill:#A2C3E6;" points="1.1,14.8 1.1,29.7 38,29.7 32.2,14.8 	"/>
	<polygon style="fill:#B8D27D;" points="14.6,46.2 14.6,31.4 38.7,31.4 44.5,46.2 	"/>
	<polygon style="fill:#CF7793;" points="29.1,48.8 45.6,48.8 50.6,61.7 29.1,61.7 	"/>
	<polygon style="fill:#E8C433;" points="20.1,64.4 51.6,64.4 57.3,79.1 20.1,79.1 	"/>
</g>
</svg>
