<?xml version="1.0" encoding="utf-8"?>
<!-- Generator: Adobe Illustrator 16.0.0, SVG Export Plug-In . SVG Version: 6.00 Build 0)  -->
<!DOCTYPE svg PUBLIC "-//W3C//DTD SVG 1.1//EN" "http://www.w3.org/Graphics/SVG/1.1/DTD/svg11.dtd">
<svg version="1.1" id="Layer_1" xmlns:sketch="http://www.bohemiancoding.com/sketch/ns"
	 xmlns="http://www.w3.org/2000/svg" xmlns:xlink="http://www.w3.org/1999/xlink" x="0px" y="0px" width="512px" height="512px"
	 viewBox="0 0 512 512" enable-background="new 0 0 512 512" xml:space="preserve">
<title>Slice 2</title>
<description>Created with Sketch (http://www.bohemiancoding.com/sketch)</description>
<g id="Page-1_1_" sketch:type="MSPage">
	<g id="Artboard-1_1_" sketch:type="MSArtboardGroup">
		<g id="VIZ---Operator_Equal" transform="translate(0.000000, 150.000000)" sketch:type="MSLayerGroup">
			<g id="Page-1" sketch:type="MSShapeGroup">
				<g id="Artboard-1">
					<path id="Rectangle-1" fill="#FFFFFF" d="M40,0h432c22.1,0,40,11.2,40,25l0,0c0,13.8-17.9,25-40,25H40C17.9,50,0,38.8,0,25l0,0
						C0,11.2,17.9,0,40,0z"/>
					<path id="Rectangle-1-copy" fill="#FFFFFF" d="M40,162h432c22.1,0,40,11.2,40,25l0,0c0,13.8-17.9,25-40,25H40
						c-22.1,0-40-11.2-40-25l0,0C0,173.2,17.9,162,40,162z"/>
				</g>
			</g>
		</g>
	</g>
</g>
</svg>
