<?xml version="1.0" encoding="utf-8"?>
<!-- Generator: Adobe Illustrator 16.0.0, SVG Export Plug-In . SVG Version: 6.00 Build 0)  -->
<!DOCTYPE svg PUBLIC "-//W3C//DTD SVG 1.1//EN" "http://www.w3.org/Graphics/SVG/1.1/DTD/svg11.dtd">
<svg version="1.1" id="Layer_1" xmlns:sketch="http://www.bohemiancoding.com/sketch/ns"
	 xmlns="http://www.w3.org/2000/svg" xmlns:xlink="http://www.w3.org/1999/xlink" x="0px" y="0px" width="512px" height="512px"
	 viewBox="0 0 512 512" enable-background="new 0 0 512 512" xml:space="preserve">
<title>Artboard 1</title>
<description>Created with Sketch (http://www.bohemiancoding.com/sketch)</description>
<g id="Page-1_1_" sketch:type="MSPage">
	<g id="Artboard-1_1_" sketch:type="MSArtboardGroup">
		<g id="VIZ---Operator_Not-Equal" sketch:type="MSLayerGroup">
			<g id="Page-1" sketch:type="MSShapeGroup">
				<g id="Artboard-1">
					<path id="Rectangle-1" fill="#FFFFFF" d="M236,312.9l115.8-115.9h132.6c15.3,0,27.6-12.4,27.6-27.6v2.4
						c0-15.3-12.4-27.6-27.6-27.6h-79.7l98.5-98.6c10.8-10.8,10.8-28.3,0-39.1l1.7,1.7c-10.8-10.8-28.3-10.8-39.1,0l-135.9,136H27.6
						C12.4,144.1,0,156.5,0,171.8v-2.4c0,15.3,12.4,27.6,27.6,27.6H277L161.2,312.9H27.6C12.4,312.9,0,325.3,0,340.6v-2.4
						c0,15.3,12.4,27.6,27.6,27.6h80.7L8.8,465.5C-2,476.3-2,493.8,8.8,504.6l-1.7-1.7c10.8,10.8,28.3,10.8,39.1,0l136.9-137h301.2
						c15.3,0,27.6-12.4,27.6-27.6v2.4c0-15.3-12.4-27.6-27.6-27.6H236L236,312.9z"/>
				</g>
			</g>
		</g>
	</g>
</g>
</svg>
