<?xml version="1.0" encoding="utf-8"?>
<!-- Generator: Adobe Illustrator 16.0.0, SVG Export Plug-In . SVG Version: 6.00 Build 0)  -->
<!DOCTYPE svg PUBLIC "-//W3C//DTD SVG 1.1//EN" "http://www.w3.org/Graphics/SVG/1.1/DTD/svg11.dtd">
<svg version="1.1" xmlns="http://www.w3.org/2000/svg" xmlns:xlink="http://www.w3.org/1999/xlink" x="0px" y="0px" width="512px"
	 height="512px" viewBox="0 0 512 512" enable-background="new 0 0 512 512" xml:space="preserve">
<g id="Layer_2_1_">
</g>
<g id="Layer_1">
	<g id="Layer_2">
	</g>
	<g id="Layer_1_1_">
		<g>
			<g>
				<polyline id="SVGID_1_" fill="none" stroke="#FFFFFF" stroke-width="28" stroke-miterlimit="10" points="111,230.1 225.3,344.4 
					235.1,334.6 402,167.6 				"/>
			</g>
		</g>
		
			<polyline fill="none" stroke="#FFFFFF" stroke-width="28" stroke-linecap="round" stroke-linejoin="round" stroke-miterlimit="10" points="
			111,230.1 225.3,344.4 235.1,334.6 402,167.6 		"/>
		<g>
			<g>
				<defs>
					<path id="SVGID_2_" d="M88.6,409c-50.2-36.1-74-93.8-74-153.2c0-59.4,23.7-117.1,74-152.8"/>
				</defs>
				<clipPath id="SVGID_4_">
					<use xlink:href="#SVGID_2_"  overflow="visible"/>
				</clipPath>
				<g clip-path="url(#SVGID_4_)">
					<g>
						<path fill="#787878" stroke="#FFFFFF" stroke-width="28" stroke-miterlimit="10" d="M-17.6,76.8"/>
					</g>
				</g>
			</g>
			<g>
				<defs>
					<path id="SVGID_6_" d="M88.6,409c-50.2-36.1-74-93.8-74-153.2c0-59.4,23.7-117.1,74-152.8"/>
				</defs>
				<clipPath id="SVGID_7_">
					<use xlink:href="#SVGID_6_"  overflow="visible"/>
				</clipPath>
				<g clip-path="url(#SVGID_7_)">
					<g>
						<path fill="#787878" stroke="#FFFFFF" stroke-width="28" stroke-miterlimit="10" d="M-17.6,434.8"/>
					</g>
				</g>
			</g>
			<g>
				<defs>
					<path id="SVGID_8_" d="M88.6,409c-50.2-36.1-74-93.8-74-153.2c0-59.4,23.7-117.1,74-152.8"/>
				</defs>
				<clipPath id="SVGID_9_">
					<use xlink:href="#SVGID_8_"  overflow="visible"/>
				</clipPath>
				<g clip-path="url(#SVGID_9_)">
					<g>
						<path fill="#787878" stroke="#FFFFFF" stroke-width="28" stroke-miterlimit="10" d="M93.6,76.8"/>
					</g>
				</g>
			</g>
			<g>
				
					<path id="SVGID_3_" fill="none" stroke="#FFFFFF" stroke-width="28" stroke-linecap="round" stroke-linejoin="round" stroke-miterlimit="10" d="
					M88.6,409c-50.2-36.1-74-93.8-74-153.2c0-59.4,23.7-117.1,74-152.8"/>
			</g>
		</g>
		<g>
			<g>
				<defs>
					<path id="SVGID_10_" d="M423.2,409c50.2-36.1,74-93.8,74-153.2c0-59.4-23.7-117.1-74-152.8"/>
				</defs>
				<clipPath id="SVGID_11_">
					<use xlink:href="#SVGID_10_"  overflow="visible"/>
				</clipPath>
				<path clip-path="url(#SVGID_11_)" fill="#787878" stroke="#FFFFFF" stroke-width="28" stroke-miterlimit="10" d="M529.4,76.8"/>
			</g>
			<g>
				<defs>
					<path id="SVGID_12_" d="M423.2,409c50.2-36.1,74-93.8,74-153.2c0-59.4-23.7-117.1-74-152.8"/>
				</defs>
				<clipPath id="SVGID_13_">
					<use xlink:href="#SVGID_12_"  overflow="visible"/>
				</clipPath>
				<path clip-path="url(#SVGID_13_)" fill="#787878" stroke="#FFFFFF" stroke-width="28" stroke-miterlimit="10" d="M529.4,434.8"
					/>
			</g>
			<g>
				<defs>
					<path id="SVGID_14_" d="M423.2,409c50.2-36.1,74-93.8,74-153.2c0-59.4-23.7-117.1-74-152.8"/>
				</defs>
				<clipPath id="SVGID_15_">
					<use xlink:href="#SVGID_14_"  overflow="visible"/>
				</clipPath>
				<path clip-path="url(#SVGID_15_)" fill="#787878" stroke="#FFFFFF" stroke-width="28" stroke-miterlimit="10" d="M418.2,76.8"/>
			</g>
			<g>
				
					<path id="SVGID_5_" fill="none" stroke="#FFFFFF" stroke-width="28" stroke-linecap="round" stroke-linejoin="round" stroke-miterlimit="10" d="
					M423.2,409c50.2-36.1,74-93.8,74-153.2c0-59.4-23.7-117.1-74-152.8"/>
			</g>
		</g>
	</g>
</g>
</svg>
