<?xml version="1.0" encoding="utf-8"?>
<!-- Generator: Adobe Illustrator 17.0.2, SVG Export Plug-In . SVG Version: 6.00 Build 0)  -->
<!DOCTYPE svg PUBLIC "-//W3C//DTD SVG 1.1//EN" "http://www.w3.org/Graphics/SVG/1.1/DTD/svg11.dtd">
<svg version="1.1"
	 id="svg21256" xmlns:inkscape="http://www.inkscape.org/namespaces/inkscape" xmlns:sodipodi="http://sodipodi.sourceforge.net/DTD/sodipodi-0.dtd" xmlns:rdf="http://www.w3.org/1999/02/22-rdf-syntax-ns#" xmlns:svg="http://www.w3.org/2000/svg" xmlns:cc="http://creativecommons.org/ns#" xmlns:dc="http://purl.org/dc/elements/1.1/" inkscape:version="0.47pre4 " sodipodi:docname="ribbon.svg"
	 xmlns="http://www.w3.org/2000/svg" xmlns:xlink="http://www.w3.org/1999/xlink" x="0px" y="0px" width="50px" height="44px"
	 viewBox="5.7 4.6 50 44" style="enable-background:new 5.7 4.6 50 44;" xml:space="preserve">
<style type="text/css">
	.st0{fill:#550000;}
	.st1{fill:#FF5555;}
	.st2{fill:#CD4A4A;stroke:#FF8080;stroke-width:1.8401;}
	.st3{opacity:0.4609;fill:url(#path15935_1_);enable-background:new    ;}
	.st4{fill:url(#path15937_1_);}
	.st5{fill:#DE6464;}
	.st6{fill:#CD4A4A;}
	.st7{opacity:0.2826;fill:url(#path15945_1_);enable-background:new    ;}
	.st8{opacity:0.4391;fill:url(#path15947_1_);enable-background:new    ;}
	.st9{fill:url(#path15949_1_);}
	.st10{opacity:0.2826;fill:url(#path15957_1_);enable-background:new    ;}
	.st11{opacity:0.4391;fill:url(#path15959_1_);enable-background:new    ;}
	.st12{fill:url(#path15961_1_);}
	.st13{fill:none;stroke:#FF8080;stroke-width:1.2751;}
	.st14{opacity:0.2826;fill:url(#path15971_1_);enable-background:new    ;}
	.st15{opacity:0.4391;fill:url(#path15973_1_);enable-background:new    ;}
	.st16{fill:url(#path15975_1_);}
	.st17{opacity:0.5348;fill:url(#path15981_1_);enable-background:new    ;}
	.st18{opacity:0.4174;fill:url(#path15987_1_);enable-background:new    ;}
	.st19{opacity:0.2826;fill:url(#path15995_1_);enable-background:new    ;}
	.st20{opacity:0.4391;fill:url(#path15997_1_);enable-background:new    ;}
	.st21{fill:url(#path15999_1_);}
	.st22{fill:none;stroke:#FF8080;stroke-width:1.2267;}
	.st23{opacity:0.8565;fill:url(#path16005_1_);enable-background:new    ;}
	.st24{opacity:0.7261;fill:url(#path16007_1_);enable-background:new    ;}
</style>
<defs>
	
	
		<inkscape:perspective  inkscape:vp_y="0 : 1000 : 0" id="perspective21264" inkscape:vp_z="744.09448 : 526.18109 : 1" inkscape:vp_x="0 : 526.18109 : 1" sodipodi:type="inkscape:persp3d" inkscape:persp3d-origin="372.04724 : 350.78739 : 1">
		</inkscape:perspective>
	
		<inkscape:perspective  inkscape:vp_y="0 : 1000 : 0" id="perspective21110" inkscape:vp_z="1 : 0.5 : 1" inkscape:vp_x="0 : 0.5 : 1" sodipodi:type="inkscape:persp3d" inkscape:persp3d-origin="0.5 : 0.33333333 : 1">
		</inkscape:perspective>
</defs>
<sodipodi:namedview  inkscape:cx="451.73299" showgrid="false" inkscape:cy="38.61828" pagecolor="#ffffff" id="base" borderopacity="1.0" inkscape:zoom="0.35" bordercolor="#666666" inkscape:window-maximized="1" inkscape:window-y="-4" inkscape:window-x="-4" inkscape:window-height="978" inkscape:window-width="1400" inkscape:current-layer="layer1" inkscape:document-units="px" inkscape:pageshadow="2" inkscape:pageopacity="0.0">
	</sodipodi:namedview>
<g id="layer1" transform="translate(76.732991,-153.27401)" inkscape:label="Layer 1" inkscape:groupmode="layer">
	
		<path id="path15923" inkscape:export-ydpi="90" inkscape:export-xdpi="90" inkscape:export-filename="E:\PEKNA_STRANKA\PROJEKTY\Svadobne_salony\Sablona\vzhlad-katalogu\ikony\masla-big.png" sodipodi:nodetypes="cccc" class="st0" d="
		M-26.9,162.4c0.4,0.6,1,1.4,0.9,2l-1.5,0.1L-26.9,162.4"/>
	
		<path id="path15925" inkscape:export-ydpi="90" inkscape:export-xdpi="90" inkscape:export-filename="E:\PEKNA_STRANKA\PROJEKTY\Svadobne_salony\Sablona\vzhlad-katalogu\ikony\masla-big.png" sodipodi:nodetypes="cccc" class="st0" d="
		M-66.8,162.1c-0.4,0.6-1.1,1.4-1,2l1.6,0.1L-66.8,162.1"/>
	
		<path id="path15927" inkscape:export-ydpi="90" inkscape:export-xdpi="90" inkscape:export-filename="E:\PEKNA_STRANKA\PROJEKTY\Svadobne_salony\Sablona\vzhlad-katalogu\ikony\masla-big.png" sodipodi:nodetypes="cscccsc" class="st1" d="
		M-48.7,174.5c-0.1,0.1-0.2,0.2-0.3,0.3c-2.6,3.3,2.6,17.6-10.4,21.1c1.3-1.1,5.8-4.4,5.5-7.3c-1.4,0.5-2.6,2.8-6,1.9
		c9.5-3.3,4.1-17,10.5-17.1c0,0,0.5-0.3,0.8-0.3"/>
	
		<path id="path15929" inkscape:export-ydpi="90" inkscape:export-xdpi="90" inkscape:export-filename="E:\PEKNA_STRANKA\PROJEKTY\Svadobne_salony\Sablona\vzhlad-katalogu\ikony\masla-big.png" sodipodi:nodetypes="cscccsc" class="st2" d="
		M-48.7,174.5c-0.1,0.1-0.2,0.2-0.3,0.3c-2.6,3.3,1.7,17-9.8,20.8c1.3-1.1,5.4-4.4,5.1-7.3c-1.5,0.3-2.5,2.8-6,2.2
		c9.5-3.3,4.1-17,10.4-17.1c0,0,0.5-0.3,0.8-0.3"/>
	
		<path id="path15931" inkscape:export-ydpi="90" inkscape:export-xdpi="90" inkscape:export-filename="E:\PEKNA_STRANKA\PROJEKTY\Svadobne_salony\Sablona\vzhlad-katalogu\ikony\masla-big.png" sodipodi:nodetypes="ccccs" class="st1" d="
		M-50.3,175.5c-6.3,7.3-7.1,15.8-17.7,16.1c1.6-0.5,5.2-1.7,6-4.5c-0.3,0.6-3.7,1-6.5-1.1c12.9,0.9,13.1-14.8,19-12.5"/>
	
		<path id="path15933" inkscape:export-ydpi="90" inkscape:export-xdpi="90" inkscape:export-filename="E:\PEKNA_STRANKA\PROJEKTY\Svadobne_salony\Sablona\vzhlad-katalogu\ikony\masla-big.png" sodipodi:nodetypes="ccccs" class="st2" d="
		M-48.8,174.5c-7.3,6.1-8.7,16.9-18.7,16.9c1.7-0.7,4.8-1.8,5.7-4.5c-0.3,0.6-3.6,0.8-6.4-0.9c12.7,0.7,13.3-15.4,19.4-13"/>
	
		<linearGradient id="path15935_1_" gradientUnits="userSpaceOnUse" x1="-5884.8374" y1="768.0472" x2="-5885.7578" y2="765.7057" gradientTransform="matrix(6.1336 0 0 -6.1336 36048.332 4878.2256)">
		<stop  offset="0" style="stop-color:#550000"/>
		<stop  offset="1" style="stop-color:#CD4A4A"/>
	</linearGradient>
	
		<path id="path15935" inkscape:export-ydpi="90" inkscape:export-xdpi="90" inkscape:export-filename="E:\PEKNA_STRANKA\PROJEKTY\Svadobne_salony\Sablona\vzhlad-katalogu\ikony\masla-big.png" sodipodi:nodetypes="cscccsc" class="st3" d="
		M-48.7,174.5c-0.1,0.1-0.2,0.2-0.3,0.3c-2.6,3.3,1.7,17-9.8,20.8c1.3-1.1,5.4-4.4,5.1-7.3c-1.5,0.3-2.5,2.8-6,2.2
		c9.5-3.3,4.1-17,10.4-17.1c0,0,0.5-0.3,0.8-0.3"/>
	
		<linearGradient id="path15937_1_" gradientUnits="userSpaceOnUse" x1="-5884.1274" y1="767.025" x2="-5885.478" y2="766.27" gradientTransform="matrix(6.1336 0 0 -6.1336 36048.332 4878.2256)">
		<stop  offset="0" style="stop-color:#550000"/>
		<stop  offset="1" style="stop-color:#CD4A4A"/>
	</linearGradient>
	
		<path id="path15937" inkscape:export-ydpi="90" inkscape:export-xdpi="90" inkscape:export-filename="E:\PEKNA_STRANKA\PROJEKTY\Svadobne_salony\Sablona\vzhlad-katalogu\ikony\masla-big.png" sodipodi:nodetypes="ccccs" class="st4" d="
		M-48.8,174.5c-7.3,6.1-8.7,16.9-18.7,16.9c1.7-0.7,4.8-1.8,5.7-4.5c-0.3,0.6-3.6,0.8-6.4-0.9c12.7,0.7,13.3-15.4,19.4-13"/>
	
		<path id="path15939" inkscape:export-ydpi="90" inkscape:export-xdpi="90" inkscape:export-filename="E:\PEKNA_STRANKA\PROJEKTY\Svadobne_salony\Sablona\vzhlad-katalogu\ikony\masla-big.png" sodipodi:nodetypes="cccc" class="st5" d="
		M-47.7,171.8c-8.2,1.1-20.2,7.2-20.8-1.6c1.5-2.6,1.8-3.4,1.5-6.1c0.9,6.7,12.8,3.6,20.1,5.9"/>
	
		<path id="path15941" inkscape:export-ydpi="90" inkscape:export-xdpi="90" inkscape:export-filename="E:\PEKNA_STRANKA\PROJEKTY\Svadobne_salony\Sablona\vzhlad-katalogu\ikony\masla-big.png" sodipodi:nodetypes="cc" class="st6" d="
		M-47.2,168.2c-18.4-17.9-33.1,0.4-0.5,1.5"/>
	
		<path id="path15943" inkscape:export-ydpi="90" inkscape:export-xdpi="90" inkscape:export-filename="E:\PEKNA_STRANKA\PROJEKTY\Svadobne_salony\Sablona\vzhlad-katalogu\ikony\masla-big.png" sodipodi:nodetypes="cccc" class="st6" d="
		M-47.7,171.8c-8.2,0.9-20.4,6.4-20.8-1.6c1.5-2.6,1.7-3.3,1.4-6c0.9,6.7,12.9,3.5,20.2,5.9"/>
	
		<radialGradient id="path15945_1_" cx="-5840.3438" cy="768.8149" r="1.8225" gradientTransform="matrix(1.7195 -10.6036 3.2467 0.4995 7485.6353 -62141.543)" gradientUnits="userSpaceOnUse">
		<stop  offset="0" style="stop-color:#FFFFFF"/>
		<stop  offset="1" style="stop-color:#FFFFFF;stop-opacity:0"/>
	</radialGradient>
	
		<path id="path15945" inkscape:export-ydpi="90" inkscape:export-xdpi="90" inkscape:export-filename="E:\PEKNA_STRANKA\PROJEKTY\Svadobne_salony\Sablona\vzhlad-katalogu\ikony\masla-big.png" sodipodi:nodetypes="cccc" class="st7" d="
		M-47.7,171.8c-8.2,0.9-20.4,6.4-20.8-1.6c1.5-2.6,2-3.2,1.7-6c0.9,6.7,12.7,3.4,20,5.8"/>
	
		<linearGradient id="path15947_1_" gradientUnits="userSpaceOnUse" x1="-5833.0332" y1="759.4208" x2="-5831.0522" y2="759.1539" gradientTransform="matrix(-5.8672 -0.7385 0.7648 -5.7489 -34850.4023 227.3468)">
		<stop  offset="0" style="stop-color:#800000"/>
		<stop  offset="1" style="stop-color:#800000;stop-opacity:0"/>
	</linearGradient>
	
		<path id="path15947" inkscape:export-ydpi="90" inkscape:export-xdpi="90" inkscape:export-filename="E:\PEKNA_STRANKA\PROJEKTY\Svadobne_salony\Sablona\vzhlad-katalogu\ikony\masla-big.png" sodipodi:nodetypes="cccc" class="st8" d="
		M-47.8,171.9c-8.2,0.9-20.4,6.4-20.8-1.6c1.5-2.6,2-3.3,1.7-6c0.9,6.7,12.6,3.5,19.9,5.9"/>
	
		<linearGradient id="path15949_1_" gradientUnits="userSpaceOnUse" x1="-5832.9683" y1="738.2308" x2="-5833.936" y2="739.9408" gradientTransform="matrix(-5.7709 -0.7385 1.514 -5.7489 -34844.8906 111.3868)">
		<stop  offset="0" style="stop-color:#550000"/>
		<stop  offset="1" style="stop-color:#550000;stop-opacity:0"/>
	</linearGradient>
	
		<path id="path15949" inkscape:export-ydpi="90" inkscape:export-xdpi="90" inkscape:export-filename="E:\PEKNA_STRANKA\PROJEKTY\Svadobne_salony\Sablona\vzhlad-katalogu\ikony\masla-big.png" sodipodi:nodetypes="cc" class="st9" d="
		M-47.2,168.2c-18.4-17.9-33.1,0.4-0.5,1.5"/>
	
		<path id="path15951" inkscape:export-ydpi="90" inkscape:export-xdpi="90" inkscape:export-filename="E:\PEKNA_STRANKA\PROJEKTY\Svadobne_salony\Sablona\vzhlad-katalogu\ikony\masla-big.png" sodipodi:nodetypes="cccc" class="st5" d="
		M-47.4,173.7c-8.6,2.3-20.7,10.6-22.6,1.1c1.3-3,0.7-5.7,0-8.6c1.9,7.1,15,3.9,23.2,5.4"/>
	
		<path id="path15953" inkscape:export-ydpi="90" inkscape:export-xdpi="90" inkscape:export-filename="E:\PEKNA_STRANKA\PROJEKTY\Svadobne_salony\Sablona\vzhlad-katalogu\ikony\masla-big.png" sodipodi:nodetypes="cc" class="st6" d="
		M-47.2,169.9c-24.8-16.6-35.4,5-0.1,1.6"/>
	
		<path id="path15955" inkscape:export-ydpi="90" inkscape:export-xdpi="90" inkscape:export-filename="E:\PEKNA_STRANKA\PROJEKTY\Svadobne_salony\Sablona\vzhlad-katalogu\ikony\masla-big.png" sodipodi:nodetypes="cccc" class="st6" d="
		M-47.4,173.7c-8.7,2.1-21,9.8-22.6,1.1c1.3-3,0.7-5.6,0-8.6c1.9,7.1,15,3.9,23.2,5.4"/>
	
		<radialGradient id="path15957_1_" cx="-5836.3418" cy="767.4018" r="1.8225" gradientTransform="matrix(0.3313 -11.7598 3.5535 9.868842e-02 -854.6528 -68534.6328)" gradientUnits="userSpaceOnUse">
		<stop  offset="0" style="stop-color:#FFFFFF"/>
		<stop  offset="1" style="stop-color:#FFFFFF;stop-opacity:0"/>
	</radialGradient>
	
		<path id="path15957" inkscape:export-ydpi="90" inkscape:export-xdpi="90" inkscape:export-filename="E:\PEKNA_STRANKA\PROJEKTY\Svadobne_salony\Sablona\vzhlad-katalogu\ikony\masla-big.png" sodipodi:nodetypes="cccc" class="st10" d="
		M-47.4,173.7c-8.7,2.1-21,9.8-22.6,1.1c1.3-3,0.7-5.5,0-8.5c1.9,7.1,15,3.8,23.2,5.3"/>
	
		<linearGradient id="path15959_1_" gradientUnits="userSpaceOnUse" x1="-5832.4385" y1="766.9708" x2="-5830.4575" y2="766.7039" gradientTransform="matrix(-6.3983 0 0 -6.3527 -37363.9805 5042.4429)">
		<stop  offset="0" style="stop-color:#800000"/>
		<stop  offset="1" style="stop-color:#800000;stop-opacity:0"/>
	</linearGradient>
	
		<path id="path15959" inkscape:export-ydpi="90" inkscape:export-xdpi="90" inkscape:export-filename="E:\PEKNA_STRANKA\PROJEKTY\Svadobne_salony\Sablona\vzhlad-katalogu\ikony\masla-big.png" sodipodi:nodetypes="cccc" class="st11" d="
		M-47.5,173.9c-8.7,2.1-21,9.8-22.6,1.1c1.3-3,0.7-5.3,0-8.2c1.9,7.1,15,3.5,23.2,5.1"/>
	
		<linearGradient id="path15961_1_" gradientUnits="userSpaceOnUse" x1="-5829.5151" y1="745.4449" x2="-5830.4829" y2="747.1549" gradientTransform="matrix(-6.3983 0 0 -6.3527 -37363.9805 4915.3882)">
		<stop  offset="0" style="stop-color:#550000"/>
		<stop  offset="1" style="stop-color:#550000;stop-opacity:0"/>
	</linearGradient>
	
		<path id="path15961" inkscape:export-ydpi="90" inkscape:export-xdpi="90" inkscape:export-filename="E:\PEKNA_STRANKA\PROJEKTY\Svadobne_salony\Sablona\vzhlad-katalogu\ikony\masla-big.png" sodipodi:nodetypes="cc" class="st12" d="
		M-47.2,169.9c-24.8-16.6-35.4,5-0.1,1.6"/>
	
		<path id="path15963" inkscape:export-ydpi="90" inkscape:export-xdpi="90" inkscape:export-filename="E:\PEKNA_STRANKA\PROJEKTY\Svadobne_salony\Sablona\vzhlad-katalogu\ikony\masla-big.png" sodipodi:nodetypes="csc" class="st13" d="
		M-48.9,169.3c-10.8-8.6-21.5-6.1-21.1-2.4c0.3,2.5,6,5.8,21,4.7"/>
	
		<path id="path15965" inkscape:export-ydpi="90" inkscape:export-xdpi="90" inkscape:export-filename="E:\PEKNA_STRANKA\PROJEKTY\Svadobne_salony\Sablona\vzhlad-katalogu\ikony\masla-big.png" sodipodi:nodetypes="cccc" class="st5" d="
		M-45.1,171.7c7.8,1,19.4,7,20-1.5c-1.5-2.5-1.7-3.3-1.4-5.9c-0.9,6.4-12.3,3.5-19.3,5.7"/>
	
		<path id="path15967" inkscape:export-ydpi="90" inkscape:export-xdpi="90" inkscape:export-filename="E:\PEKNA_STRANKA\PROJEKTY\Svadobne_salony\Sablona\vzhlad-katalogu\ikony\masla-big.png" sodipodi:nodetypes="cc" class="st6" d="
		M-45.6,168.3c17.7-17.2,31.7,0.4,0.5,1.4"/>
	
		<path id="path15969" inkscape:export-ydpi="90" inkscape:export-xdpi="90" inkscape:export-filename="E:\PEKNA_STRANKA\PROJEKTY\Svadobne_salony\Sablona\vzhlad-katalogu\ikony\masla-big.png" sodipodi:nodetypes="cccc" class="st6" d="
		M-45.1,171.7c7.9,0.9,19.6,6.2,20-1.5c-1.5-2.5-1.6-3.2-1.3-5.8c-0.9,6.4-12.4,3.4-19.4,5.7"/>
	
		<radialGradient id="path15971_1_" cx="-5835.9092" cy="869.6329" r="1.8225" gradientTransform="matrix(-1.6483 -10.2379 -3.1123 0.4822 -6945.6743 -59995.2148)" gradientUnits="userSpaceOnUse">
		<stop  offset="0" style="stop-color:#FFFFFF"/>
		<stop  offset="1" style="stop-color:#FFFFFF;stop-opacity:0"/>
	</radialGradient>
	
		<path id="path15971" inkscape:export-ydpi="90" inkscape:export-xdpi="90" inkscape:export-filename="E:\PEKNA_STRANKA\PROJEKTY\Svadobne_salony\Sablona\vzhlad-katalogu\ikony\masla-big.png" sodipodi:nodetypes="cccc" class="st14" d="
		M-45.1,171.7c7.9,0.9,19.6,6.2,20-1.5c-1.5-2.5-1.9-3.1-1.6-5.7c-0.9,6.4-12.1,3.3-19.1,5.6"/>
	
		<linearGradient id="path15973_1_" gradientUnits="userSpaceOnUse" x1="-5889.2549" y1="766.0638" x2="-5887.2739" y2="765.7969" gradientTransform="matrix(5.6244 -0.713 -0.7331 -5.5505 33638.7461 222.1846)">
		<stop  offset="0" style="stop-color:#800000"/>
		<stop  offset="1" style="stop-color:#800000;stop-opacity:0"/>
	</linearGradient>
	
		<path id="path15973" inkscape:export-ydpi="90" inkscape:export-xdpi="90" inkscape:export-filename="E:\PEKNA_STRANKA\PROJEKTY\Svadobne_salony\Sablona\vzhlad-katalogu\ikony\masla-big.png" sodipodi:nodetypes="cccc" class="st15" d="
		M-45.1,171.8c7.9,0.9,19.6,6.2,20-1.5c-1.5-2.5-1.9-3.2-1.6-5.8c-0.9,6.4-12.1,3.4-19.1,5.7"/>
	
		<linearGradient id="path15975_1_" gradientUnits="userSpaceOnUse" x1="-5889.2637" y1="744.8833" x2="-5890.231" y2="746.5932" gradientTransform="matrix(5.5322 -0.713 -1.4513 -5.5505 33633.4609 110.2246)">
		<stop  offset="0" style="stop-color:#550000"/>
		<stop  offset="1" style="stop-color:#550000;stop-opacity:0"/>
	</linearGradient>
	
		<path id="path15975" inkscape:export-ydpi="90" inkscape:export-xdpi="90" inkscape:export-filename="E:\PEKNA_STRANKA\PROJEKTY\Svadobne_salony\Sablona\vzhlad-katalogu\ikony\masla-big.png" sodipodi:nodetypes="cc" class="st16" d="
		M-45.6,168.3c17.7-17.2,31.7,0.4,0.5,1.4"/>
	
		<path id="path15977" inkscape:export-ydpi="90" inkscape:export-xdpi="90" inkscape:export-filename="E:\PEKNA_STRANKA\PROJEKTY\Svadobne_salony\Sablona\vzhlad-katalogu\ikony\masla-big.png" sodipodi:nodetypes="cscccsc" class="st1" d="
		M-44.3,173.9c0.1,0.1,0.3,0.2,0.4,0.3c2.7,4-0.7,31.2,11.3,24.7c-1.6-0.7-4.6-0.6-4.2-3.5c1.7,0.5,2.6-0.3,3.5-1
		c-9.1-5.4-4-20.9-10-21.6c-0.1,0-0.8-0.2-0.9-0.2"/>
	
		<path id="path15979" inkscape:export-ydpi="90" inkscape:export-xdpi="90" inkscape:export-filename="E:\PEKNA_STRANKA\PROJEKTY\Svadobne_salony\Sablona\vzhlad-katalogu\ikony\masla-big.png" sodipodi:nodetypes="cscccsc" class="st2" d="
		M-44.3,173.9c0.1,0.1,0.3,0.2,0.4,0.3c3.2,3.3-0.7,30.4,11.3,24.7c-1.8-0.5-4.9-0.7-4.5-3.9c1.4,0.1,2.2,0.5,3.6-0.7
		c-9.1-5.4-3.8-20.9-9.9-21.6c-0.1,0-0.8-0.2-0.9-0.2"/>
	
		<linearGradient id="path15981_1_" gradientUnits="userSpaceOnUse" x1="-5884.4609" y1="766.4127" x2="-5883.8237" y2="764.3602" gradientTransform="matrix(6.1336 0 0 -6.1336 36048.332 4871.1777)">
		<stop  offset="0" style="stop-color:#2B0000"/>
		<stop  offset="1" style="stop-color:#CD4A4A;stop-opacity:0"/>
	</linearGradient>
	
		<path id="path15981" inkscape:export-ydpi="90" inkscape:export-xdpi="90" inkscape:export-filename="E:\PEKNA_STRANKA\PROJEKTY\Svadobne_salony\Sablona\vzhlad-katalogu\ikony\masla-big.png" sodipodi:nodetypes="cscccsc" class="st17" d="
		M-44.3,173.9c0.1,0.1,0.3,0.2,0.4,0.3c3.2,3.3-0.7,30.4,11.3,24.7c-1.8-0.5-4.9-0.7-4.5-3.9c1.4,0.1,2.2,0.5,3.6-0.7
		c-9.1-5.4-3.8-20.9-9.9-21.6c-0.1,0-0.8-0.2-0.9-0.2"/>
	
		<path id="path15983" inkscape:export-ydpi="90" inkscape:export-xdpi="90" inkscape:export-filename="E:\PEKNA_STRANKA\PROJEKTY\Svadobne_salony\Sablona\vzhlad-katalogu\ikony\masla-big.png" sodipodi:nodetypes="cccccsc" class="st1" d="
		M-42,173.9c0.8-1.1,1.5,0.9,1.7,1.8c0.8,3.4,3.1,23.4,17.2,20.7c-1.1-0.6-5.9-0.2-7.3-3.8c2.2,1.1,4.4,0.5,5.1-0.5
		c-11.2-3.1-10.2-20.1-16.2-19.3c-0.1,0-1-0.1-1.1-0.1"/>
	
		<path id="path15985" inkscape:export-ydpi="90" inkscape:export-xdpi="90" inkscape:export-filename="E:\PEKNA_STRANKA\PROJEKTY\Svadobne_salony\Sablona\vzhlad-katalogu\ikony\masla-big.png" sodipodi:nodetypes="ccccc" class="st2" d="
		M-44.1,173.8c7-2.4,2.8,24.2,20.9,22.7c-1.1-0.6-5.7-0.9-7.5-4.1c2.2,1.1,4.6,0.7,5.3-0.2c-12.5-4.1-9-21.7-18.6-19.8"/>
	
		<linearGradient id="path15987_1_" gradientUnits="userSpaceOnUse" x1="-5884.7334" y1="765.8107" x2="-5883.4126" y2="764.5739" gradientTransform="matrix(6.1336 0 0 -6.1336 36048.332 4871.1777)">
		<stop  offset="0" style="stop-color:#2B0000"/>
		<stop  offset="1" style="stop-color:#CD4A4A"/>
	</linearGradient>
	
		<path id="path15987" inkscape:export-ydpi="90" inkscape:export-xdpi="90" inkscape:export-filename="E:\PEKNA_STRANKA\PROJEKTY\Svadobne_salony\Sablona\vzhlad-katalogu\ikony\masla-big.png" sodipodi:nodetypes="ccccc" class="st18" d="
		M-44.1,173.8c7-2.4,2.8,24.2,20.9,22.7c-1.1-0.6-5.7-0.9-7.5-4.1c2.2,1.1,4.6,0.7,5.3-0.2c-12.5-4.1-9-21.7-18.6-19.8"/>
	
		<path id="path15989" inkscape:export-ydpi="90" inkscape:export-xdpi="90" inkscape:export-filename="E:\PEKNA_STRANKA\PROJEKTY\Svadobne_salony\Sablona\vzhlad-katalogu\ikony\masla-big.png" sodipodi:nodetypes="cccc" class="st5" d="
		M-45.4,173.6c8.2,2.2,19.8,10.2,21.6,1.1c-1.2-2.9-0.7-5.5,0-8.3c-1.8,6.9-14.4,3.8-22.2,5.3"/>
	
		<path id="path15991" inkscape:export-ydpi="90" inkscape:export-xdpi="90" inkscape:export-filename="E:\PEKNA_STRANKA\PROJEKTY\Svadobne_salony\Sablona\vzhlad-katalogu\ikony\masla-big.png" sodipodi:nodetypes="cc" class="st6" d="
		M-45.6,170c23.8-16,33.9,4.8,0.1,1.6"/>
	
		<path id="path15993" inkscape:export-ydpi="90" inkscape:export-xdpi="90" inkscape:export-filename="E:\PEKNA_STRANKA\PROJEKTY\Svadobne_salony\Sablona\vzhlad-katalogu\ikony\masla-big.png" sodipodi:nodetypes="cccc" class="st6" d="
		M-45.4,173.6c8.3,2,20.1,9.4,21.6,1.1c-1.2-2.9-0.6-5.4,0-8.3c-1.8,6.9-14.4,3.7-22.2,5.2"/>
	
		<radialGradient id="path15995_1_" cx="-5835.8345" cy="861.6133" r="1.8225" gradientTransform="matrix(-0.3176 -11.3541 -3.4065 9.528400e-02 1049.5458 -66167.7656)" gradientUnits="userSpaceOnUse">
		<stop  offset="0" style="stop-color:#FFFFFF"/>
		<stop  offset="1" style="stop-color:#FFFFFF;stop-opacity:0"/>
	</radialGradient>
	
		<path id="path15995" inkscape:export-ydpi="90" inkscape:export-xdpi="90" inkscape:export-filename="E:\PEKNA_STRANKA\PROJEKTY\Svadobne_salony\Sablona\vzhlad-katalogu\ikony\masla-big.png" sodipodi:nodetypes="cccc" class="st19" d="
		M-45.4,173.6c8.3,2,20.1,9.4,21.6,1.1c-1.2-2.9-0.6-5.4,0-8.2c-1.8,6.9-14.4,3.6-22.2,5.1"/>
	
		<linearGradient id="path15997_1_" gradientUnits="userSpaceOnUse" x1="-5884.7881" y1="766.4465" x2="-5882.8066" y2="766.1796" gradientTransform="matrix(6.1336 0 0 -6.1336 36048.332 4871.1777)">
		<stop  offset="0" style="stop-color:#800000"/>
		<stop  offset="1" style="stop-color:#800000;stop-opacity:0"/>
	</linearGradient>
	
		<path id="path15997" inkscape:export-ydpi="90" inkscape:export-xdpi="90" inkscape:export-filename="E:\PEKNA_STRANKA\PROJEKTY\Svadobne_salony\Sablona\vzhlad-katalogu\ikony\masla-big.png" sodipodi:nodetypes="cccc" class="st20" d="
		M-45.3,173.8c8.3,2,20.1,9.4,21.6,1.1c-1.2-2.9-0.7-5.1,0-7.9c-1.8,6.9-14.4,3.4-22.2,4.9"/>
	
		<linearGradient id="path15999_1_" gradientUnits="userSpaceOnUse" x1="-5881.8647" y1="744.9207" x2="-5882.832" y2="746.6307" gradientTransform="matrix(6.1336 0 0 -6.1336 36048.332 4748.5059)">
		<stop  offset="0" style="stop-color:#550000"/>
		<stop  offset="1" style="stop-color:#550000;stop-opacity:0"/>
	</linearGradient>
	
		<path id="path15999" inkscape:export-ydpi="90" inkscape:export-xdpi="90" inkscape:export-filename="E:\PEKNA_STRANKA\PROJEKTY\Svadobne_salony\Sablona\vzhlad-katalogu\ikony\masla-big.png" sodipodi:nodetypes="cc" class="st21" d="
		M-45.6,170c23.8-16,33.9,4.8,0.1,1.6"/>
	
		<path id="path16001" inkscape:export-ydpi="90" inkscape:export-xdpi="90" inkscape:export-filename="E:\PEKNA_STRANKA\PROJEKTY\Svadobne_salony\Sablona\vzhlad-katalogu\ikony\masla-big.png" sodipodi:nodetypes="csc" class="st22" d="
		M-44,169.3c10.3-8.3,20.6-5.8,20.2-2.3c-0.3,2.4-5.7,5.6-20.1,4.6"/>
	
		<path id="path16003" inkscape:export-ydpi="90" inkscape:export-xdpi="90" inkscape:export-filename="E:\PEKNA_STRANKA\PROJEKTY\Svadobne_salony\Sablona\vzhlad-katalogu\ikony\masla-big.png" sodipodi:nodetypes="cscsc" class="st2" d="
		M-43.9,172.2c0.7-4.6-0.6-4.6-2.2-4.5c-1.6,0.1-2.3,0.2-2.6,3.6c-0.4,3.4,0.7,4.1,2.3,4.2C-44,175.5-44.2,175.3-43.9,172.2
		L-43.9,172.2z"/>
	
		<linearGradient id="path16005_1_" gradientUnits="userSpaceOnUse" x1="-5884.8242" y1="764.4886" x2="-5884.7407" y2="766.1194" gradientTransform="matrix(6.1336 0 0 -6.1336 36048.332 4871.1777)">
		<stop  offset="0" style="stop-color:#550000"/>
		<stop  offset="1" style="stop-color:#CD4A4A"/>
	</linearGradient>
	
		<path id="path16005" inkscape:export-ydpi="90" inkscape:export-xdpi="90" inkscape:export-filename="E:\PEKNA_STRANKA\PROJEKTY\Svadobne_salony\Sablona\vzhlad-katalogu\ikony\masla-big.png" sodipodi:nodetypes="cscsc" class="st23" d="
		M-43.9,172.2c0.7-4.6-0.6-4.6-2.2-4.5c-1.6,0.1-2.3,0.2-2.6,3.6c-0.4,3.4,0.7,4.1,2.3,4.2C-44,175.5-44.2,175.3-43.9,172.2
		L-43.9,172.2z"/>
	
		<linearGradient id="path16007_1_" gradientUnits="userSpaceOnUse" x1="-5864.6021" y1="767.3622" x2="-5864.7939" y2="765.7565" gradientTransform="matrix(6.1336 0 0 -6.1336 35925.6602 4871.1777)">
		<stop  offset="0" style="stop-color:#550000"/>
		<stop  offset="1" style="stop-color:#550000;stop-opacity:0"/>
	</linearGradient>
	
		<path id="path16007" inkscape:export-ydpi="90" inkscape:export-xdpi="90" inkscape:export-filename="E:\PEKNA_STRANKA\PROJEKTY\Svadobne_salony\Sablona\vzhlad-katalogu\ikony\masla-big.png" sodipodi:nodetypes="cscsc" class="st24" d="
		M-43.9,172.2c0.7-4.6-0.6-4.6-2.2-4.5c-1.6,0.1-2.3,0.2-2.6,3.6c-0.4,3.4,0.7,4.1,2.3,4.2C-44,175.5-44.2,175.3-43.9,172.2
		L-43.9,172.2z"/>
</g>
</svg>
