<?xml version="1.0" encoding="utf-8"?>
<!-- Generator: Adobe Illustrator 16.0.4, SVG Export Plug-In . SVG Version: 6.00 Build 0)  -->
<!DOCTYPE svg PUBLIC "-//W3C//DTD SVG 1.1//EN" "http://www.w3.org/Graphics/SVG/1.1/DTD/svg11.dtd">
<svg version="1.1" xmlns="http://www.w3.org/2000/svg" xmlns:xlink="http://www.w3.org/1999/xlink" x="0px" y="0px" width="600px"
	 height="560px" viewBox="0 0 600 560" style="enable-background:new 0 0 600 560;" xml:space="preserve">
<style type="text/css">
<![CDATA[
	.st0{fill-rule:evenodd;clip-rule:evenodd;fill:#555655;stroke:#555655;stroke-width:10;stroke-miterlimit:10;}
	.st1{fill-rule:evenodd;clip-rule:evenodd;fill:#555655;}
]]>
</style>
<g id="Layer_1_copy_5">
</g>
<g id="Layer_3">
	<polygon class="st0" points="288,279 198,279 198,309 317,309 317,129 288,129 	"/>
	<path class="st1" d="M300.1,40.1C167.5,40.1,60.1,147.5,60.1,280c0,132.5,107.4,239.9,239.9,239.9C432.6,519.9,540,412.5,540,280
		C540,147.5,432.6,40.1,300.1,40.1z M300.1,470c-104.9,0-190-85.1-190-190c0-104.9,85.1-190,190-190c104.9,0,190,85.1,190,190
		C490.1,384.9,405,470,300.1,470z"/>
</g>
</svg>
