<?xml version="1.0" encoding="utf-8"?>
<!-- Generator: Adobe Illustrator 16.0.4, SVG Export Plug-In . SVG Version: 6.00 Build 0)  -->
<!DOCTYPE svg PUBLIC "-//W3C//DTD SVG 1.1//EN" "http://www.w3.org/Graphics/SVG/1.1/DTD/svg11.dtd">
<svg version="1.1" xmlns="http://www.w3.org/2000/svg" xmlns:xlink="http://www.w3.org/1999/xlink" x="0px" y="0px" width="600px"
	 height="560px" viewBox="0 0 600 560" style="enable-background:new 0 0 600 560;" xml:space="preserve">
<style type="text/css">
<![CDATA[
	.st0{fill:none;}
	.st1{fill:#71C8F1;}
]]>
</style>
<g id="Layer_1_copy_5">
</g>
<g id="Layer_4">
	<polygon class="st1" points="40,52 40,503 560,503 560,463 80,463 80,52 	"/>
	<path class="st1" d="M179.4,369.1l0-0.1l-58-6.7c0.4-3.3,4.2-33,21.3-65.8c24.1-46.1,62.5-75.2,111.1-84.3c39-7.3,70.1,3.4,95,12.1
		c23.8,8.2,35.9,11.4,51.1,6.6c20.7-6.5,45.4-40.8,73.3-90.4l48.5,28.6c-34.1,65.3-51.1,96.3-100.1,115.9
		c-34.5,13.9-66.1,4.1-94.2-6c-21.7-7.8-39.1-13.9-62.9-9.4c-30.3,5.6-53.6,23.3-69.3,52.4C182.4,346,179.5,368.9,179.4,369.1"/>
	<rect x="40" y="52" class="st0" width="520" height="451"/>
</g>
</svg>
