<?xml version="1.0" encoding="utf-8"?>
<!-- Generator: Adobe Illustrator 16.0.4, SVG Export Plug-In . SVG Version: 6.00 Build 0)  -->
<!DOCTYPE svg PUBLIC "-//W3C//DTD SVG 1.1//EN" "http://www.w3.org/Graphics/SVG/1.1/DTD/svg11.dtd">
<svg version="1.1" xmlns="http://www.w3.org/2000/svg" xmlns:xlink="http://www.w3.org/1999/xlink" x="0px" y="0px" width="600px"
	 height="560px" viewBox="0 0 600 560" style="enable-background:new 0 0 600 560;" xml:space="preserve">
<style type="text/css">
<![CDATA[
	.st0{fill:#71C8F1;}
]]>
</style>
<g id="Layer_1_copy_5">
</g>
<g id="Layer_3">
	<g>
		<polygon class="st0" points="40,54 40,504 560,504 560,464 80,464 80,54 		"/>
		<rect x="340" y="252" class="st0" width="65" height="171"/>
		<rect x="248" y="83" class="st0" width="65" height="340"/>
		<rect x="157" y="169" class="st0" width="65" height="254"/>
		<rect x="432" y="337" class="st0" width="65" height="86"/>
	</g>
</g>
</svg>
