<?xml version="1.0" encoding="utf-8"?>
<!-- Generator: Adobe Illustrator 16.0.4, SVG Export Plug-In . SVG Version: 6.00 Build 0)  -->
<!DOCTYPE svg PUBLIC "-//W3C//DTD SVG 1.1//EN" "http://www.w3.org/Graphics/SVG/1.1/DTD/svg11.dtd">
<svg version="1.1" xmlns="http://www.w3.org/2000/svg" xmlns:xlink="http://www.w3.org/1999/xlink" x="0px" y="0px" width="600px"
	 height="560px" viewBox="0 0 600 560" style="enable-background:new 0 0 600 560;" xml:space="preserve">
<style type="text/css">
<![CDATA[
	.st0{fill:#FFFFFF;}
]]>
</style>
<g id="Layer_1_copy_5">
</g>
<g id="Layer_3">
	<polygon class="st0" points="40,52 40,502.8 560,502.8 560,462.8 80,462.8 80,52 	"/>
	<path class="st0" d="M279.8,330.4c0-45,36.5-81.4,81.4-81.4c45,0,81.4,36.5,81.4,81.4s-36.5,81.4-81.4,81.4
		C316.3,411.8,279.8,375.3,279.8,330.4"/>
	<path class="st0" d="M153.7,398.8c0-18.7,15.2-33.9,33.9-33.9c18.7,0,33.9,15.2,33.9,33.9c0,18.7-15.2,33.9-33.9,33.9
		C168.9,432.7,153.7,417.5,153.7,398.8"/>
	<path class="st0" d="M197.3,252.4c0-15.2,12.3-27.6,27.6-27.6c15.2,0,27.6,12.3,27.6,27.6s-12.3,27.6-27.6,27.6
		C209.6,279.9,197.3,267.6,197.3,252.4"/>
	<path class="st0" d="M234.4,307.5c0-7.7,6.2-13.9,13.9-13.9c7.7,0,13.9,6.2,13.9,13.9c0,7.7-6.2,13.9-13.9,13.9
		C240.6,321.4,234.4,315.2,234.4,307.5"/>
	<path class="st0" d="M322.5,195.6c0-7.7,6.2-13.9,13.9-13.9s13.9,6.2,13.9,13.9c0,7.7-6.2,13.9-13.9,13.9S322.5,203.3,322.5,195.6"
		/>
	<path class="st0" d="M418.7,176.7c0-24.8,20.1-44.9,44.9-44.9c24.8,0,44.9,20.1,44.9,44.9s-20.1,44.9-44.9,44.9
		C438.8,221.5,418.7,201.5,418.7,176.7"/>
	<path class="st0" d="M424.9,87.3c0-10.9,8.8-19.7,19.7-19.7c10.9,0,19.7,8.8,19.7,19.7s-8.8,19.7-19.7,19.7
		C433.7,107,424.9,98.2,424.9,87.3"/>
	<path class="st0" d="M343.1,141.9c0-15.4,12.5-27.9,27.9-27.9s27.9,12.5,27.9,27.9c0,15.4-12.5,27.9-27.9,27.9
		S343.1,157.3,343.1,141.9"/>
	<path class="st0" d="M162,121.2c0-24.8,20.1-44.9,44.9-44.9c24.8,0,44.9,20.1,44.9,44.9c0,24.8-20.1,44.9-44.9,44.9
		C182,166.1,162,146,162,121.2"/>
	<path class="st0" d="M376,217.8c0-7.7,6.2-13.9,13.9-13.9c7.7,0,13.9,6.2,13.9,13.9c0,7.7-6.2,13.9-13.9,13.9
		C382.2,231.6,376,225.4,376,217.8"/>
</g>
</svg>
