<?xml version="1.0" encoding="utf-8"?>
<!-- Generator: Adobe Illustrator 16.0.4, SVG Export Plug-In . SVG Version: 6.00 Build 0)  -->
<!DOCTYPE svg PUBLIC "-//W3C//DTD SVG 1.1//EN" "http://www.w3.org/Graphics/SVG/1.1/DTD/svg11.dtd">
<svg version="1.1" xmlns="http://www.w3.org/2000/svg" xmlns:xlink="http://www.w3.org/1999/xlink" x="0px" y="0px" width="600px"
	 height="560px" viewBox="0 0 600 560" style="enable-background:new 0 0 600 560;" xml:space="preserve">
<style type="text/css">
<![CDATA[
	.st0{fill:#FFFFFF;}
]]>
</style>
<g id="Layer_1_copy_5">
</g>
<g id="Layer_4">
	<polygon class="st0" points="40,52 40,503 560,503 560,463 80,463 80,52 	"/>
	<path class="st0" d="M134.1,396.9c0,17.9,14.5,32.4,32.4,32.4c17.9,0,32.4-14.5,32.4-32.4c0-17.9-14.5-32.4-32.4-32.4
		C148.6,364.4,134.1,378.9,134.1,396.9"/>
	<path class="st0" d="M207,288.2c17.9,0,32.4-14.5,32.4-32.4s-14.5-32.4-32.4-32.4c-17.9,0-32.4,14.5-32.4,32.4
		S189.1,288.2,207,288.2"/>
	<path class="st0" d="M370.3,282.3c-17.9,0-32.4,14.5-32.4,32.4c0,17.9,14.5,32.4,32.4,32.4c17.9,0,32.4-14.5,32.4-32.4
		C402.7,296.8,388.2,282.3,370.3,282.3"/>
	<path class="st0" d="M431.4,400.1c17.9,0,32.4-14.5,32.4-32.4c0-17.9-14.5-32.4-32.4-32.4c-17.9,0-32.4,14.5-32.4,32.4
		C398.9,385.6,413.4,400.1,431.4,400.1"/>
	<path class="st0" d="M337.8,227.1c17.9,0,32.4-14.5,32.4-32.4s-14.5-32.4-32.4-32.4s-32.4,14.5-32.4,32.4S319.9,227.1,337.8,227.1"
		/>
	<path class="st0" d="M428.6,249.8c17.9,0,32.4-14.5,32.4-32.4c0-17.9-14.5-32.4-32.4-32.4c-17.9,0-32.4,14.5-32.4,32.4
		C396.2,235.3,410.7,249.8,428.6,249.8"/>
	<path class="st0" d="M473.5,194.7c17.9,0,32.4-14.5,32.4-32.4c0-17.9-14.5-32.4-32.4-32.4c-17.9,0-32.4,14.5-32.4,32.4
		C441.1,180.2,455.6,194.7,473.5,194.7"/>
	<path class="st0" d="M408.6,172.5c17.9,0,32.4-14.5,32.4-32.4c0-17.9-14.5-32.4-32.4-32.4c-17.9,0-32.4,14.5-32.4,32.4
		C376.2,158,390.7,172.5,408.6,172.5"/>
	<path class="st0" d="M144.9,246c17.9,0,32.4-14.5,32.4-32.4s-14.5-32.4-32.4-32.4c-17.9,0-32.4,14.5-32.4,32.4S127,246,144.9,246"
		/>
</g>
</svg>
