<?xml version="1.0" encoding="utf-8"?>
<!-- Generator: Adobe Illustrator 16.0.4, SVG Export Plug-In . SVG Version: 6.00 Build 0)  -->
<!DOCTYPE svg PUBLIC "-//W3C//DTD SVG 1.1//EN" "http://www.w3.org/Graphics/SVG/1.1/DTD/svg11.dtd">
<svg version="1.1" xmlns="http://www.w3.org/2000/svg" xmlns:xlink="http://www.w3.org/1999/xlink" x="0px" y="0px" width="600px"
	 height="560px" viewBox="0 0 600 560" style="enable-background:new 0 0 600 560;" xml:space="preserve">
<style type="text/css">
<![CDATA[
	.st0{fill:#FFFFFF;}
]]>
</style>
<g id="Layer_1_copy_5">
</g>
<g id="Layer_4">
	<polygon class="st0" points="40,52 40,503 560,503 560,463 80,463 80,52 	"/>
	<rect x="157" y="264" class="st0" width="171" height="65"/>
	<rect x="157" y="173" class="st0" width="340" height="64"/>
	<rect x="158" y="82" class="st0" width="254" height="65"/>
	<rect x="157" y="356" class="st0" width="86" height="65"/>
</g>
</svg>
