<?xml version="1.0" encoding="utf-8"?>
<!-- Generator: Adobe Illustrator 16.0.4, SVG Export Plug-In . SVG Version: 6.00 Build 0)  -->
<!DOCTYPE svg PUBLIC "-//W3C//DTD SVG 1.1//EN" "http://www.w3.org/Graphics/SVG/1.1/DTD/svg11.dtd">
<svg version="1.1" xmlns="http://www.w3.org/2000/svg" xmlns:xlink="http://www.w3.org/1999/xlink" x="0px" y="0px" width="600px"
	 height="560px" viewBox="0 0 600 560" enable-background="new 0 0 600 560" xml:space="preserve">
<g id="Layer_1_copy_5">
</g>
<g id="Layer_5">
	<g>
		<path fill="#555655" d="M462.9,53.4c-28.6-28.6-63.3-2.4-63.3-2.4l-68.7,68.7L305,111l-28.8,28.8l18,18.1L164.9,287.2l-0.7,1.8
			c-0.2,0.5-4.9,12.9-8.2,26.9c-5.1,21.4-4.3,34.9,2.5,42.3l0.5,0.6l0,0c7.4,6.8,20.9,7.6,42.3,2.5c14-3.3,26.4-8,26.9-8.2l1.8-0.7
			l129.3-129.3l17,17l28.8-28.8l-8.6-25.9l68.7-68.7C465.3,116.7,491.4,81.9,462.9,53.4 M220,336.7c-3.6,1.3-12.4,4.3-21.9,6.6
			c-16.8,4.1-24.3,3.1-26.3,2.3c-0.9-2-1.9-9.5,2.2-26.2c2.3-9.6,5.4-18.4,6.7-22.1l126.5-126.5l19.1,19.1l20.2,20.2L220,336.7z"/>
		<path fill="#555655" d="M156,376.7c0,0,0.1,0.1,0,0.3C155.8,376.9,156,376.7,156,376.7v0.7c-4.6,7.6-44.6,78.6-44.6,98.8
			c0,21.2,19.4,43.6,44.6,43.8v0v0v0v0c26.3-0.2,44.6-22.6,44.6-43.8c0-20.2-40-91.2-44.6-98.8V376.7z"/>
		<rect x="169.9" y="61.4" fill="none" width="319.6" height="419.6"/>
	</g>
</g>
<g id="Layer_4">
</g>
<g id="Layer_3">
</g>
</svg>
